ELM	Domain
LIG_14-3-3_1	PF00244
LIG_14-3-3_2	PF00244
LIG_14-3-3_3	PF00244
LIG_AP_GAE_1	PF02883
LIG_AP2alpha_1	PF02296
LIG_AP2alpha_2	PF02296
LIG_APCC_Cbox_1	-
LIG_APCC_Cbox_2	-
LIG_BIR_II_1	PF00653
LIG_BIR_III_1	PF00653
LIG_BIR_III_2	PF00653
LIG_BIR_III_3	PF00653
LIG_BIR_III_4	PF00653
LIG_BRCT_BRCA1_1	PF00533
LIG_BRCT_BRCA1_2	PF00533
LIG_BRCT_MDC1_1	PF00533
LIG_CAP-Gly_1	PF01302
LIG_CAP-Gly_2	PF01302
LIG_Clathr_ClatBox_1	PF01394
LIG_CtBP_PxDLS_1	PF00389
LIG_EH_1	PF00036
LIG_EH_1	PF12763
LIG_eIF4E_1	PF01652
LIG_EVH1_1	PF00568
LIG_EVH1_2	PF00568
LIG_HCF-1_HBM_1	PF13415
LIG_HP1_1	PF01393
LIG_Integrin_isoDGR_1	PF08441
LIG_Integrin_isoDGR_1	PF00362
LIG_Integrin_isoDGR_1	PF01839
LIG_KEPE_1	-
LIG_LYPXL_S_1	PF13949
LIG_MYND_1	PF01753
LIG_MYND_2	PF01753
LIG_MYND_3	PF01753
LIG_NRBOX	PF00104
LIG_PDZ_Class_1	PF00595
LIG_PDZ_Class_2	PF00595
LIG_PDZ_Class_3	PF00595
LIG_PTAP_UEV_1	PF05743
LIG_PTB_Phospho_1	PF02174
LIG_PTB_Phospho_1	PF00640
LIG_PTB_Phospho_1	PF08416
LIG_PTB_Phospho_1	PF10480
LIG_Rb_LxCxE_1	PF01857
LIG_RGD	PF00362
LIG_RGD	PF01839
LIG_SH2_GRB2	PF00017
LIG_SH2_PTP2	PF00017
LIG_SH2_SRC	PF00017
LIG_SH2_STAT3	PF00017
LIG_SH2_STAT5	PF00017
LIG_SH2_STAT6	PF00017
LIG_SH3_1	PF00018
LIG_SH3_2	PF00018
LIG_SH3_2	PF07653
LIG_SH3_2	PF14604
LIG_SH3_5	PF00018
LIG_TPR	PF00515
LIG_TRAF2_1	PF00917
LIG_TRAF2_2	PF00917
LIG_TRFH_1	PF08558
LIG_TYR_ITIM	PF00017
LIG_ULM_U2AF65_1	PF00076
LIG_WRPW_1	PF00400
LIG_WRPW_2	PF00400
LIG_WW_1	PF00397
LIG_WW_2	PF00397
LIG_WW_3	PF00397
