Accession	ELMIdentifier	Description	Regex	Probability
ELME000321	CLV_C14_Caspase3-7	Caspase3 and Caspase7 cleavage site	[DSTE][^P][^DEWHFYC]D[GSAN]	0.003564849
ELME000172	CLV_MEL_PAP_1	Prophenoloxidase-activating proteinase (PAP) cleavage site ([Ile/Leu/Val]-Xaa-Xaa-Arg-|-[Val/Phe]-[Gly/Ser]-Xaa)	[ILV]..R[VF][GS].	0.000105376
ELME000102	CLV_NDR_NDR_1	N-Arg dibasic convertase (nardilysin) cleavage site (Xaa-|-Arg-Lys or Arg-|-Arg-Xaa).	(.RK)|(RR[^KR])	0.007464732
ELME000101	CLV_PCSK_FUR_1	Furin (PACE) cleavage site (Arg-Xaa-[Arg/Lys]-Arg-|-Xaa)	R.[RK]R.	0.000508723
ELME000108	CLV_PCSK_KEX2_1	Yeast kexin 2 cleavage site (Lys-Arg-|-Xaa or Arg-Arg-|-Xaa)	[KR]R.	0.007973464
ELME000100	CLV_PCSK_PC1ET2_1	NEC1/NEC2 cleavage site (Lys-Arg-|-Xaa)	KR.	0.003902768
ELME000103	CLV_PCSK_PC7_1	Proprotein convertase 7 (PC7, PCSK7) cleavage site (Arg-Xaa-Xaa-Xaa-[Arg/Lys]-Arg-|-Xaa)	R...[KR]R.	0.000508723
ELME000146	CLV_PCSK_SKI1_1	Subtilisin/kexin isozyme-1 (SKI1) cleavage site ([RK]-X-[hydrophobic]-[LTKF]-|-X)	[RK].[AILMFV][LTKF].	0.006820527
ELME000330	CLV_Separin_Fungi	Separase cleavage site, best known in sister chromatid separation. Also involved in stabilizing the anaphase spindle and centriole disengagement.	S[IVLMH]E[IVPFMLYAQR]GR.	4.05E-06
ELME000331	CLV_Separin_Metazoa	Separase cleavage site, best known in sister chromatid separation.	E[IMPVL][MLVP]R.	0.000341044
ELME000192	CLV_TASPASE1	Taspase1 is a threonine aspartase which was first identified as the protease responsible for processing the trithorax (MLL) type of histone methyltransferases.	Q[MLVI]DG..[DE]	4.79E-06
ELME000231	DEG_APCC_DBOX_1	An RxxL-based motif that binds to the Cdh1 and Cdc20 components of APC/C thereby targeting the protein for destruction in a cell cycle dependent manner	.R..L..[LIVM].	0.000767697
ELME000232	DEG_APCC_KENBOX_2	Motif conserving the exact sequence KEN that binds to the APC/C subunit Cdh1 causing the protein to be targeted for  26S proteasome mediated degradation.	.KEN.	0.000184312
ELME000342	DEG_APCC_TPR_1	This short C-terminal motif is present in co-activators, the Doc1/APC10 subunit and some substrates of the APC/C and mediates direct binding to TPR-containing APC/C core subunits.	.[ILM]R$	1.36E-05
ELME000166	DEG_COP1	COP1 binding motif. The ring finger protein COP1 is an E3 ubiquitin ligase that regulates plant light sensitive development and in mammals can target P53 for destruction.	[DE][DE]...VP[DE]	1.15E-05
ELME000323	DEG_CRL4_CDT2_1	This degron overlaps a PCNA interaction protein (PIP) box and is recognised by the CRL4<sup>Cdt2</sup> ubiquitin ligase in a PCNA- and chromatin-dependent manner.	[NQ]{0,1}..[ILMV][ST][DEN][FY][FY].{2,3}[KR]{2,3}[^DE]	1.62E-07
ELME000324	DEG_CRL4_CDT2_2	This degron, occurring in non-Vertebrates, overlaps a PCNA interaction protein (PIP) box and is recognised by the CRL4<sup>Cdt2</sup> ubiquitin ligase in a PCNA- and chromatin-dependent manner.	[NQ]{0,1}..[ILMV]T[DEN][HMFY][FMY].{2,3}[KR]{2,3}[^DE]	2.24E-07
ELME000184	DEG_MDM2_1	Motif found in p53 family members which confers binding to the N-terminal domain of MDM2.	F...W..[LIV]	1.83E-05
ELME000248	DEG_ODPH_VHL_1	Oxygen dependent prolyl hydroxylation motif in the unstructured region of hypoxia-inducible factor protein and bound by the VHL ligand.	[IL]A(P).{6,8}[FLIVM].[FLIVM]	7.04E-05
ELME000350	DEG_SCF_COI1_1	This degron motif is present in JAZ transcriptional repressor proteins and binds to the COI1 F-box protein of the SCF E3 ubiquitin ligase in a jasmonate-dependent manner.	..[RK][RK].SL..F[FLM].[RK]R[HRK].[RK].	3.63E-11
ELME000289	DEG_SCF_FBW7_1	The TPxxS phospho-dependent degron binds the FBW7 F box proteins of the SCF (Skp1_Cullin-Fbox) complex.	[LIVMP].{0,2}(T)P..([ST])	0.000713833
ELME000292	DEG_SCF_FBW7_2	The TPxxE phospho-dependent degron binds the FBW7 F box proteins of the SCF (Skp1_Cullin-Fbox) complex.	[LIVMP].{0,2}(T)P..E	0.000388223
ELME000322	DEG_SCF_SKP2-CKS1_1	Degradation motif recognised by a pre-assembled complex consisting of Skp2 (an F box protein of the SCF E3 ubiquitin ligase) and Cks1, which leads to ubiquitylation and subsequent proteosomal degradation.	..[DE].(T)P.K	4.78E-05
ELME000347	DEG_SCF_TIR1_1	This degron motif is present in Aux/IAA transcriptional repressor proteins and binds to TIR1/AFB F-box proteins of the SCF E3 ubiquitin ligase in an auxin-dependent manner.	.[VLIA][VLI]GWPP[VLI]...R.	1.34E-09
ELME000269	DEG_SCF_TRCP1_1	The DSGxxS phospho-dependent degron binds the F box protein of the SCF-betaTrCP1 complex. The degron is found in various proteins that function in regulation of cell state.	D(S)G.{2,3}([ST])	0.000126395
ELME000241	DEG_SIAH_1	The PxAxVxP peptide binds to the substrate-binding domain (SBD) of the Siah family members	.P.A.V.P[^P]	2.71E-05
ELME000304	DOC_AGCK_PIF_1	The DOC_AGCK_PIF_1 motif contains a phosphorylatable serine/threonine residue that allows fine-tuning of the affinity of the motif for the PIF pocket, with the phosphorylated motif showing a higher affinity.	F..[FWY][ST][FY]	3.84E-06
ELME000308	DOC_AGCK_PIF_2	In the DOC_AGCK_PIF_2 motif the phosphorylatable serine/threonine residue is replaced by an acidic aspartate or glutamate residue.	F..[FWY][DE][FY]	3.27E-06
ELME000310	DOC_AGCK_PIF_3	The DOC_AGCK_PIF_3 variant consists only of the first two core aromatic residues preceding the phosphorylatable or acidic site in the other variants, and the latter of these two aromatic residues is the C-terminal residue of the kinase sequence.	F..F$	6.03E-07
ELME000097	DOC_ANK_TNKS_1	The Tankyrase binding motif interacts with the ankyrin repeat domain region in Tankyrase-1 and Tankyrase-2 to facilitate the PARsylation of the target proteins.	.R..[PGAV][DEIP]G.	0.000353789
ELME000106	DOC_CYCLIN_1	Substrate recognition site that interacts with cyclin and thereby increases phosphorylation by cyclin/cdk complexes. Predicted proteins should have a CDK phosphorylation site. Also used by cyclin/cdk inhibitors.	[RK].L.{0,1}[FYLIVMP]	0.005323925
ELME000233	DOC_MAPK_1	MAPK interacting molecules (e.g. MAPKKs, substrates, phosphatases) carry docking motif that help to regulate specific interaction in the MAPK cascade. The classic motif approximates (R/K)xxxx#x# where # is a hydrophobic residue.	[KR]{0,2}[KR].{0,2}[KR].{2,4}[ILVM].[ILVF]	0.0043238
ELME000234	DOC_MAPK_2	MAPK interacting molecules (e.g. MAPKKs, substrates, phosphatases) carry docking motif that help to regulate specific interaction in the MAPK cascade.	F.FP	3.18E-05
ELME000320	DOC_PIKK_1	DOC_PIKK_1 motif is located  in the C terminus of Nbs1 and its homologues and interacts with PIKK family members.	[DEN][DEN].{2,3}[ILMVA][DEN][DEN]L	3.13E-05
ELME000137	DOC_PP1	Protein phosphatase 1 catalytic subunit (PP1c) interacting motif binds targeting proteins that dock to the substrate for dephosphorylation. The motif defined is [RK]{0,1}[VI][^P][FW].	..[RK].{0,1}[VIL][^P][FW].	0.000830144
ELME000237	DOC_PP2B_1	Calcineurin substrate docking site, leads to the effective dephosphorylation of serine/threonine phosphorylation sites.	.P[^P]I[^P][IV][^P]	0.000136786
ELME000300	DOC_SPAK_OSR1_1	SPAK/OSR1 kinase binding motif acts as a docking site which aids the interaction with their binding partners including the upstream activators and the phosphorylated substrates.	RF[^P][IV].	7.68E-05
ELME000239	DOC_USP7_1	The USP7 NTD domain binding motif variant based on the MDM2 and P53 interactions.	[PA][^P][^FYWIL]S[^P]	0.013038069
ELME000240	DOC_USP7_2	The USP7 NTD domain binding motif variant based on the EBV EBNA1 interaction.	P.E[^P].S[^P]	0.000716871
ELME000246	DOC_WD40_RPTOR_TOS_1	The TOR pathway adaptor protein Raptor links the mTOR kinase to the TOS motif containing substrates 4E-BP1 and S6-beta kinases. Proteins with TOR motif (e.g. 4E-BP1, S6KB1) participate in the transcription mechanism. 	F[EDQS][MILV][ED][MILV]((.{0,1}[ED])|($))	2.07E-05
ELME000136	DOC_WW_Pin1_4	The Class IV WW domain interaction motif is recognised primarily by the Pin1 phosphorylation-dependent prolyl isomerase.	...([ST])P.	0.015433213
ELME000048	LIG_14-3-3_1	Mode 1 interacting phospho-motif for 14-3-3 proteins with key conservation RxxSxP.	R.[^P]([ST])[^P]P	0.000807719
ELME000051	LIG_14-3-3_2	Longer mode 2 interacting phospho-motif for 14-3-3 proteins with key conservation RxxxS#p.	R..[^P]([ST])[IVLM].	0.001556889
ELME000173	LIG_14-3-3_3	Consensus derived from reported natural interactors which do not  match the Mode 1 and Mode 2 ligands.	[RHK][STALV].([ST]).[PESRDIFTQ]	0.004947962
ELME000314	LIG_Actin_RPEL_3	RPEL motif, present in proteins in several repeats, mediates binding to the hydrophobic cleft created by subdomains 1 and 3 of G-actin.	[IL]..[^P][^P][^P][^P]R.....[IL]..[^P][^P][ILV][ILM]	6.12E-06
ELME000311	LIG_Actin_WH2_1	WH2 is a motif of variable length (16-19 amino acids) binding to the hydrophobic cleft formed by actin's subdomains 1 and 3. At the N-terminus it forms an alpha-helix followed by a flexible loop stabilised upon actin binding.	R..[ILVMF][ILMVF][^P][^P][ILVM].{4,7}L(([KR].)|(NK))[VATI]	2.21E-06
ELME000313	LIG_Actin_WH2_2	The WH2 motif is of variable length (16-19 amino acids) binding to the hydrophobic cleft formed by actin's subdomains 1 and 3. At the N-terminus it forms an alpha-helix followed by a flexible loop stabilised upon actin binding.	[^R]..((.[ILMVF])|([ILMVF].))[^P][^P][ILVM].{4,7}L(([KR].)|(NK))[VATIGS]	0.000705519
ELME000124	LIG_AP2alpha_1	FxDxF motif responsible for the binding of accessory endocytic proteins to the appendage of the alpha-subunit of adaptor protein complex AP-2	F.D.F	1.69E-05
ELME000190	LIG_AP2alpha_2	DPF/W motif binds alpha and beta subunits of AP2 adaptor complex.	DP[FW]	0.000119206
ELME000348	LIG_APCC_Cbox_1	Motif in APC/C co-activators that mediates binding to the APC/C core, possibly the catalytic Apc2 subunit. This first variant defines the motif in APC/C co-activators from Eukaryotes except Fungi and Amoebozoa.	[DE]R[YFH][ILFVM][PAG].R	1.47E-06
ELME000349	LIG_APCC_Cbox_2	Motif in APC/C co-activators that mediates binding to the APC/C core, possibly the catalytic Apc2 subunit. This second variant defines the motif in APC/C co-activators from Fungi and Amoebozoa.	DR[YFH][ILFVM][PA]..	5.75E-06
ELME000107	LIG_AP_GAE_1	The acidic Phe motif mediates the interaction between a set of accessory proteins and the gamma-ear domain (GAE) of GGAs and AP-1. Proposed roles: in clathrin localization and assembly on TGN/endosome membranes and in traffic between the TGN and endosome.	[DE][DES][DEGAS]F[SGAD][DEAP][LVIMFD]	5.28E-06
ELME000285	LIG_BIR_II_1	These IBMs are found in pro-apoptotic proteins and function in the abrogation of caspase inhibition by Inhibitor of Apoptosis Proteins (IAPs) in apoptotic cells. The motif binds specifically to type II BIR domains.	^M{0,1}[AS]...	0.000325202
ELME000279	LIG_BIR_III_1	These IBMs are found in pro-apoptotic proteins and function in the abrogation of caspase inhibition by Inhibitor of Apoptosis Proteins (IAPs) in apoptotic cells. The motif binds specifically to type III BIR domains.	^M{0,1}A.P.	1.28E-05
ELME000287	LIG_BIR_III_2	These IBMs are found at the N-terminal regions of caspase subunits where they mediate the inhibition of activated caspases by binding to conserved surface grooves on type III BIR domains of Inhibitor of Apoptosis Proteins (IAPs).	DA.P.	0.000351121
ELME000288	LIG_BIR_III_3	These IBMs are found in arthropodal pro-apoptotic proteins and function in the abrogation of caspase inhibition by Inhibitor of Apoptosis Proteins (IAPs) in apoptotic cells. The motif binds specifically to type III BIR domains of arthropodal IAPs.	^M{0,1}A.[AP].	2.28E-05
ELME000293	LIG_BIR_III_4	These IBMs are found in the N-terminal regions of arthropodal caspase subunits where they mediate the inhibition of activated caspases by binding to conserved surface grooves on type III BIR domains of Inhibitor of Apoptosis Proteins (IAPs).	DA.G.	0.000275376
ELME000197	LIG_BRCT_BRCA1_1	Phosphopeptide motif which directly interacts with the BRCT (carboxy-terminal) domain  of the Breast Cancer Gene BRCA1 with low affinity	.(S)..F	0.001911521
ELME000198	LIG_BRCT_BRCA1_2	Phosphopeptide motif which directly interacts with the BRCT (carboxy-terminal) domain of the Breast Cancer Gene BRCA1 with high affinity.	.(S)..F.K	0.000116928
ELME000199	LIG_BRCT_MDC1_1	Phosphopeptide motif which is specifically recognized by the BRCT (Carboxy-terminal) repeats of MDC1	.(S)..Y$	2.63E-06
ELME000236	LIG_CAP-Gly_1	Short, acidic and aromatic carboxy terminal sequence found in a small group of microtubule-associated-proteins. The EEY/F$ motif is highly conserved and so far limited to a few known proteins, alpha-tubulin, EB proteins and CLIP170.	[ED].{0,2}[ED].{0,2}[EDQ].{0,1}[YF]$	3.96E-06
ELME000325	LIG_CAP-Gly_2	Short, partly aromatic carboxy terminal sequence found in the SLAIN group of microtubule-associated-proteins.	.W[RK][DE]GCY$	2.16E-12
ELME000047	LIG_Clathr_ClatBox_1	Clathrin box motif found on cargo adaptor proteins, it interacts with the beta propeller structure located at the N-terminus of Clathrin heavy chain.	L[IVLMF].[IVLMF][DE]	0.000340551
ELME000186	LIG_Clathr_ClatBox_2	Clathrin box motif found on cargo adaptor proteins, it mediates binding to the N-terminal beta propeller of clathrin heavy chain. Also called W box, it is found in the central region of Amphiphysins where it coexists with a "classical" clathrin box.	.[NP]W[DES].W	1.46E-06
ELME000046	LIG_CORNRBOX	The corepressor nuclear receptor box motif confers binding to nuclear receptors.	L[^P]{2,2}[HI]I[^P]{2,2}[IAV][IL]	1.03E-06
ELME000098	LIG_CtBP_PxDLS_1	The PxDLS motif interacts with the NAD-dependent repressor CtBP proteins.	(P[LVIPME][DENS][LM][VASTRG])|(G[LVIPME][DENS][LM][VASTRG]((K)|(.[KR])))	0.000117291
ELME000121	LIG_Dynein_DLC8_1	The [KR]xTQT motif interacts with the common target-accepting grooves of 8kDa Dynein Light Chain dimer.	[^P].[KR].TQT	2.26E-05
ELME000338	LIG_EABR_CEP55_1	This proline-rich motif binds to the EABR domain of Cep55 and is involved in both cytokinesis of somatic cells and intercellular bridge formation in differentiating germ cells.	.A.GPP.{2,3}Y.	1.38E-06
ELME000056	LIG_EH_1	NPF motif interacting with EH domains, usually during regulation of endocytotic processes	.NPF.	5.86E-05
ELME000148	LIG_EH1_1	The engrailed homology domain 1 motif is found in homeodomain containing active repressors and other transcription families, and allows for the recruitment of Groucho/TLE corepressors.	.[FYH].[IVM][^WFYP][^WFYP][ILM][ILMV].	7.86E-05
ELME000317	LIG_eIF4E_1	Motif binding to the dorsal surface of eIF4E.	Y....L[VILMF]	0.000189128
ELME000319	LIG_eIF4E_2	Atypical variant of eIF4E motif.	Y.PP.[ILMV]R	1.32E-06
ELME000057	LIG_EVH1_1	Proline-rich motif binding to signal transduction class I EVH1 domains.	([FYWL]P.PP)|([FYWL]PP[ALIVTFY]P)	0.000123675
ELME000058	LIG_EVH1_2	Proline-rich motif binding to signal transduction class II EVH1 domains.	PP..F	0.000163247
ELME000315	LIG_EVH1_3	A proline-rich motif binding to EVH1/WH1 domains of WASP and N-WASP proteins.	[FY].[FW].....[LMVIF]P.P[DE]	1.85E-07
ELME000125	LIG_FAT_LD_1	The paxillin LD motif is recognized by FAK and other focal adhesion proteins mainly involved in cytoskeletal regulation	[LV][DE][^P][LM][LM][^P][^P]L[^P]	6.90E-06
ELME000052	LIG_FHA_1	Phosphothreonine motif binding a subset of FHA domains that show a preference for a large aliphatic amino acid at the pT+3 position.	..(T)..[ILV].	0.008662243
ELME000220	LIG_FHA_2	Phosphothreonine motif binding a subset of FHA domains that have a preference for an acidic amino acid at the pT+3 position.	..(T)..[DE].	0.008286441
ELME000255	LIG_GLEBS_BUB3_1	Gle2-binding-sequence motif	[EN][FYLW][NSQ].EE[ILMVF][^P][LIVMFA]	9.07E-07
ELME000116	LIG_GYF	LIG_GYF is a proline-rich sequence specifically recognized by GYF domains	[QHR].{0,1}P[PL]PP[GS]H[RH]	1.69E-08
ELME000302	LIG_HCF-1_HBM_1	The DHxY Host Cell Factor-1 binding motif (HBM) interacts with the N-terminal kelch propeller domain of the cell cycle regulator HCF-1	[DE]H.Y	5.07E-05
ELME000170	LIG_HOMEOBOX	The YPWM motif confers binding to the PBX homeobox domain	[FY][DEP]WM	9.95E-07
ELME000141	LIG_HP1_1	Ligand to interface formed by dimerisation of two chromoshadow domains in HP1 proteins.	P[MVLIRWY]V[MVLIAS][LM]	3.38E-05
ELME000129	LIG_IBS_1	Integrins are major collagen receptors on the surface of eukaryotic cells. This consensus sequence is present in some alpha chains of different collagen types (e.g. alpha 1 chain of type I, II, V and alpha 2 chain of collagen type I and VIII).	G[FL]PGER..G	1.98E-08
ELME000316	LIG_Integrin_isoDGR_1	NGR motif is present in proteins of extracellular matrix which upon deamidation forms a biologically active isoDGR motif that binds to various members of integrin family.	NGR	0.000159725
ELME000134	LIG_IQ	Calmodulin binding helical peptide motif	...[SACLIVTM]..[ILVMFCT]Q.{3,3}[RK].{4,5}[RKQ]..	0.000265815
ELME000250	LIG_KEPE_1	Short length variant of the KEPE motif which is found superposed on some SUMO sites	[VILMFT]K.EP.[DE]	1.73E-05
ELME000251	LIG_KEPE_2	Medium length variant of the KEPE motif which is found superposed on some SUMO sites	[VILMFT]K.EP.{2,3}[DE]	3.47E-05
ELME000252	LIG_KEPE_3	Long length variant of the KEPE motif which is found superposed on some SUMO sites	[VILMFT]K.EP....[DE]	1.73E-05
ELME000299	LIG_LYPXL_L_2	The long version of the LYPxL motif binds the V-domain of Alix, a protein involved in endosomal sorting.	[LM]YP...[LI][^P][^P][LI]	1.01E-06
ELME000294	LIG_LYPXL_S_1	The short version of the LYPxL motif binds the V-domain of Alix, a protein involved in endosomal sorting.	[LM]YP.[LI]	1.23E-05
ELME000167	LIG_MAD2	Mad2 binding motif	[KR][IV][LV].....P	0.000101063
ELME000145	LIG_MYND_1	PxLxP motif is recognized by a subset of MYND domain containing proteins.	P.L.P	0.000649937
ELME000340	LIG_MYND_2	Motif that mediates the interaction between MYND domain of AML1/ETO and co-repressors SMRT and N-CoR.	PP.LI	1.75E-05
ELME000341	LIG_MYND_3	A variant MYND binding motif found in the HSP90 co-chaperones p23 and FKBP38 interacting with PHD2 MYND domain.	[LMV]P.LE	8.44E-05
ELME000346	LIG_NBox_RRM_1	Amino terminal region on Far Upstream Element (FUSE) binding protein (UNIPROT:Q96AE4), which mediates the interaction with FIR in order to recruit FIR (UNIPROT:Q9UHX1) to FUSE DNA.	F..A[ILV]..A..[ILV]	2.14E-06
ELME000045	LIG_NRBOX	The nuclear receptor box motif (LXXLL) confers binding to nuclear receptors.	[^P]L[^P][^P]LL[^P]	0.000262765
ELME000326	LIG_OCRL_FandH_1	The F and H motif describes a 10-13-mer peptide sequence determined by a highly conserved phenylalanine and histidine residue surrounded by hydrophobic amino acids. A complex of ASH and RhoGAP-like domain binds this motif within a hydrophobic pocket.	.F[^P][^P][KRIL]H[^P][^P][YLMFH][^P]...	9.77E-06
ELME000303	LIG_PAM2_1	Peptide ligand motif that directly binds to the MLLE/PABC domain found in poly(A)-binding proteins and HYD E3 ubiquitin ligases, mainly via a common central core region and a complementary N-terminal region.	..[LFP][NS][PIVTAFL].A..(([FY].[PYLF])|(W..)).	9.95E-06
ELME000339	LIG_PAM2_2	Peptide ligand motif that directly binds to the MLLE/PABC domain found in poly(A)-binding proteins and HYD E3 ubiquitin ligases, mainly via a common central core region and a complementary C-terminal region.	((WPP)|([FL][PV][APQ]))EF.PG.PWKG.	9.77E-14
ELME000140	LIG_PCNA_PIPBox_1	The PCNA binding PIP box  motif is found in proteins involved in DNA replication, repair and cell cycle control.	((^.{0,3})|(Q)).[^FHWY][ILM][^P][^FHILVWYP][HFM][FMY]..	2.31E-06
ELME000086	LIG_PDZ_Class_1	The C-terminal class 1 PDZ-binding motif is classically represented by a pattern like (ST)X(VIL)*	...[ST].[ACVILF]$	7.25E-05
ELME000091	LIG_PDZ_Class_2	The C-terminal class 2 PDZ-binding motif is classically represented by a pattern such as (VYF)X(VIL)*	...[VLIFY].[ACVILF]$	7.89E-05
ELME000089	LIG_PDZ_Class_3	The C-terminal class 3 PDZ-binding motif is classically represented by a pattern such as (DE)X(VIL)*	...[DE].[ACVILF]$	6.17E-05
ELME000099	LIG_PTAP_UEV_1	PTAP motif binds the N-terminal UEV domain of Tsg101.	.P[TS]AP.	0.000108061
ELME000122	LIG_PTB_Apo_2	These phosphorylation-independent motifs bind to Dab-like PTB domains. Binding is not driven by contacts at the 0 or FY position, but instead is dependent upon the large number of hydrophobic and hydrogen bond contacts between motif and domain.	(.[^P].NP.[FY].)|(.[ILVMFY].N..[FY].)	0.000310821
ELME000095	LIG_PTB_Phospho_1	This phosphorylation-dependent motif binds to Shc-like and IRS-like PTB domains. The pTyr is positioned within a highly basic-charged anchoring pocket. A hydrophobic residue -5 (compared to pY) increases the affinity of the interaction.	(.[^P].NP.(Y))|(.[ILVMFY].N..(Y))	0.000135241
ELME000007	LIG_Rb_LxCxE_1	Interacts with the Retinoblastoma protein	[LI].C.[DE]	0.000135036
ELME000301	LIG_Rb_pABgroove_1	The LxxLFD motif binds in a deep groove between pocket A and pocket B of the Retinoblastoma protein	..[LIMV]..[LM][FY]D.	2.47E-05
ELME000094	LIG_RGD	The RGD motif can be found in many proteins of the extracellular matrix and it is recognized by different members of the integrin family. The structure of the tenth type III module of fibronectin has  shown that the RGD motif lies on an exposed flexible lo	RGD	0.000236617
ELME000235	LIG_RRM_PRI_1	The PTB RRM2 Interacting (PRI) motif is found in some splicing regulators, possibly only in the chordate lineage. As part of splicing complex regulation, it interacts with the 2nd RNA binding domain (RRM) of PTB, the polypyrimidine tract binding protein.	.[ILVM]LG..P.	8.39E-05
ELME000084	LIG_SH2_GRB2	GRB2-like Src Homology 2 (SH2) domains binding motif.	(Y).N.	0.000478687
ELME000083	LIG_SH2_PTP2	SH-PTP2 and phospholipase C-gamma Src Homology 2 (SH2) domains binding motif.	(Y)[IV].[VILP]	0.000245393
ELME000081	LIG_SH2_SRC	Src-family Src Homology 2 (SH2) domains binding motif.	(Y)[QDEVAIL][DENPYHI][IPVGAHS]	0.000872937
ELME000163	LIG_SH2_STAT3	YXXQ motif found in the cytoplasmic region of cytokine receptors that bind STAT3 SH2 domain.	(Y)..Q	0.000797496
ELME000182	LIG_SH2_STAT5	STAT5 Src Homology 2 (SH2) domain binding motif.	(Y)[VLTFIC]..	0.003295871
ELME000183	LIG_SH2_STAT6	STAT6 Src Homology 2 (SH2) domain binding motif.	G(Y)[KQ].F	2.26E-06
ELME000005	LIG_SH3_1	This is the motif recognized by class I SH3 domains	[RKY]..P..P	0.001236982
ELME000006	LIG_SH3_2	This is the motif recognized by class II SH3 domains	P..P.[KR]	0.001111242
ELME000155	LIG_SH3_3	This is the motif recognized by those SH3 domains with a non-canonical class I recognition specificity	...[PV]..P	0.013172914
ELME000156	LIG_SH3_4	This is the motif recognized by those SH3 domains with a non-canonical class II recognition specificity	KP..[QK]...	0.000678138
ELME000157	LIG_SH3_5	PXXDY motif recognized by some SH3 domains	P..DY	6.69E-05
ELME000021	LIG_Sin3_1	Motif interacts with PAH2 domain in the Sin3 scaffold protein.	[LIV]..[LM]L.AA.[FY][LI]	1.76E-08
ELME000022	LIG_Sin3_2	Motif interacts with PAH2 domain in the Sin3 scaffold protein (sp-1 like).	[FHYM].A[AV].[VAC]L[MV].[MI]	1.94E-08
ELME000041	LIG_Sin3_3	Motif interacts with PAH2 domain in the Sin3 scaffold protein (not mad or sp-1 like).	[FA].[LA][LV][LVI]..[AM]	2.20E-05
ELME000327	LIG_SPRY_1	Peptide motif binding to the members of the SSB (or SPSB) family (SPRY domain- and SOCS box-containing protein)	[ED][LIV]NNN[^P]	7.11E-07
ELME000333	LIG_SUMO_SBM_1	Motif that mediates binding to SUMO proteins non-covalently.	[ILV](.[ILV]|[ILV]|[ILV].)[ILV][STDE]{1,10}	0.04232246
ELME000335	LIG_SUMO_SBM_2	Inverted version of LIG_SUMO_SBM_1 that mediates binding to SUMO proteins non-covalently.	[STDE]{1,10}[ILV](.[ILV]|[ILV]|[ILV].)[ILV]	0.018382981
ELME000254	LIG_SxIP_EBH_1	SxIP motifs bind to EBH domains.	([KR][^ED]{0,5}[ST].IP[^ED]{5,5})|([^ED]{5,5}[ST].IP[^ED]{0,5}[KR])	0.000209646
ELME000130	LIG_TPR	Ligands of the TPR (tetratricopeptide repeat motif) domains are EEVD motifs, C-terminal sequences highly conserved in all eukaryotic members of the Hsp70 and Hsp90 families.	EEVD$	3.23E-08
ELME000117	LIG_TRAF2_1	Major TRAF2-binding consensus motif. Members of the tumor necrosis factor receptor (TNFR) superfamily initiate intracellular signaling by recruiting the C-domain of the TNFR-associated factors (TRAFs) through their cytoplasmic tails.	[PSAT].[QE]E	0.004299813
ELME000118	LIG_TRAF2_2	Minor TRAF2-binding consensus motif.  Members of the tumor necrosis factor receptor (TNFR) superfamily initiate intracellular signaling by recruiting the C-domain of the TNFR-associated factors (TRAFs) through their cytoplasmic tails.	P.Q..D	0.00026668
ELME000133	LIG_TRAF6	TRAF6 binding site. Members of the tumor necrosis factor receptor (TNFR) superfamily initiate intracellular signaling by recruiting the C-domain of the TNFR-associated factors (TRAFs) through their cytoplasmatic tails.	..P.E..[FYWHDE].	0.001714719
ELME000249	LIG_TRFH_1	TRF1 and TRF2 both bind to another shelterin protein: TIN2. The TRF1-TIN2 interaction was mediated by a short motif in the N-Ter of TIN2. TIN2 connects TRF1 to TRF2; this link contributes to the stabilization of TRF2 on telomeres.	[FY].L.P	0.000224005
ELME000017	LIG_TYR_ITAM	ITAM (immunoreceptor tyrosine-based activatory motif). ITAM consists of partially conserved short sequence of amino acid found in the cytoplasmatic tail of antigen and Fc receptors.	[DEN]..(Y)..[LI].{6,12}(Y)..[LI]	2.43E-06
ELME000020	LIG_TYR_ITIM	ITIM (immunoreceptor tyrosine-based inhibitory motif). Phosphorylation of the ITIM motif, found in the cytoplasmic tail of some inhibitory receptors (KIRs) that bind MHC Class I, leads to the recruitment and activation of a protein tyrosine phosphatase.	[ILV].(Y)..[ILV]	0.000299241
ELME000142	LIG_TYR_ITSM	ITSM (immunoreceptor tyrosine-based switch motif). This motif is present in the cytoplasmic region of the CD150 subfamily within the CD2 family and it enables these receptors to bind to and to be regulated by SH2 adaptor molecules, as SH2DIA.	..T.(Y)..[IV]	6.09E-05
ELME000201	LIG_ULM_U2AF65_1	Pattern encompassing the ULMs in SF1 and SAP155 which bind to the UHM of U2AF65	[KR]{1,4}[KR].[KR]W.	1.53E-05
ELME000119	LIG_WH1	LIG_WH1 is the WIP sequence motif binding to the WH1 domains of WASP and N-WASP.	ES[RK][FY].F[HR][PST][IVLM][DES][DE]	8.90E-11
ELME000104	LIG_WRPW_1	The WRPW motif mediates recruitment of transcriptional co-repressors of the Groucho/transducin-like enhancer-of-split (TLE) family. LIG_WRPW_1 is based on the C-terminus located motifs found in the Hairy and Runt family proteins.	[WFY]RP[WFY].{0,7}$	1.33E-07
ELME000105	LIG_WRPW_2	The WRPW motif mediates recruitment of transcriptional co-repressors of the Groucho/transducin-like enhancer-of-split (TLE) family. LIG_WRPW_2 is not restricted to the C-terminus (in contrast to LIG_WRPW_1).	[WFY][KR]P[WFY]	1.82E-05
ELME000003	LIG_WW_1	PPXY is the motif recognized by WW domains of Group I	PP.Y	0.000125741
ELME000004	LIG_WW_2	PPLP is the motif recognized by WW domains of Group II	PPLP	6.13E-05
ELME000135	LIG_WW_3	WW domain of group III binding motif	.PPR.	0.000567323
ELME000096	MOD_ASX_betaOH_EGF	ASX hydroxylation of some EGF domains.	C.([DN]).{4,4}[FY].C.C	2.49E-09
ELME000059	MOD_CAAXbox	Generic CAAX box prenylation motif	(C)[^DENQ][LIVM].$	2.20E-06
ELME000153	MOD_CDK_1	Substrate motif for phosphorylation by CDK	...([ST])P.[KR]	0.001928719
ELME000063	MOD_CK1_1	CK1 phosphorylation site	S..([ST])...	0.01704074
ELME000064	MOD_CK2_1	CK2 phosphorylation site	...([ST])..E	0.014568074
ELME000160	MOD_CMANNOS	Motif for attachment of a mannosyl residue to a tryptophan	(W)..W	4.69E-05
ELME000093	MOD_Cter_Amidation	Peptide C-terminal amidation	(.)G[RK][RK]	0.001155029
ELME000085	MOD_GlcNHglycan	Glycosaminoglycan attachment site	[ED]{0,3}.(S)[GA].	0.017919063
ELME000053	MOD_GSK3_1	GSK3 phosphorylation recognition site	...([ST])...[ST]	0.02678656
ELME000334	MOD_LATS_1	The LATS phosphorylation motif is recognised by the LATS kinases for Ser/Thr phosphorylation. Substrates are often found toward the end of the Hippo signalling pathway.	H.[KR]..([ST])[^P]	0.000477646
ELME000336	MOD_NEK2_1	NEK2 phosphorylation motif with preferred Phe, Leu or Met in the -3 position to compensate for less favorable residues in the +1 and +2 position.	[FLM][^P][^P]([ST])[^DEP][^DE]	0.01218038
ELME000337	MOD_NEK2_2	NEK2 phosphorylation motif with specific set of residues in the +1 and +2 position to compensate for less favorable residues in the -3 position.	[WYPCAG][^P][^P]([ST])[IFCVML][KRHYF]	0.001295034
ELME000070	MOD_N-GLC_1	Generic motif for N-glycosylation. It was shown that Trp, Asp, and Glu are uncommon before the Ser/Thr position (PMID:8626433). Efficient glycosylation usually occurs when ~60 residues or more separate the glycosylation acceptor site from the C-terminus.	.(N)[^P][ST]..	0.005017817
ELME000079	MOD_N-GLC_2	Atipical motif for N-glycosylation site. Examples are Human CD69, which is uniquely glycosylated at typical (Asn-X-Ser/Thr) and atypical (Asn-X-Cys) motifs, beta protein C	(N)[^P]C	0.000297299
ELME000060	MOD_NMyristoyl	Generic motif for N-Myristoylation site.	^M{0,1}(G)[^EDRKHPFYW]..[STAGCN][^P]	1.59E-05
ELME000162	MOD_OFUCOSY	Site for attachment of a fucose residue to a serine.	C.{3,5}([ST])C	4.62E-05
ELME000161	MOD_OGLYCOS	Site for attachment of a glucose residue to a serine.	C.(S).PC	9.23E-07
ELME000202	MOD_PIKK_1	(ST)Q motif which is phosphorylated by PIKK family members.	...([ST])Q..	0.009230108
ELME000065	MOD_PK_1	Phosphorylase kinase phosphorylation site	[RK]..(S)[VI]..	0.000941754
ELME000008	MOD_PKA_1	Main preference for PKA-type AGC kinase phosphorylation.	[RK][RK].([ST])[^P]..	0.002315095
ELME000062	MOD_PKA_2	Secondary preference for PKA-type AGC kinase phosphorylation.	.R.([ST])[^P]..	0.009457527
ELME000061	MOD_PKB_1	PKB Phosphorylation site	R.R..([ST])[^P]..	0.000603409
ELME000147	MOD_PLK	Site phosphorylated by the Polo-like kinase.	.[DE].([ST])[ILFWMVA]..	0.006014559
ELME000159	MOD_ProDKin_1	Proline-Directed Kinase (e.g. MAPK) phosphorylation site in higher eukaryotes.	...([ST])P..	0.015433213
ELME000175	MOD_SPalmitoyl_2	Class 2 Palmitoylation motif	G(C)M[GS][CL][KP]C	3.05E-10
ELME000168	MOD_SPalmitoyl_4	Class 4 palmitoylation motif	^M{0,1}G(C)..S[AKS]	3.26E-08
ELME000002	MOD_SUMO	Motif recognised for modification by SUMO-1	[VILMAFP](K).E	0.001914001
ELME000013	MOD_TYR_CSK	Members of the non-receptor tyrosine kinase Csk family phosphorylate the C-terminal tyrosine residues of the Src family.	[TAD][EA].Q(Y)[QE].[GQA][PEDLS]	2.93E-07
ELME000092	MOD_TYR_DYR	The kinase activity of the DYRK (dual specificity kinase) is dependent on the autophosphorylation of the YXY motif in the activation loop.	..[RKTC][IVL]Y[TQHS](Y)[IL]QSR	5.21E-11
ELME000152	MOD_WntLipid	Palmitoylation site in WNT signalling proteins that is required for correct processing in the endoplasmic reticulum.	[ETA](C)[QERK]..F...RWNC[ST]	2.52E-13
ELME000247	TRG_AP2beta_CARGO_1	AP-2 beta appendage platform subdomain (top surface) binding motif used in targeting cargo for internalisation.	[DE].{1,2}F[^P][^P][FL][^P][^P][^P]R	1.82E-05
ELME000256	TRG_Cilium_Arf4_1	The VxPx motif is located in the cytoplasmatic tails of vesicular cargoes. It allows the interaction with proteins that permit the vesicle budding from the trans-Golgi-network and its posterior transport to the plasma membrane of the cilia.	QV.P.$	4.32E-07
ELME000259	TRG_Cilium_RVxP_2	The VxPx motif is located in the cytoplasmatic tails of vesicular cargoes. It allows the interaction with proteins that permit the vesicle budding from the trans-Golgi-network and its posterior transport to the plasma membrane of the cilia	RV.P.	0.000273136
ELME000120	TRG_ENDOCYTIC_2	Tyrosine-based sorting signal responsible for the interaction with mu subunit of AP (Adaptor Protein) complex	Y..[LMVIF]	0.002587492
ELME000012	TRG_ER_diArg_1	The di-Arg ER retention motif is defined by two consecutive arginine residues (RR) or with a single residue insertion (RXR). The motif is completed by an adjacent hydrophobic/arginine residue which may be on either side of the Arg pair.	([LIVMFYWPR]R[^YFWDE]{0,1}R)|(R[^YFWDE]{0,1}R[LIVMFYWPR])	0.005369273
ELME000011	TRG_ER_diLys_1	ER retention and retrieving signal found at the C-terminus of type I ER membrane proteins (cytoplasmic in this topology). Di-Lysine signal is responsible for COPI-mediated retrieval from post-ER compartments.	K.{0,1}K.{2,3}$	2.68E-05
ELME000253	TRG_ER_FFAT_1	VAP-A/Scs2 MSP-domain binding FFAT (diphenylalanine [FF] in an Acidic Tract) motif	[DE].{0,4}E[FY][FYK]D[AC].[ESTD]	2.40E-07
ELME000010	TRG_ER_KDEL_1	Golgi-to-ER retrieving signal found at the C-terminus of many ER soluble proteins. It interacts with the KDEL receptor which in turns interacts with components of the coatomer (COP I).	[KRHQSAP][DENQT]EL$	1.61E-06
ELME000132	TRG_Golgi_diPhe_1	ER to Golgi anterograde transport signal found at the C-terminus of type I ER-CGN integral membrane cargo receptors (cytoplasmic in this topology), it binds to COPII.	Q.{6,6}FF.{6,7}$	6.80E-08
ELME000149	TRG_LysEnd_APsAcLL_1	Sorting and internalisation signal found in the cytoplasmic juxta-membrane region of type I transmembrane proteins. Targets them from the Trans Golgi Network to the lysosomal-endosomal-melanosomal compartments. Interacts with adaptor protein (AP) complexes	[DERQ]...L[LVI]	0.002757672
ELME000150	TRG_LysEnd_APsAcLL_3	Sorting signal found in the cytoplasmic juxta-membrane region of type I transmembrane lysosomal, endosomal and melanosomal proteins. Based on experimental evidence and alignments, this very specific ELM represents the best combination for AP3 binding.	[DET]E[RK].PL[LI]	1.52E-06
ELME000131	TRG_LysEnd_GGAAcLL_1	Sorting signal directing type I transmembrane proteins from the Trans Golgi Network (TGN) to the lysosomal-endosomal compartment. It is found near the C-terminus and interacts with the VHS domain of GGAs adaptor proteins.	D..LL.{1,2}$	9.59E-07
ELME000187	TRG_LysEnd_GGAAcLL_2	Internal acidic di Leucine motif found in GGA 1 and 3. It binds to their VHS domains in an autoinhibitory manner. Cycles of phosphorylation-dephosphorylation of upstream Ser regulate the autoinhibitory binding and therefore the function of GGA 1/3.	S[LW]LD[DE]EL[LM]	2.55E-09
ELME000193	TRG_NES_CRM1_1	Some proteins re-exported from the nucleus contain a Leucine-rich nuclear export signal (NES) binding to the CRM1 exportin protein.	([DEQ].{0,1}[LIM].{2,3}[LIVMF][^P]{2,3}[LMVF].[LMIV].{0,3}[DE])|([DE].{0,1}[LIM].{2,3}[LIVMF][^P]{2,3}[LMVF].[LMIV].{0,3}[DEQ])	0.000762614
ELME000276	TRG_NLS_Bipartite_1	Bipartite variant of the classical basically charged NLS.	[KR][KR].{7,15}[^DE]((K[RK])|(RK))(([^DE][KR])|([KR][^DE]))[^DE]	0.000258797
ELME000270	TRG_NLS_MonoCore_2	Monopartite variant of the classical basically charged NLS. Strong core version.	[^DE]((K[RK])|(RK))[KRP][KR][^DE]	0.000234485
ELME000278	TRG_NLS_MonoExtC_3	Monopartite variant of the classical basically charged NLS. C-extended version.	[^DE]((K[RK])|(RK))(([^DE][KR])|([KR][^DE]))(([PKR])|([^DE][DE]))	0.000725182
ELME000271	TRG_NLS_MonoExtN_4	Monopartite variant of the classical basically charged NLS. N-extended version.	(([PKR].{0,1}[^DE])|([PKR]))((K[RK])|(RK))(([^DE][KR])|([KR][^DE]))[^DE]	0.001276388
ELME000080	TRG_PEX_1	Wxxx[FY] motifs present in N-terminal half of Pex5 bind to Pex13 and Pex14 at peroxisomal and glycosomal membranes to facilitate entrance of PTS1 cargo proteins into the organellar lumen.	W...[FY]	0.000222625
ELME000328	TRG_PEX_2	Fxxx[WF] motifs are present in Pex19 and S. cerevisiae Pex5 cytosolic receptors that bind to peroxisomal membrane docking member, Pex14	F...[WF]	0.000462812
ELME000329	TRG_PEX_3	LxxLLxxxLxxF motif is located in N-terminus of Pex19 receptors that are responsible for docking to Pex3 docking factor at cis side of peroxisomal membrane.	L..LL...L..F	5.24E-07
ELME000009	TRG_PTS1	Generic PTS1 ELM for all eukaryotes	(.[SAPTC][KRH][LMFI]$)|([KRH][SAPTC][NTS][LMFI]$)	1.52E-05
ELME000069	TRG_PTS2	Generic PTS2 pattern for all eukaryotes (except lineages which have lost it)	^.{1,40}R[^P][^P][^P][LIV][^P][^P][HQ][LIF]	3.94E-06
