0610007P14Rik:NM_021446:2	|G-spec
0610007P22Rik:NM_026676:2	|Sp-spec
0610011L14Rik:NM_001164818:2	|G-spec
1110057K04Rik:NM_001167767:3	|G-spec
1110059E24Rik:NM_025423:2	|Cons-AS
1700040I03Rik:NM_001163427:2	|Cons-AS
1810012P15Rik:NM_001076681:2	|G-spec
1810074P20Rik:NM_026194:5	|Sp-spec
2210018M11Rik:NM_172280:5	|G-spec
2310021P13Rik:NM_027996:3	|Sp-spec
2310030N02Rik:NM_001085493:4	|Sp-spec
2310035C23Rik:NM_173187:7	|Sp-spec
2310035C23Rik:uc007cgl.1:23	|G-spec
2310044G17Rik:NR_033623:3	|G-spec
2410091C18Rik:NM_028611:8	|Sp-spec
2610101N10Rik:NM_026476:12	|Cons-AS
3110002H16Rik:NM_029623:2	|Sp-spec
4930452B06Rik:NM_028934:2	|G-spec
4933424B01Rik:NM_138757:17	|G-spec
4933426M11Rik:uc007obj.1:3	|G-spec
5730419I09Rik:NM_029081:23	|G-spec
5730455O13Rik:NM_001081075:7	|Sp-spec
6230409E13Rik:NM_175234:4	|G-spec
6330409N04Rik:NM_025697:4	|Sp-spec
9030624J02Rik:NM_027815:28	|Sp-spec
9330182L06Rik:NM_172706:2	|G-spec
A2BP1:ENSGALT00000011913:10	|Cons-AS
A7M7B8_CHICK:ENSGALT00000009056:31	|Cons-AS
Aak1:NM_001040106:12	|G-spec
Aak1:NM_177762:16	|G-spec
AARSD1:ENSGALT00000004541:15	|Sp-spec
AARSD1:NM_001136042:15	|Sp-spec
AASDH:NM_181806:12	|Sp-spec
AASS:NM_005763:13	|Sp-spec
Abca2:NM_007379:12	|G-spec
Abca3:NM_013855:2	|G-spec
ABCB6:NM_005689:2	|Sp-spec
ABCB9:NM_019625:7	|Sp-spec
Abcc10:NM_170680:4	|Sp-spec
ABCC2:NM_000392:21	|G-spec
ABCC9:ENSGALT00000021626:18	|Cons-AS
Abcc9:NM_011511:16	|Sp-spec
Abcc9:NM_011511:19	|Cons-AS
abcd4:ENSXETT00000029109:2	|G-spec
ABCD4:NM_005050:3	|G-spec
Abcd4:NM_008992:18	|Sp-spec
Abcd4:NM_008992:3	|G-spec
ABHD13:NM_001008681:2	|G-spec
Abhd13:NM_026868:2	|G-spec
Abhd2:NM_018811:2	|G-spec
abhd4:NM_001017287:2	|Cons-AS
abi1:NM_001007487:7	|Cons-AS
ABI1:NM_001178116:9	|G-spec
ABI1:NM_001178119:4	|G-spec
ABI1:NM_001178119:8	|Cons-AS
Abi1:NM_007380:8	|G-spec
Abi2:NM_001198570:6	|Cons-AS
ABL1:NM_007313:7	|Sp-spec
Abl1:uc008jdz.1:2	|G-spec
Abl2:NM_009595:2	|G-spec
ABLIM1:NM_001159363:18	|Cons-AS
ABLIM1:NM_002313:15	|Cons-AS
ABLIM2:ENSGALT00000025088:11	|Cons-AS
ablim2:ENSXETT00000025375:9	|Cons-AS
ABLIM2:NM_001130083:12	|G-spec
ABLIM2:NM_001130088:11	|G-spec
Ablim2:NM_001177697:11	|G-spec
Ablim2:NM_001177698:13	|G-spec
ABTB1:NM_001030598:8	|Sp-spec
Abtb1:NM_030251:11	|Sp-spec
Abtb1:NM_030251:3	|Sp-spec
ABTB1:NM_172027:7	|Sp-spec
ACAA1:NM_001607:9	|Sp-spec
ACACB:uc010sxl.1:20	|G-spec
ACAD10:NM_025247:10	|Sp-spec
Acbd4:NM_025988:4	|Classifiers
ACER3:NM_018367:8	|Sp-spec
ACLY:NM_001030540:14	|G-spec
ACLY:NM_001096:14	|G-spec
ACLY:NM_001096:26	|Sp-spec
ACOT11:ENSGALT00000017540:2	|G-spec
ACOT11:uc001cxk.2:2	|G-spec
ACOT12:NM_130767:4	|G-spec
ACOT8:ENSGALT00000011074:3	|Sp-spec
ACOT8:NM_005469:5	|Sp-spec
ACOT9:NM_001037171:9	|Sp-spec
ACOX1:NM_001006205:3	|Cons-AS
ACP2:NM_001031548:6	|Sp-spec
ACP2:NM_001610:7	|Sp-spec
Acsl4:NM_019477:2	|G-spec
actn1:NM_001079198:8	|Cons-AS
ACTR2:NM_001005386:3	|G-spec
ACVR1B:NM_020328:5	|G-spec
Acvr1:NM_007394:3	|G-spec
ADAM17:NM_001008682:16	|Sp-spec
ADAM22:NM_021722:29	|G-spec
Adam9:NM_007404:19	|Sp-spec
ADAMTS2:ENSGALT00000009653:18	|G-spec
ADAP2:NM_018404:3	|Sp-spec
ADARB1:NR_027673:3	|G-spec
Adat1:NM_013925:8	|G-spec
ADCK1:NM_001079731:3	|G-spec
Adcy3:NM_001159536:8	|G-spec
ADCY5:uc003egg.1:18	|G-spec
Add1:NM_001102444:15	|G-spec
ADD1:NM_014190:15	|G-spec
ADD1:uc008xcs.1:3	|G-spec
add3:NM_001006857:11	|Cons-AS
Add3:NM_001164099:14	|Cons-AS
ADHFE1:NM_144650:3	|Cons-AS
ADHFE1:NM_144650:6	|Cons-AS
Adhfe1:NM_175236:3	|Cons-AS
ADNP:ENSGALT00000012969:3	|Sp-spec
ADNP:NM_015339:2	|G-spec
ADPRHL2:NM_017825:2	|Sp-spec
ADSS:NM_001031521:6	|Sp-spec
Adss:NM_007422:8	|Sp-spec
Aen:NM_026531:2	|G-spec
AF412121:AF412121:12	|Cons-AS
AFAP1:NM_204205:12	|G-spec
AFF1:ENSGALT00000017992:7	|G-spec
Agap1:NM_178119:12	|Cons-AS
Agbl5:NM_001048192:4	|G-spec
AGBL5:NM_021831:4	|G-spec
AGFG1:NM_001135187:7	|G-spec
Agk:NM_023538:10	|G-spec
AGL:ENSGALT00000008683:19	|Sp-spec
agl:NM_001079141:13	|G-spec
agl:NM_001079141:14	|Sp-spec
AGPAT5:NM_018361:2	|Sp-spec
AGPAT5:NM_018361:6	|Sp-spec
AGRN:NM_205527:2	|G-spec
AGTRAP:NM_001040196:3	|G-spec
AHCYL1:NM_001030913:5	|Sp-spec
AHCYL1:NM_001030913:8	|Sp-spec
Ahcyl2:NM_021414:10	|Sp-spec
AI118078:uc009psj.1:4	|G-spec
Aifm3:uc007ykw.1:20	|G-spec
AKAP10:NM_007202:7	|Sp-spec
AKAP11:NM_016248:10	|Classifiers
AKAP11:NM_016248:12	|Sp-spec
AKAP13:NM_006738:12	|G-spec
Akap13:uc009hwr.1:7	|G-spec
Akap2:NM_001035532:3	|Classifiers
AKR1A1:NM_006066:2	|G-spec
Alcam:NM_009655:13	|Cons-AS
Aldh6a1:NM_134042:3	|G-spec
Alg3:NM_145939:4	|Sp-spec
ALG5:NM_013338:8	|Sp-spec
ALG5:uc010ter.1:8	|G-spec
ALKBH3:NM_139178:7	|G-spec
Als2cl:NM_001146059:19	|G-spec
AMBRA1:NM_017749:10	|Sp-spec
AMBRA1:NM_017749:9	|G-spec
Ambra1:NM_172669:16	|G-spec
Ampd1:NM_001033303:2	|G-spec
anapc2:ENSXETT00000049599:11	|Sp-spec
ANGEL2:NM_001031047:6	|Cons-AS
Angel2:NM_021421:6	|Cons-AS
Ank1:NM_031158:23	|G-spec
ANK2:NM_020977:36	|G-spec
ANK2:uc003ibg.3:16	|G-spec
ANK2:uc003ibg.3:19	|G-spec
Ank2:uc008rgv.1:8	|G-spec
Ank2:uc008rgx.1:17	|Cons-AS
ANK2:uc010imr.2:3	|G-spec
ANK3:NM_020987:35	|G-spec
ANK3:uc001jlb.1:24	|G-spec
ANKDD1A:uc002aoc.2:12	|G-spec
ANKHD1:NM_001204097:15	|Cons-AS
ANKHD1:NM_001204097:30	|Classifiers
ANKIB1:NM_019004:4	|Sp-spec
ANKK1:NM_001128828:18	|G-spec
ANKLE2:NM_015114:11	|Sp-spec
Ankrd10:NR_030781:4	|G-spec
ANKRD10:uc001vro.1:4	|G-spec
Ankrd11:NM_001081379:9	|Sp-spec
Ankrd13c:NM_001013806:10	|Sp-spec
Ankrd16:NM_177268:6	|G-spec
Ankrd17:NM_030886:15	|G-spec
Ankrd17:NM_030886:33	|G-spec
ANKS1A:ENSGALT00000004295:2	|G-spec
ANKS1A:ENSGALT00000004295:4	|Cons-AS
anks1a:ENSXETT00000033079:14	|G-spec
Anks1:uc008bpv.1:24	|G-spec
ANKS3:NM_133450:4	|Sp-spec
ANKZF1:NM_001042410:8	|Sp-spec
ANLN:NM_018685:9	|G-spec
ANO10:NM_018075:3	|Sp-spec
ANO4:NM_178826:10	|G-spec
Anxa6:NM_013472:25	|Sp-spec
ANXA6:NM_204730:21	|G-spec
Anxa7:uc007sjs.1:6	|G-spec
AP1AR:NM_018569:6	|Cons-AS
AP1M1:NM_001130524:6	|G-spec
Ap1m1:NM_007456:10	|Sp-spec
AP2A2:NM_001012896:9	|Sp-spec
AP3M2:uc003xoq.1:2	|G-spec
APBA2:NM_005503:7	|G-spec
apbb2:NM_001123451:7	|Cons-AS
APBB2:NM_004307:8	|Cons-AS
APBB2:NM_173075:4	|G-spec
APEH:NM_001640:2	|G-spec
APEH:NM_001640:7	|Sp-spec
APH1A:NM_016022:3	|Sp-spec
Aph1c:NM_026674:4	|Cons-AS
Apip:NM_019735:3	|Sp-spec
aplp2:ENSXETT00000032087:6	|Cons-AS
APLP2:NM_001006317:13	|Cons-AS
Aplp2:NM_001102456:13	|Cons-AS
APLP2:NM_001142276:7	|Cons-AS
Appl1:NM_145221:4	|Sp-spec
APPL2:ENSGALT00000020674:7	|Sp-spec
APP:NM_001136130:7	|G-spec
App:uc007ztm.1:2	|Cons-AS
App:uc007ztn.1:4	|G-spec
Aqp7:NM_007473:2	|G-spec
AQR:NM_014691:21	|Sp-spec
ARAP1:NM_001040118:14	|Sp-spec
Arap3:NM_139206:32	|Cons-AS
ARFGAP2:uc010rha.1:3	|G-spec
arhgap10:ENSXETT00000040872:5	|Sp-spec
Arhgap10:NM_030113:21	|G-spec
ARHGAP12:ENSGALT00000011742:3	|G-spec
ARHGAP12:ENSGALT00000011742:5	|Sp-spec
ARHGAP12:NM_018287:13	|Sp-spec
Arhgap18:NM_176837:13	|Cons-AS
ARHGAP1:NM_004308:11	|Sp-spec
ARHGAP21:NM_001177357:9	|Sp-spec
Arhgap26:NM_175164:21	|Cons-AS
Arhgap39:NM_001168288:7	|Cons-AS
ARHGAP42:ENSXETT00000012066:3	|G-spec
ARHGAP5:NM_001030055:2	|G-spec
ARHGEF10L:ENSGALT00000040676:5	|G-spec
Arhgef10l:NM_001112722:16	|G-spec
ARHGEF10L:NM_018125:17	|G-spec
ARHGEF10L:NM_018125:8	|G-spec
ARHGEF11:NM_014784:20	|G-spec
ARHGEF11:NM_198236:8	|Classifiers
ARHGEF12:ENSGALT00000010780:4	|Cons-AS
arhgef12:NM_001079028:13	|Sp-spec
Arhgef12:NM_027144:24	|Sp-spec
Arhgef12:NM_027144:4	|Cons-AS
ARHGEF25:NM_001111270:9	|Sp-spec
ARHGEF37:NM_001001669:4	|G-spec
ARHGEF4:NM_032995:5	|G-spec
ARHGEF6:NM_004840:16	|Cons-AS
Arhgef6:NM_152801:16	|Cons-AS
ARHGEF7:NM_001113511:3	|G-spec
ARHGEF7:NM_001113512:5	|Sp-spec
Arhgef7:NM_017402:15	|G-spec
ARID2:ENSGALT00000015735:6	|G-spec
ARID2:uc009zkg.1:5	|G-spec
ARIH1:NM_005744:12	|Sp-spec
Arih1:NM_019927:2	|Cons-AS
ARIH2:NM_006321:2	|G-spec
Arl13b:NM_026577:9	|Cons-AS
Arl15:uc007rxk.1:2	|G-spec
ARL5A:NM_177985:4	|Cons-AS
ARMC6:uc002nld.2:2	|G-spec
armc8:ENSXETT00000002352:12	|G-spec
Armc8:NM_001166138:6	|Cons-AS
ARNTL:NM_001030273:5	|G-spec
Arntl:uc009jhh.1:2	|G-spec
arnt:NM_001123453:18	|Sp-spec
ARSK:uc010jbg.2:4	|G-spec
ARV1:NM_022786:3	|Sp-spec
ARVCF:NM_001670:10	|G-spec
Arvcf:NM_033474:18	|G-spec
ARVCF:NM_204465:16	|G-spec
Asah1:NM_019734:2	|G-spec
ASAP1:NM_018482:24	|Cons-AS
ASB13:NM_024701:3	|Sp-spec
ASB2:ENSGALT00000017687:3	|G-spec
Ascc1:NM_026937:4	|Sp-spec
ASCC2:ENSGALT00000013083:6	|G-spec
ASCC2:NM_032204:3	|Sp-spec
ASCC2:NM_032204:9	|Sp-spec
Ash2l:NM_001080793:8	|Sp-spec
ASPG:NM_001080464:14	|G-spec
Aspg:NM_001081169:12	|G-spec
ASPH:NM_001164754:6	|G-spec
ASPH:NM_001164755:12	|G-spec
ASPH:NM_001164755:7	|G-spec
ASPH:NM_004318:22	|G-spec
ASPH:NM_020164:3	|G-spec
Asph:NM_023066:4	|G-spec
Asph:NM_023066:5	|G-spec
Asph:NM_023066:7	|G-spec
Asph:NM_023066:9	|G-spec
Aspscr1:NM_026877:11	|Classifiers
asrgl1:NM_001126762:2	|Sp-spec
ASTE1:uc011blj.1:5	|G-spec
ate1:ENSXETT00000034011:11	|Sp-spec
ATF2:NM_204904:9	|Sp-spec
ATG13:ENSGALT00000013587:12	|Cons-AS
ATG13:ENSGALT00000013587:13	|Cons-AS
ATG13:NR_024587:11	|G-spec
ATG13:NR_024588:11	|G-spec
ATG13:NR_024588:15	|Cons-AS
ATG13:NR_024588:9	|Classifiers
ATG13:NR_024589:2	|G-spec
ATG16L1:ENSGALT00000002475:4	|Sp-spec
ATG16L1:ENSGALT00000002475:8	|Cons-AS
ATG16L1:NM_030803:8	|Cons-AS
ATG4B:NM_213573:9	|Sp-spec
ATG4B:uc002wbu.2:4	|G-spec
ATG4C:NM_178221:10	|Sp-spec
Atg5:NM_053069:4	|Sp-spec
ATG7:NM_001136031:6	|G-spec
ATG7:NM_001144912:11	|Sp-spec
Atg7:uc009dia.1:2	|G-spec
ATG9A:NM_001077198:2	|G-spec
ATP10B:NM_025153:23	|G-spec
Atp11a:uc009kwh.1:29	|G-spec
Atp11a:uc009kwj.1:14	|G-spec
ATP11C:NM_173694:29	|G-spec
ATP13A1:ENSGALT00000021915:16	|Sp-spec
ATP13A2:NM_001141974:8	|Sp-spec
Atp13a3:NM_001128094:7	|Cons-AS
ATP13A3:uc003ftx.3:4	|G-spec
ATP2A2:uc009zvn.2:2	|G-spec
ATP2B1:NM_001001323:20	|G-spec
Atp2b1:NM_026482:16	|Sp-spec
ATP2B2:ENSGALT00000007715:6	|Cons-AS
ATP2B3:NM_021949:20	|Cons-AS
Atp2b3:uc009tma.1:19	|Cons-AS
ATP2B4:ENSGALT00000005694:20	|Cons-AS
atp2b4:ENSXETT00000007811:21	|G-spec
ATP2C1:NM_001001487:27	|G-spec
ATP5I:NM_007100:2	|G-spec
ATP6V0A2:NM_012463:19	|Sp-spec
Atp6v1c1:NM_025494:5	|Sp-spec
Atp8a1:NM_001038999:15	|G-spec
ATP8A1:NM_001105529:7	|G-spec
ATP8A1:NM_006095:15	|G-spec
ATP9B:NM_198531:29	|G-spec
ATP9B:uc002lmy.1:11	|G-spec
Atp9b:uc008fti.1:29	|G-spec
ATPAF2:NM_145691:3	|Cons-AS
ATRIP:uc011bbj.1:3	|G-spec
ATRX:NM_000489:6	|Cons-AS
Atxn1:NM_009124:6	|G-spec
atxn2:ENSXETT00000045191:15	|Sp-spec
ATXN2:NM_002973:10	|Cons-AS
ATXN2:NM_002973:21	|G-spec
ATXN7L1:uc003vdg.3:3	|G-spec
ATXN7:NM_001177387:3	|Sp-spec
AU022870:NM_177682:8	|Sp-spec
AUH:NM_001698:9	|Sp-spec
axin1:ENSXETT00000026497:8	|G-spec
AZI2:uc003cef.2:2	|G-spec
B3GALNT2:NM_152490:8	|Sp-spec
B3galnt2:NM_178640:5	|Sp-spec
B3GALTL:NM_194318:9	|G-spec
B4GALT4:NM_003778:6	|Sp-spec
Bace1:NM_011792:6	|Sp-spec
Bai2:uc008uyn.1:22	|Cons-AS
Banp:NM_016812:5	|Classifiers
Bap1:NM_027088:15	|Sp-spec
BAT2L1:NM_013318:30	|Cons-AS
BAT2L2:NM_015172:24	|Cons-AS
BAZ1A:NM_013448:13	|G-spec
BAZ1B:NM_032408:13	|Sp-spec
BAZ2B:NM_013450:4	|G-spec
Bbx:uc007zkq.1:12	|G-spec
BC003331:NM_145511:12	|Sp-spec
BC031181:NM_001001181:2	|G-spec
BC128643:BC128643:7	|Sp-spec
BC168029:BC168029:8	|Cons-AS
BCAP29:NM_001008405:7	|G-spec
BCAS3:NM_001099432:17	|G-spec
Bcas3:NM_138681:2	|G-spec
BCAS3:uc002iyw.3:24	|G-spec
Bcas3:uc007kru.1:3	|G-spec
BCCIP:NM_078468:4	|Sp-spec
BCL11A:NM_022893:3	|G-spec
BCL2L13:NM_015367:4	|Sp-spec
BCL2L13:NM_015367:6	|G-spec
BCLAF1:ENSGALT00000022585:12	|Cons-AS
Bclaf1:NM_153787:11	|Cons-AS
BCOR:ENSGALT00000036653:6	|Cons-AS
bcorl1:NM_001142070:6	|Sp-spec
Bet1l:NM_018742:2	|Sp-spec
BFAR:NM_016561:3	|Classifiers
BFAR:NM_016561:5	|Sp-spec
Bicc1:uc007fof.1:21	|G-spec
BIRC6:NM_016252:72	|Sp-spec
bivm:NM_001079450:9	|Sp-spec
BIVM:NM_001159596:6	|Sp-spec
blnk:BC161531:3	|G-spec
BLNK:NM_013314:8	|G-spec
BLVRA:uc010kxv.2:2	|G-spec
BMP2K:NM_198892:15	|G-spec
Bnip2:NM_001008238:4	|Sp-spec
BPHL:NR_026650:2	|G-spec
Bpnt1:NM_011794:2	|Cons-AS
BPNT1:uc001hmb.3:7	|G-spec
BPTF:NM_004459:5	|G-spec
BPTF:NM_004459:6	|G-spec
BRAP:NM_006768:6	|Sp-spec
BRCA1:NM_007294:16	|G-spec
BRD8:NM_006696:11	|Cons-AS
Brd8:NM_030147:9	|Cons-AS
Brp44:NM_027430:2	|G-spec
Brpf1:NM_030178:9	|Cons-AS
Brpf3:NM_001081315:9	|Sp-spec
BRWD1:NM_033656:25	|Sp-spec
BTBD3:NM_014962:2	|Cons-AS
BTBD9:NM_052893:2	|G-spec
Btbd9:NM_172618:7	|Sp-spec
btrc:NM_001016386:2	|G-spec
BX929333:BX929333:2	|Sp-spec
BX929343:BX929343:6	|Sp-spec
BX929347:BX929347:3	|Sp-spec
BX929382:BX929382:3	|Cons-AS
BX929404:BX929404:3	|Sp-spec
BX929577:BX929577:2	|Sp-spec
BX930046:BX930046:6	|Sp-spec
BX930094:BX930094:7	|Sp-spec
BX930995:BX930995:3	|Sp-spec
BX931043:BX931043:2	|Sp-spec
BX931108:BX931108:11	|Cons-AS
BX931341:BX931341:5	|Cons-AS
BX931710:BX931710:5	|Cons-AS
BX932419:BX932419:3	|Cons-AS
BX932659:BX932659:3	|Sp-spec
BX932898:BX932898:3	|Sp-spec
BX933036:BX933036:6	|Sp-spec
BX933544:BX933544:7	|Cons-AS
BX933565:BX933565:11	|Cons-AS
BX933581:BX933581:3	|Cons-AS
BX933991:BX933991:5	|Cons-AS
BX934394:BX934394:10	|Cons-AS
BX934410:BX934410:2	|Cons-AS
BX934691:BX934691:6	|Cons-AS
BX934840:BX934840:6	|Sp-spec
BX934973:BX934973:2	|Sp-spec
BX935068:BX935068:3	|Sp-spec
BX935256:BX935256:3	|Sp-spec
BX935584:BX935584:5	|Cons-AS
BX935811:BX935811:5	|Cons-AS
BX936007:BX936007:5	|Sp-spec
BX936011:BX936011:7	|Classifiers
BX936094:BX936094:2	|Sp-spec
BX950313:BX950313:6	|Sp-spec
BX950332:BX950332:3	|Sp-spec
BX950450:BX950450:12	|Sp-spec
BX950700:BX950700:4	|Sp-spec
C10orf104:ENSGALT00000007029:3	|Sp-spec
C10orf76:NM_024541:17	|Sp-spec
c11orf54:NM_001016346:7	|Sp-spec
C11orf54:uc009ywi.2:2	|G-spec
C12H3orf37:NM_001006137:3	|Cons-AS
C13orf1:NM_020456:2	|Sp-spec
C13orf23:NM_025138:2	|Sp-spec
C13orf23:NM_170719:7	|Sp-spec
C13orf27:NM_138779:2	|G-spec
C14orf101:NM_017799:11	|Sp-spec
C14orf138:NM_024558:5	|Classifiers
C16orf57:ENSGALT00000001326:6	|G-spec
C16orf68:NM_024109:4	|Cons-AS
C17orf101:NR_033265:9	|G-spec
C17orf28:NM_030630:15	|Sp-spec
C17orf39:NM_024052:5	|Sp-spec
C17orf62:NM_001100407:2	|G-spec
C18orf25:NM_145055:3	|Classifiers
C18orf45:NM_032933:13	|G-spec
C18orf45:uc010xaq.1:6	|G-spec
c18orf55:NM_001016471:2	|Sp-spec
C18orf8:NM_013326:3	|Classifiers
C1orf107:NM_014388:8	|G-spec
C1orf27:NM_001164246:8	|G-spec
C1orf50:NM_024097:2	|Cons-AS
C20orf160:uc002wxg.2:2	|Sp-spec
C20orf26:NM_015585:11	|G-spec
C20orf43:NM_016407:7	|Sp-spec
C20orf72:NM_052865:3	|Sp-spec
C20orf7:NM_024120:5	|Classifiers
C21orf33:NM_004649:5	|Sp-spec
C21orf33:NM_198155:2	|Sp-spec
C21orf59:NR_036552:5	|Sp-spec
C21orf7:NM_020152:4	|G-spec
C22orf25:NM_152906:7	|Sp-spec
C2CD2L:NM_014807:2	|Sp-spec
C2orf29:NM_017546:2	|Sp-spec
C2orf43:NM_021925:2	|Sp-spec
C2orf47:NM_024520:5	|G-spec
c2orf7:ENSXETT00000025762:2	|Cons-AS
C3orf17:NR_027796:6	|G-spec
C4orf43:NM_018352:5	|Cons-AS
C5:NM_001735:23	|G-spec
C6orf106:NM_024294:3	|Sp-spec
C6orf168:NM_032511:4	|G-spec
C78339:NM_001033192:4	|Cons-AS
C7orf46:uc003swp.3:5	|G-spec
C8B:uc010oon.1:3	|G-spec
C8orf38:NM_152416:8	|Sp-spec
C8orf76:NM_032847:4	|Sp-spec
c9orf30:NM_001016739:3	|G-spec
C9orf80:NM_021218:2	|G-spec
C9orf80:NM_021218:3	|Sp-spec
C9orf85:NM_182505:2	|Cons-AS
cabin1:NM_001097240:28	|G-spec
CAC1S_CHICK:ENSGALT00000001035:31	|G-spec
CACNA1B:uc004coi.2:7	|G-spec
cacna1d:ENSXETT00000034191:21	|Cons-AS
Cacna1d:NM_028981:42	|Cons-AS
Cacna1e:NM_009782:19	|G-spec
Cacna1g:NM_009783:14	|G-spec
Cacna2d1:NM_001110843:19	|G-spec
CACNB4:NM_204344:11	|G-spec
CADM2:ENSGALT00000024993:8	|G-spec
CADM3:NM_021189:2	|G-spec
CADPS2:NM_001009571:22	|G-spec
CADPS:ENSGALT00000036234:22	|Cons-AS
CALCOCO2:NM_005831:11	|G-spec
camk2a:NM_001100267:14	|G-spec
Camk2b:NM_001174054:16	|Cons-AS
camk2d:ENSXETT00000033925:3	|G-spec
Camk2d:NM_001025438:18	|G-spec
Camk2d:NM_001025439:14	|G-spec
CAMK2D:NM_172129:14	|G-spec
CAMK2G:ENSGALT00000008159:14	|Cons-AS
camk2g:NM_001114250:16	|Cons-AS
CAMK2G:NM_172169:15	|Cons-AS
CAMK2G:NM_172171:17	|G-spec
CAMK2G:uc001jvt.1:18	|G-spec
CAMLG:NM_001745:2	|Classifiers
CAMLG:NM_001745:3	|Sp-spec
Camta1:NM_001081557:2	|G-spec
CAMTA1:NM_001195563:2	|G-spec
CAMTA1:NM_015215:22	|G-spec
Capn7:NM_009796:4	|Sp-spec
CAPN7:NM_014296:15	|Sp-spec
CAPN7:NM_014296:17	|Sp-spec
CARS:NM_001194997:2	|G-spec
Casc4:NM_177054:8	|G-spec
CASKIN2:ENSGALT00000013031:17	|Sp-spec
CASP2:uc003wcq.2:9	|G-spec
CAST:NM_001190442:5	|G-spec
Cbfa2t3:NM_009824:3	|G-spec
CBLB:ENSGALT00000024772:16	|Classifiers
Cblb:uc007zlg.1:2	|G-spec
CBY1:NM_015373:4	|Sp-spec
cc2d1a:NM_001126913:20	|Sp-spec
CC2D1B:ENSGALT00000017276:19	|Sp-spec
Cc2d1b:NM_177045:9	|Sp-spec
Cc2d2a:NM_172274:38	|G-spec
CCAR1:NM_018237:16	|Cons-AS
Ccbl1:NM_172404:2	|G-spec
Ccbl1:uc008jbo.1:3	|G-spec
CCBL2:NM_001008661:2	|G-spec
ccbl2:NM_001102788:2	|G-spec
CCDC148:NM_001171637:3	|G-spec
CCDC30:uc001chn.2:4	|G-spec
CCDC43:NM_144609:4	|Cons-AS
CCDC61:NM_001080402:4	|Sp-spec
CCDC90B:NM_021825:3	|Sp-spec
CCNDBP1:NR_027514:3	|Sp-spec
Ccnk:NM_009832:2	|G-spec
CCNL1:NM_020307:10	|Sp-spec
CCNT2:uc010zbf.1:6	|G-spec
CCT4:uc010ypr.1:2	|G-spec
cct5:NM_204009:7	|Sp-spec
CCZ1:NM_015622:3	|Sp-spec
CD151:NM_004357:2	|G-spec
Cd200:NM_010818:2	|G-spec
CD74:NM_001001613:7	|G-spec
CD74:NM_001025159:7	|G-spec
Cd74:NM_001042605:7	|G-spec
CD82:NM_001024844:8	|G-spec
CD99L2:NM_001184808:3	|G-spec
CDADC1:uc001vcs.1:5	|G-spec
Cdc123:NM_133837:2	|Sp-spec
CDC16:NM_003903:17	|Sp-spec
Cdc42bpa:NM_001033285:13	|Cons-AS
CDC42BPA:NM_001199443:35	|Sp-spec
CDC42BPA:uc001hqp.2:18	|G-spec
CDC42BPA:uc001hqq.2:8	|G-spec
Cdc42bpa:uc007dvs.1:3	|G-spec
CDC42BPB:NM_006035:23	|G-spec
Cdc42bpb:NM_183016:29	|Sp-spec
CDC42SE2:NM_020240:2	|G-spec
Cdc42se2:NM_178626:2	|G-spec
CDC42:uc009vqg.1:2	|G-spec
CDCA7L:NM_001127370:4	|G-spec
CDH11:NM_001004371:2	|G-spec
CDH12:NM_004061:3	|G-spec
CDH5:NM_001795:4	|Sp-spec
CDK10:NM_052988:2	|Classifiers
CDK12:NM_015083:5	|Sp-spec
CDK5RAP1:NM_016408:6	|Sp-spec
CDK5RAP2:NM_018249:32	|G-spec
CDK5RAP2:NM_018249:33	|G-spec
cdkal1:NM_203863:5	|Sp-spec
CDKL2:NM_003948:11	|G-spec
Cdon:NM_021339:18	|G-spec
Cds2:NM_138651:7	|Sp-spec
CECR2:NM_001130739:7	|G-spec
CECR2:NM_031413:7	|G-spec
CELF1:NM_001172639:3	|G-spec
Celf2:NM_010160:6	|Cons-AS
CELF2:NM_204260:5	|Cons-AS
Cenpm:NM_001080158:4	|G-spec
CEP57:NM_014679:5	|Sp-spec
CEP78:NM_001098802:15	|G-spec
CES4A:NM_001190201:10	|Cons-AS
CGNL1:ENSGALT00000006837:11	|Sp-spec
chat:uc008jgq.1:4	|G-spec
CHD2:NM_001042572:6	|G-spec
Chd2:NM_001081345:6	|G-spec
CHD5:ENSGALT00000023340:20	|G-spec
CHD6:NM_032221:2	|G-spec
chd9:BC168553:27	|Sp-spec
CHFR:NM_001161346:6	|Cons-AS
chga:NM_001007914:9	|G-spec
CHID1:NM_001142674:2	|G-spec
CHID1:NM_001142674:9	|G-spec
Chid1:NM_001142681:11	|G-spec
Chka:uc008fxi.1:2	|G-spec
CHMP1A:NM_002768:2	|Sp-spec
CHUK:NM_001278:7	|Sp-spec
ckap5:NM_001127087:27	|G-spec
CLDND1:NM_001012820:3	|G-spec
CLEC16A:uc002dap.2:3	|Cons-AS
CLIC6:uc010gmt.1:2	|G-spec
CLIP1:NM_204942:8	|G-spec
CLK3:NM_001012524:3	|Cons-AS
Clk3:NM_007713:4	|Cons-AS
CLPTM1L:NM_001012864:5	|Sp-spec
CLPX:NM_006660:6	|Classifiers
Clpx:NM_011802:6	|Cons-AS
CLSTN1:NM_001009566:11	|G-spec
Clstn1:NM_023051:3	|G-spec
Cltb:uc007qon.1:5	|G-spec
CLUAP1:uc002cvl.1:12	|G-spec
CMAS:NM_018686:6	|Sp-spec
CMPK1:NM_001136140:3	|Sp-spec
Cmtm7:NM_133978:3	|Cons-AS
CNIH4:NM_014184:4	|Sp-spec
Cnksr2:NM_177751:12	|G-spec
Cnksr2:NM_177751:9	|G-spec
CNKSR3:NM_173515:4	|Sp-spec
CNN3:ENSGALT00000039077:3	|G-spec
CNNM1:uc010qpi.1:7	|G-spec
CNNM2:ENSGALT00000013262:6	|Cons-AS
CNOT4:NM_001012811:12	|Cons-AS
CNOT4:NM_001012811:8	|G-spec
Cntfr:NM_016673:5	|Sp-spec
CNTN5:NM_014361:2	|G-spec
COG3:NM_031431:8	|G-spec
COG6:NR_026745:2	|G-spec
COL13A1:ENSGALT00000006816:33	|G-spec
COL4A3BP:ENSGALT00000024118:13	|Cons-AS
COL4A5:NM_000495:29	|G-spec
COL4A6:NM_033641:36	|G-spec
COL6A1:NM_205107:4	|Sp-spec
COL6A3:NM_004369:6	|Cons-AS
COLEC11:NM_199235:2	|Cons-AS
commd10:NM_001045623:6	|Sp-spec
COMMD4:NM_017828:3	|Classifiers
COMMD5:NM_001008465:6	|G-spec
Commd7:NM_001195390:2	|G-spec
Cops2:NM_009939:10	|Sp-spec
COPS3:NM_003653:2	|Sp-spec
COPS5:uc003xxf.2:3	|G-spec
COPS7A:NM_016319:3	|Sp-spec
COPS7B:uc002vsh.1:7	|G-spec
COQ2:NM_015697:5	|Sp-spec
COQ3:NM_017421:5	|Sp-spec
COQ4:NM_016035:3	|Sp-spec
CORIN:ENSGALT00000022884:9	|G-spec
cpeb3:NM_001015925:2	|Sp-spec
Cpeb4:NM_026252:3	|G-spec
CPEB4:NM_030627:4	|G-spec
CPNE1:NM_001171738:13	|Sp-spec
CPNE1:NM_001171738:7	|Sp-spec
Cpne1:NM_170590:5	|Cons-AS
CR352770:CR352770:6	|Cons-AS
CR352849:CR352849:6	|Cons-AS
CR353643:CR353643:3	|Sp-spec
CR353689:CR353689:2	|Cons-AS
CR354060:CR354060:3	|Sp-spec
CR354156:CR354156:4	|Sp-spec
CR385429:CR385429:4	|Sp-spec
CR386192:CR386192:6	|Cons-AS
CR386671:CR386671:3	|Classifiers
CR387657:CR387657:3	|Cons-AS
CR387820:CR387820:7	|Cons-AS
CR388630:CR388630:3	|Cons-AS
CR390517:CR390517:3	|Cons-AS
CR390574:CR390574:3	|Cons-AS
CR391588:CR391588:6	|Sp-spec
CR406448:CR406448:3	|Sp-spec
CR406907:CR406907:3	|Cons-AS
CR406925:CR406925:2	|Sp-spec
CR407147:CR407147:3	|Cons-AS
CR407298:CR407298:2	|Cons-AS
CR407580:CR407580:8	|Sp-spec
CR733424:CR733424:9	|Sp-spec
CR855710:CR855710:14	|Cons-AS
CRBN:NM_001173482:8	|Sp-spec
CREB1:NM_134442:4	|G-spec
CREBBP:NM_004380:26	|Sp-spec
Crim1:NM_015800:13	|Cons-AS
CRIM1:NM_204425:4	|Cons-AS
CROT:NM_021151:17	|Sp-spec
CRTC1:NM_001098482:3	|G-spec
CRYL1:NM_015974:4	|Sp-spec
CRYZ:NM_001130042:2	|G-spec
CRYZ:NM_001130042:5	|Sp-spec
CSDE1:NM_001007553:5	|Classifiers
Csf3r:NM_007782:9	|G-spec
CSGALNACT1:NM_018371:3	|G-spec
CSGALNACT2:NM_018590:5	|Sp-spec
Csnk1d:NM_027874:9	|G-spec
CSRP2BP:NM_001199441:3	|Cons-AS
CT027899:CT027899:3	|Sp-spec
CT027901:CT027901:6	|Cons-AS
CT027950:CT027950:4	|Cons-AS
CT030452:CT030452:18	|Sp-spec
CT030562:CT030562:13	|Cons-AS
ctdspl:ENSXETT00000039992:3	|Cons-AS
Ctdspl:NM_133710:3	|Cons-AS
CTNNB1:uc011azf.1:3	|G-spec
Ctnnd1:NM_001085449:15	|G-spec
CTNND1:NM_001085459:19	|G-spec
CTNND1:NM_001085462:3	|G-spec
Ctnnd1:NM_007615:2	|G-spec
ctps2:NM_001126924:2	|G-spec
CTSC:NM_148170:3	|G-spec
CTTN:NM_005231:11	|G-spec
Cttn:NM_007803:2	|G-spec
CTTN:NM_205468:9	|G-spec
CTTN:uc010rqm.1:2	|G-spec
CU464093:CU464093:14	|Cons-AS
Cuedc2:NM_024192:2	|G-spec
Cux1:NM_009986:16	|Cons-AS
CUX1:NM_181500:18	|Sp-spec
cwf19l1:ENSXETT00000008038:5	|Sp-spec
CYFIP1:uc001yut.2:2	|G-spec
CYP39A1:NM_016593:6	|Sp-spec
D19Ertd737e:NM_029648:3	|Sp-spec
D2hgdh:NM_178882:9	|Sp-spec
D4Ertd22e:NM_001025608:2	|Classifiers
D5Ertd579e:NM_001081232:7	|G-spec
Dab1:AY242122:7	|G-spec
DAB2:NM_001343:10	|G-spec
Dab2:NM_023118:10	|G-spec
dach2:NM_001110045:6	|G-spec
DALRD3:NM_018114:7	|G-spec
DARS2:NM_018122:13	|Sp-spec
DARS:NM_001349:3	|Sp-spec
Dazap1:NM_001122605:7	|Cons-AS
DAZAP1:NM_170711:12	|G-spec
DBT:NM_001918:4	|Sp-spec
DBT:NM_001918:8	|Sp-spec
DCAF17:NM_025000:8	|G-spec
DCAF6:NM_018442:11	|G-spec
Dcaf6:NM_028759:14	|G-spec
Dcaf6:NM_028759:6	|Sp-spec
DCAF6:uc001gex.2:11	|G-spec
DCAF6:uc001gex.2:17	|G-spec
dci:NM_001011219:5	|Sp-spec
Dclk1:NM_001111052:13	|G-spec
DCLK1:NM_004734:17	|G-spec
DCLK2:NM_001040261:5	|G-spec
DCLK2:NR_036614:16	|G-spec
DCP1B:uc010sdy.1:4	|G-spec
Dctn4:uc008fak.1:6	|G-spec
Dcun1d5:NM_029775:7	|Sp-spec
DCUN1D5:NM_032299:4	|Cons-AS
ddi2:NM_001033948:8	|Cons-AS
DDO:NM_003649:4	|Sp-spec
DDX19B:NM_007242:3	|Sp-spec
DDX42:NM_007372:2	|G-spec
DDX42:NM_203499:5	|Cons-AS
DDX46:uc003kzv.1:12	|G-spec
DDX49:NM_019070:3	|Sp-spec
DDX54:NM_024072:13	|Sp-spec
DDX55:NM_020936:11	|Sp-spec
DDX6:NM_004397:9	|Sp-spec
DECR1:NM_001359:2	|Sp-spec
DECR2:NM_020664:2	|Sp-spec
DENND1A:NM_020946:18	|Sp-spec
Dennd1a:NM_146122:3	|Cons-AS
DENND1B:NM_144977:8	|G-spec
DENND3:NM_014957:10	|G-spec
DENND3:NM_014957:20	|G-spec
DENND4A:NM_001144823:20	|G-spec
Dennd4c:NM_001081014:20	|G-spec
DEPDC5:ENSGALT00000010946:36	|Sp-spec
depdc5:ENSXETT00000009112:34	|Sp-spec
Depdc5:NM_001170567:41	|G-spec
DEPDC6:NM_022783:8	|Sp-spec
DERA:NM_015954:6	|G-spec
DERL2:NM_016041:4	|Classifiers
Dhcr7:NM_007856:4	|Sp-spec
DHODH:NM_001361:5	|Sp-spec
DHRS11:NM_024308:2	|Sp-spec
DHRS11:NM_024308:3	|Sp-spec
DHRS11:NM_024308:5	|Sp-spec
Dhrs7:NM_025522:3	|Sp-spec
DHTKD1:NM_018706:2	|Sp-spec
DHX33:NM_020162:6	|Sp-spec
DHX36:NM_001114397:17	|Sp-spec
Dhx36:NM_028136:14	|Sp-spec
DHX38:NM_014003:4	|G-spec
DHX57:NM_198963:14	|Sp-spec
DIAPH1:uc011dbd.1:4	|G-spec
DIAPH2:uc004efs.2:5	|G-spec
Dip2b:NM_001159361:5	|Cons-AS
DIP2B:NM_173602:5	|Cons-AS
Dip2c:uc007pkt.1:3	|G-spec
DIS3L2:ENSGALT00000012599:13	|Sp-spec
Dis3l2:NM_153530:13	|Cons-AS
DIS3L:NM_001143688:12	|Sp-spec
dis3:NM_001127092:17	|Sp-spec
Dlec1:NM_177117:26	|G-spec
Dlec1:NM_177117:32	|G-spec
DLG1:ENSGALT00000011195:5	|Cons-AS
Dlg1:NM_007862:6	|Cons-AS
DLG1:uc011bub.1:16	|G-spec
DLG3:ENSGALT00000009343:2	|G-spec
Dlg3:NM_001177778:2	|G-spec
DLG4:NM_001128827:18	|Classifiers
DLG5:NM_004747:30	|Sp-spec
Dlgap1:NM_001128181:5	|G-spec
DLGAP4:NM_014902:5	|G-spec
DLGAP4:NM_014902:8	|G-spec
DMD:NM_205299:48	|G-spec
DMXL1:uc010jcl.1:34	|G-spec
dmxl2:NM_001127055:40	|Sp-spec
DNAJB5:NM_001135004:2	|G-spec
Dnajc10:NM_024181:14	|G-spec
DNAJC13:NM_015268:47	|G-spec
Dnajc15:NM_025384:2	|G-spec
DNAJC21:NM_001012339:2	|Classifiers
DNAJC21:NM_001012339:8	|Sp-spec
DNAJC7:NM_003315:4	|Sp-spec
DNAJC8:NM_014280:5	|Sp-spec
DNAL1:uc010aru.2:2	|G-spec
DNLZ:NM_001080849:2	|Cons-AS
DNM1:ENSGALT00000039847:22	|G-spec
DNM1L:uc010skh.1:3	|G-spec
Dnm1:uc008jfa.1:8	|G-spec
DNM3:NM_015569:17	|G-spec
Dnmbp:NM_028029:11	|G-spec
DNTTIP1:ENSGALT00000005660:11	|Cons-AS
DNTTIP1:NM_052951:7	|G-spec
Dnttip1:NM_133763:11	|Cons-AS
DOCK4:NM_014705:51	|G-spec
Dock5:NM_177780:51	|G-spec
DOLPP1:NM_020438:6	|Sp-spec
DOPEY1:uc011dyy.1:38	|G-spec
DOT1L:ENSGALT00000001236:8	|Sp-spec
DPH1:NM_001030716:3	|Sp-spec
dph1:NM_001142155:5	|Sp-spec
DPH4:NM_001190896:4	|Sp-spec
DPH5:ENSGALT00000008401:5	|Cons-AS
DPH5:NM_001077394:4	|Sp-spec
DPH5:NM_001077394:7	|Sp-spec
DPM2:NM_003863:2	|G-spec
DPY19L4:NM_181787:3	|Cons-AS
Dpy30:NM_024428:4	|Sp-spec
DPYD:NM_000110:13	|Cons-AS
DSCR3:uc010gnn.1:2	|G-spec
DST:ENSGALT00000026264:97	|G-spec
DST:ENSGALT00000026264:99	|G-spec
Dst:NM_133833:90	|G-spec
DTNB:NM_021907:11	|Cons-AS
DTNB:NM_021907:16	|G-spec
Dtnb:NR_027869:16	|G-spec
Dtnb:NR_027869:19	|G-spec
Dtwd1:NM_026981:3	|Sp-spec
Dus3l:NM_144858:8	|Sp-spec
Dusp13:NM_001007268:4	|G-spec
Dusp13:NM_001007268:5	|G-spec
DUSP13:NM_001007271:3	|G-spec
DUSP22:NM_020185:4	|Classifiers
Dym:NM_027727:15	|Cons-AS
DYNC1I1:ENSGALT00000015824:4	|G-spec
Dync1li2:NM_001013380:10	|Sp-spec
Dyrk1b:NM_010092:7	|Sp-spec
DYSF:NM_001130978:17	|G-spec
DYSF:NM_001130979:6	|G-spec
DYSF:NM_001130984:40	|G-spec
Dysf:uc009cow.1:4	|G-spec
Dzip1l:uc009rel.1:2	|G-spec
e4f1-prov:BC090365:5	|Sp-spec
EAPP:NM_018453:4	|Sp-spec
Ebag9:NM_019480:6	|Sp-spec
ECHDC1:NM_001002030:4	|Classifiers
ECHDC2:uc001cup.3:5	|Sp-spec
EDC4:ENSGALT00000002498:20	|Sp-spec
EDC4:uc010cer.2:2	|G-spec
EDEM1:NM_001006143:5	|Sp-spec
EDEM2:NM_001145025:5	|Sp-spec
EDEM2:NM_001145025:9	|Sp-spec
Edem3:NM_001039644:10	|Sp-spec
Edil3:NM_001037987:3	|G-spec
EDIL3:NM_005711:3	|G-spec
EED:NM_001031376:7	|Sp-spec
eef1d:CR761481:3	|Cons-AS
Eef1d:NM_029663:5	|Cons-AS
EEFSEC:NM_021937:4	|Sp-spec
EEFSEC:NM_021937:6	|G-spec
Eefsec:NM_023060:6	|G-spec
EFHA1:NM_152726:10	|Sp-spec
Efha2:NM_030110:13	|Cons-AS
Egfl7:NM_198724:9	|Sp-spec
EGF:NM_001178131:18	|Cons-AS
EHBP1:NM_015252:8	|G-spec
Ehbp1:NM_153078:16	|Cons-AS
Ehbp1:NM_153078:7	|G-spec
Ehhadh:NM_023737:2	|G-spec
EHMT1:NM_001012532:6	|Sp-spec
Eif2ak1:NM_013557:14	|Sp-spec
Eif2a:NM_001005509:4	|Sp-spec
eif2a:NM_001127089:2	|G-spec
EIF2B3:NM_001031280:5	|Cons-AS
EIF2B4:NM_172195:5	|Sp-spec
EIF3H:NM_003756:2	|Sp-spec
EIF4G1:NM_001194946:5	|G-spec
Eif4g1:NM_145941:4	|G-spec
EIF4G2:NM_001172705:14	|Cons-AS
EIF4G3:NM_003760:11	|Sp-spec
EIF4G3:NM_003760:33	|Sp-spec
EIF4G3:NM_003760:5	|G-spec
EIF4G3:NM_003760:6	|Sp-spec
EIF4G3:uc001bef.2:16	|G-spec
Eif4g3:uc008vjx.1:5	|G-spec
Eif4h:NM_033561:5	|Cons-AS
ELF2:ENSGALT00000015895:3	|Sp-spec
ELF2:NM_006874:4	|Sp-spec
Elf2:uc008pdq.1:3	|G-spec
Elk4:uc007cob.1:2	|G-spec
elmo1:ENSXETT00000016036:9	|Cons-AS
ELOVL1:NM_022821:3	|Cons-AS
ELOVL5:NM_021814:6	|Sp-spec
ELP2:NM_018255:12	|Sp-spec
ELP2:NM_018255:18	|Sp-spec
ELP2:NM_018255:20	|Sp-spec
ELP2:uc010xcg.1:6	|G-spec
ELP3:NM_018091:2	|Sp-spec
emid1:NM_001078794:4	|G-spec
Eml1:uc007ozp.1:6	|G-spec
Eml3:NM_144872:19	|Sp-spec
ENOPH1:NM_021204:2	|Sp-spec
enpp2:BC166149:20	|G-spec
ENPP2:NM_006209:12	|G-spec
ENSGALG00000023399:ENSGALT00000038640:2	|Cons-AS
ENSXETG00000017019:ENSXETT00000055072:11	|Sp-spec
ENSXETG00000022488:ENSXETT00000048698:3	|Classifiers
ENSXETG00000024621:ENSXETT00000031033:7	|Sp-spec
ENTPD7:uc009xwl.2:3	|G-spec
epb41l1:NM_001112990:20	|G-spec
EPB41L1:NM_012156:17	|G-spec
Epb4.1l1:NM_013510:13	|G-spec
EPB41L1:uc002xex.2:3	|G-spec
EPB41L1:uc010gfq.2:3	|G-spec
EPB41L1:uc010gfq.2:4	|G-spec
EPB41L2:uc003qcj.1:2	|G-spec
EPB41L3:NM_012307:13	|G-spec
EPB41L3:NM_012307:21	|Sp-spec
EPB41L3:NM_012307:22	|Cons-AS
Epb4.1l3:NM_013813:21	|Cons-AS
EPB41L4A:NM_022140:14	|G-spec
EPB41:NM_001166007:14	|Sp-spec
EPB41:NM_001168004:12	|G-spec
EPB41:NM_001168004:14	|Cons-AS
EPC1:NM_025209:12	|G-spec
EPHB6:NM_004445:3	|G-spec
EPHX2:NM_001033645:3	|Sp-spec
EPHX2:NM_001033645:5	|Cons-AS
EPM2A:NM_001031069:2	|Cons-AS
EPN2:NM_001012788:3	|Sp-spec
Erbb2ip:NM_001005868:22	|G-spec
ERBB2IP:NM_018695:22	|G-spec
ERBB2IP:uc003juk.1:22	|G-spec
ERBB2IP:uc011cqx.1:22	|G-spec
erc1:NM_001126688:6	|G-spec
Erc1:NM_053204:16	|G-spec
ERC1:NM_178040:6	|G-spec
ERC1:NR_027946:17	|G-spec
Erc1:uc009dml.1:19	|G-spec
ERC2:uc003dht.1:5	|G-spec
Erc2:uc007stz.1:12	|G-spec
ercc5:ENSXETT00000005980:10	|G-spec
ERCC6:NM_000124:8	|G-spec
ERGIC3:NM_198398:8	|G-spec
Erg:NM_133659:7	|Cons-AS
ERLEC1:NM_001127397:9	|Classifiers
ERLEC1:NM_001127398:11	|Sp-spec
ERLEC1:NM_001127398:7	|Sp-spec
Ermp1:NM_001081213:6	|G-spec
ERMP1:NM_024896:6	|G-spec
Errfi1:NM_133753:3	|G-spec
esd:NM_001011247:2	|Sp-spec
Etl4:NM_001081006:8	|G-spec
Ets1:NM_011808:6	|Sp-spec
Etv6:NM_007961:7	|Sp-spec
EU702428:EU702428:10	|Cons-AS
EVI5L:NM_001159944:11	|G-spec
evl:ENSXETT00000005384:11	|Cons-AS
EVL:NM_001006487:11	|Cons-AS
EXOC3:NM_001006384:9	|Sp-spec
EXOC6:NM_001013848:12	|Sp-spec
EXOC6:uc001kih.2:12	|G-spec
EXOC7:NR_028133:10	|Sp-spec
EXOSC10:NM_002685:10	|Sp-spec
EXOSC10:NM_002685:16	|Sp-spec
EXOSC2:NM_014285:4	|Sp-spec
Exosc8:NM_001163570:3	|Sp-spec
EXOSC8:uc001uvz.2:2	|G-spec
Extl3:NM_018788:2	|G-spec
EYA3:NM_001990:7	|G-spec
EYA3:uc001bpk.1:13	|G-spec
ezh1:ENSXETT00000043568:16	|Sp-spec
EZH1:NM_001991:2	|G-spec
EZH2:ENSGALT00000020263:2	|G-spec
F630110N24Rik:NM_028657:9	|Sp-spec
FAF2:NM_014613:10	|Sp-spec
FAHD1:NM_001018104:2	|G-spec
FAIM:NM_001033030:2	|G-spec
Faim:NM_001122851:2	|G-spec
FAM107A:NM_007177:2	|G-spec
FAM116A:NM_001012781:10	|Sp-spec
Fam116a:NM_001134465:12	|Sp-spec
FAM118B:NM_024556:2	|G-spec
FAM120A:ENSGALT00000008313:15	|G-spec
FAM120A:NM_014612:5	|Cons-AS
FAM125B:NM_001030677:2	|G-spec
fam126a:NM_001079289:11	|G-spec
FAM126A:uc003svn.3:10	|G-spec
FAM131B:uc010loz.2:2	|G-spec
FAM13A:NM_014883:21	|Cons-AS
FAM13A:NM_014883:6	|G-spec
Fam13b:NM_146084:14	|Sp-spec
Fam13c:NM_001143777:6	|G-spec
FAM149A:NM_001006655:10	|G-spec
Fam149b:NM_001177633:6	|Sp-spec
FAM168A:uc001otz.1:4	|G-spec
Fam168b:NM_174997:3	|Sp-spec
FAM175A:NM_139076:5	|Sp-spec
FAM178A:NM_001136123:17	|G-spec
FAM188A:NM_024948:13	|Sp-spec
Fam193b:NM_145382:2	|G-spec
FAM49A:NM_001006418:4	|Cons-AS
Fam49a:NM_029758:2	|G-spec
FAM54B:NM_001099626:5	|Sp-spec
Fam63b:NM_172772:6	|Sp-spec
Fam65a:NM_001081241:2	|G-spec
fam65c:BC160509:2	|G-spec
FAM81B:NM_152548:5	|G-spec
FANCC:uc010mrm.1:5	|G-spec
FANCL:NM_001114636:4	|G-spec
FANCL:NM_001114636:9	|Sp-spec
FASN:NM_205155:33	|Sp-spec
Fat1:uc009lok.1:26	|G-spec
FBLN2:NM_001165035:9	|G-spec
Fbln2:NM_007992:9	|G-spec
FBN1:NM_000138:65	|Sp-spec
FBRSL1:ENSGALT00000003452:6	|G-spec
FBRSL1:NM_001142641:8	|Sp-spec
Fbrsl1:NM_001142642:9	|G-spec
Fbxl3:NM_015822:2	|Cons-AS
FBXO11:NM_025133:19	|Sp-spec
FBXO18:uc001iir.2:18	|G-spec
FBXO25:NM_183421:10	|G-spec
Fbxo25:uc009kyt.1:10	|G-spec
fbxo31:NM_001079057:3	|G-spec
FBXO4:NM_012176:6	|Sp-spec
FBXW2:NM_001007842:5	|Sp-spec
FBXW4:NM_022039:5	|Sp-spec
Fbxw5:NM_013908:2	|G-spec
Fbxw5:NM_013908:5	|G-spec
FBXW8:ENSGALT00000013364:8	|G-spec
FCHO2:NM_001146032:17	|Sp-spec
fchsd2:NM_001102687:13	|G-spec
Fchsd2:NM_199012:11	|G-spec
FDXR:ENSGALT00000012583:10	|Sp-spec
FDXR:ENSGALT00000012583:6	|Sp-spec
FDXR:ENSGALT00000012583:8	|Cons-AS
FECH:NM_000140:7	|Sp-spec
FECH:NM_204196:8	|Sp-spec
FERMT2:NM_001135000:13	|G-spec
FES:NM_002005:3	|G-spec
FGD6:NM_018351:2	|G-spec
fgfr1:NM_001015894:3	|Cons-AS
Fgfr2:NM_010207:3	|Cons-AS
FGFRL1:NM_204456:5	|Sp-spec
FGGY:NM_001113411:12	|G-spec
Fggy:NM_001113412:13	|Classifiers
Fggy:NM_001113412:9	|Sp-spec
Fhod3:NM_175276:11	|G-spec
FIP1L1:NM_001134937:13	|Cons-AS
FKBP15:NM_015258:9	|Sp-spec
fkbp3:NM_001016623:3	|G-spec
FKBP5:NM_004117:7	|Sp-spec
FKTN:uc010mtm.2:5	|G-spec
FLII:NM_002018:8	|Sp-spec
FLNB:NM_001030341:45	|Classifiers
FLNB:NM_001164317:26	|G-spec
FLNB:NM_001457:25	|Sp-spec
FLNB:NM_001457:30	|Cons-AS
FLNB:uc010hng.1:3	|G-spec
FLRT3:NM_198391:2	|G-spec
FMNL1:NM_005892:26	|G-spec
Fmnl1:NM_019679:26	|G-spec
FMNL2:uc010fob.2:2	|G-spec
Fmnl3:NM_011711:6	|Cons-AS
FMNL3:NM_175736:6	|Classifiers
Fmr1:NM_008031:12	|G-spec
fn1:NM_001030524:24	|Cons-AS
fn1:NM_001030524:32	|Cons-AS
FN1:NM_001198712:33	|Cons-AS
FNBP1:ENSGALT00000006504:11	|Cons-AS
FNBP1:NM_015033:5	|Sp-spec
FNBP4:NM_015308:15	|G-spec
FNIP1_CHICK:ENSGALT00000040020:7	|Cons-AS
FNIP1:NM_133372:7	|Cons-AS
FNIP2:NM_020840:9	|Sp-spec
FNTA:NM_002027:2	|Cons-AS
FOXK2:ENSGALT00000002396:5	|Cons-AS
FOXK2:NM_004514:6	|Sp-spec
FOXN2:NM_002158:2	|G-spec
FOXN3:ENSGALT00000017352:4	|Cons-AS
FOXP1:NM_001024827:13	|G-spec
FPGS:NM_001018078:6	|Sp-spec
FRA10AC1:NM_145246:6	|Cons-AS
Frmd4a:NM_001177843:23	|G-spec
FRY:uc001utz.2:8	|G-spec
Fto:NM_011936:4	|Cons-AS
fubp3:NM_001097365:3	|Sp-spec
FURIN:NM_204715:12	|Sp-spec
FYN:NM_002037:2	|G-spec
fzr1:NM_001126529:10	|Sp-spec
G3bp2:NM_001080797:8	|Classifiers
g3bp2:NM_203942:8	|Cons-AS
GAA:NM_001079803:2	|G-spec
GAB1:NM_002039:4	|Sp-spec
GAB1:NM_207123:7	|G-spec
gabpb1:NM_001007483:9	|G-spec
GABPB1:NM_181427:2	|G-spec
Gabrg2:NM_008073:9	|G-spec
GAK:NM_005255:25	|Sp-spec
GAK:uc010ibi.2:5	|G-spec
Galk1:NM_016905:4	|Cons-AS
GALK2:NM_002044:6	|Sp-spec
GALK2:uc001zxk.2:10	|G-spec
GALK2:uc010ufb.1:2	|G-spec
GALNS:ENSGALT00000010149:5	|Sp-spec
Galnt10:NM_134189:3	|Sp-spec
GALNT1:NM_020474:3	|Sp-spec
Galnt2:NM_139272:15	|Sp-spec
GALNTL2:uc003caq.3:3	|G-spec
GAPVD1:NM_015635:14	|G-spec
GAS6:NM_000820:7	|G-spec
Gatad2b:uc008qca.1:2	|G-spec
GCLC:ENSGALT00000026320:8	|Sp-spec
GCLM:NM_002061:2	|Sp-spec
Gdpd5:NM_201352:7	|Sp-spec
GEMIN6:uc002rrb.2:5	|G-spec
GFPT1:uc002sfi.1:5	|G-spec
GFRA1:NM_005264:5	|G-spec
gga3:NM_001130382:3	|Sp-spec
GK5:NR_033289:10	|G-spec
gkap1:NM_001011266:3	|Sp-spec
gk:NM_001097398:19	|Cons-AS
glcci1:ENSXETT00000015852:8	|Classifiers
glod4:NM_204039:3	|Sp-spec
glra2:ENSXETT00000025939:2	|G-spec
GLT1D1:uc010tbh.1:5	|G-spec
GLT8D2:NM_031302:2	|G-spec
Gm88:NM_001111142:2	|G-spec
gne:NM_001079260:10	|Sp-spec
GNE:NM_001190383:4	|Cons-AS
Gne:NM_015828:3	|Sp-spec
GNPAT:uc009xfo.1:3	|G-spec
GOLGA5:NM_005113:7	|Sp-spec
Golim4:uc008png.1:7	|Cons-AS
Golph3l:NM_146133:4	|Cons-AS
gon4l:BC122887:8	|Classifiers
GORASP1:NM_031899:5	|Sp-spec
Gorasp2:NR_027343:2	|G-spec
GOSR1:NM_001007025:5	|Sp-spec
GPAM:NM_020918:5	|Sp-spec
GPATCH8:NR_036474:3	|G-spec
GPATCH8:uc002igv.1:2	|G-spec
GPBP1L1:NM_021639:2	|G-spec
Gpbp1:NM_028487:5	|Sp-spec
Gpbp1:NM_028487:7	|G-spec
GPCPD1:NM_019593:2	|G-spec
Gpcpd1:NM_028802:5	|Cons-AS
GPHN:NM_020806:8	|G-spec
Gphn:NM_145965:8	|G-spec
GPHN:uc010tss.1:11	|G-spec
GPM6B:NM_001001995:2	|G-spec
Gpm6b:NM_001177955:2	|G-spec
GPR133:NM_198827:5	|G-spec
GPR133:NM_198827:7	|G-spec
GPR155:NM_001033045:12	|G-spec
GPR56:NM_001145771:2	|G-spec
GRAMD1B:ENSGALT00000010494:2	|G-spec
Grb10:NM_010345:3	|Sp-spec
Grb10:NM_010345:5	|G-spec
grhpr.2:NM_001007895:8	|Sp-spec
GRIK2:NM_001166247:5	|G-spec
grin1:ENSXETT00000049601:4	|Cons-AS
GRIN1:NM_001185091:4	|Cons-AS
Grin1:NM_008169:19	|Cons-AS
GRK5:NM_005308:2	|G-spec
Grm1:NM_001114333:9	|G-spec
GRM5:NM_001143831:8	|G-spec
GRM5:NM_204138:9	|G-spec
GSK3B:NM_002093:9	|G-spec
GSN:NM_001127665:3	|G-spec
GSN:NM_001127667:3	|G-spec
GTDC1:NM_001006636:7	|G-spec
GTDC1:NM_001006636:9	|Cons-AS
GTF2I:NM_032999:10	|G-spec
Gtf3a:NM_025652:4	|Sp-spec
Gtpbp1:NM_013818:2	|Cons-AS
Gtpbp5:NM_028422:3	|G-spec
GYG1:NM_001006558:4	|Classifiers
GYG1:NM_001184720:6	|Sp-spec
GYG1:NM_004130:7	|G-spec
H13:NM_001159551:12	|G-spec
haao:NM_001006913:10	|G-spec
Haao:NM_025325:7	|G-spec
HAGH:NM_001040427:2	|G-spec
HAUS2:uc001zqf.2:3	|G-spec
HBP1:NM_012257:7	|Sp-spec
HCFC2:ENSGALT00000020764:5	|Sp-spec
HDAC4:NM_204313:3	|G-spec
HDAC7:NM_015401:9	|Cons-AS
HDAC9:NM_014707:7	|Cons-AS
HDDC2:NM_016063:3	|Classifiers
HECTD1:ENSGALT00000016171:27	|Sp-spec
Hemk1:NM_133984:6	|G-spec
Herc1:NM_145617:58	|Sp-spec
Herc2:NM_010418:71	|Cons-AS
herc3:ENSXETT00000051037:12	|G-spec
HERC3:NM_001039298:10	|Sp-spec
herc4:NM_001128650:16	|Sp-spec
Herc4:NM_026101:23	|Sp-spec
HERPUD1:NM_014685:3	|G-spec
HERPUD2:NM_022373:3	|Cons-AS
HERPUD2:NM_022373:7	|Sp-spec
HIAT1:NM_033055:8	|Sp-spec
HIBCH:NM_014362:13	|Sp-spec
HIF1A:NM_204297:13	|Sp-spec
HIF1AN:NM_017902:3	|Sp-spec
Hip1r:NM_145070:27	|Sp-spec
Hip1r:NM_145070:6	|Sp-spec
HIPK1:ENSGALT00000003002:9	|G-spec
HM13:NM_178580:12	|G-spec
HMCN1:ENSGALT00000008254:100	|Sp-spec
HMCN1:ENSGALT00000008254:104	|Cons-AS
HMG20A:NM_018200:2	|G-spec
HMGCL:NM_000191:3	|Sp-spec
HMGCR:NM_000859:13	|Sp-spec
HMGXB3:ENSGALT00000009267:8	|G-spec
HMGXB4:NM_001003681:2	|G-spec
Hmgxb4:NM_178017:2	|G-spec
hnmt:NM_001078887:5	|Sp-spec
Hnrnpa2b1:NM_016806:8	|Classifiers
HNRNPA2B1:NM_031243:2	|G-spec
HNRNPAB:NM_031266:7	|Cons-AS
Hnrnpd:NM_001077265:7	|Cons-AS
HNRNPD:NM_002138:2	|G-spec
HNRNPD:NM_031370:7	|Cons-AS
HNRNPH1:NM_005520:10	|Classifiers
HNRNPH1:NM_005520:11	|Sp-spec
Hnrnph1:NM_021510:10	|Classifiers
hnrnph2:NM_001005664:5	|Cons-AS
Hnrnph3:NM_001079824:3	|Classifiers
HNRNPM:NM_005968:11	|Cons-AS
HNRNPM:NM_005968:13	|G-spec
Hnrnpm:NM_029804:14	|G-spec
HNRNPR:NM_001102397:4	|Sp-spec
HNRNPR:NM_001102398:2	|G-spec
HNRPLL:NM_138394:7	|Sp-spec
Hook3:NM_207659:12	|Sp-spec
HPCAL1:NM_134421:3	|G-spec
HPS3:NM_032383:11	|Sp-spec
HRB:ENSGALT00000004824:5	|Cons-AS
HS1BP3:NM_022460:6	|G-spec
HSCB:NM_172002:4	|G-spec
HSD3B7:NM_001142778:3	|Cons-AS
Hsf1:uc007wkk.1:7	|G-spec
HSPH1:NM_001159698:12	|Cons-AS
IBTK:ENSGALT00000025575:24	|Cons-AS
ICMT:NM_012405:3	|Sp-spec
Icmt:uc008wae.1:3	|G-spec
IDH1:ENSGALT00000014333:7	|Sp-spec
IDH3A:uc002bde.2:3	|G-spec
IDS:NM_000202:8	|Sp-spec
IDS:uc011mxg.1:4	|G-spec
Ifi35:NM_027320:3	|G-spec
IFRD1:NM_001007245:9	|Sp-spec
IFT172:NM_015662:45	|G-spec
IFT74:NM_025103:9	|G-spec
Igf1:NM_001111274:4	|G-spec
Ighmbp2:NM_009212:7	|Sp-spec
Igsf5:NM_001177887:4	|G-spec
IKZF5:NM_022466:2	|G-spec
IL1RAP:NM_002182:2	|G-spec
IL6ST:NM_001190981:12	|Sp-spec
ilf3:NM_001005648:6	|Cons-AS
ILK:NM_001014794:7	|Sp-spec
IMMP1L:NM_144981:2	|G-spec
IMMT:NM_001100169:6	|Cons-AS
Immt:NM_029673:14	|Sp-spec
IMPA1:NM_005536:7	|Cons-AS
Impa1:NM_018864:7	|Cons-AS
INF2:NM_022489:22	|G-spec
Inf2:NM_198411:22	|G-spec
INF2:uc010awz.1:16	|G-spec
ING4:NM_001127584:3	|Cons-AS
INPP4A:ENSGALT00000027049:13	|G-spec
INPP4B:NM_001101669:8	|G-spec
INPP5A:ENSGALT00000017087:14	|Sp-spec
INPP5A:ENSGALT00000017087:5	|Sp-spec
Ints10:uc009lwn.1:17	|G-spec
Ints10:uc009lwo.1:17	|G-spec
INTS8:NM_017864:12	|Sp-spec
INTS8:NM_017864:2	|Sp-spec
Ints9:NM_153414:11	|Sp-spec
INTS9:NR_026826:6	|Sp-spec
ipo13:ENSXETT00000054515:18	|Sp-spec
IPO7:NM_006391:2	|Sp-spec
IPO8:NM_006390:15	|Sp-spec
IPO9:NM_018085:4	|Sp-spec
IQCB1:NM_001023571:4	|G-spec
Iqce:NM_028833:5	|G-spec
Iqce:NM_028833:9	|G-spec
IQSEC1:ENSGALT00000008081:4	|Sp-spec
IRAK4:NM_001145256:2	|G-spec
IRAK4:uc001rnv.3:4	|G-spec
ireb2:NM_001079296:8	|Sp-spec
IRF7:NM_001572:6	|G-spec
Irf7:NM_016850:7	|G-spec
Isca2:NM_028863:3	|Sp-spec
ISCU:NM_014301:2	|G-spec
ITFG1:NM_001005840:9	|G-spec
ITGA11:NM_001004439:5	|G-spec
ITGB1BP1:NM_004763:3	|Sp-spec
Itgb4:NM_001005608:34	|G-spec
ITGB5:NM_002213:9	|Sp-spec
Itih5:NM_172471:4	|G-spec
ITPKC:NM_025194:4	|Sp-spec
ITPR1:NM_001099952:12	|G-spec
ITPR1:NM_001174059:10	|G-spec
ITPR2:NM_002223:6	|Cons-AS
ITPR2:uc009zjg.1:3	|G-spec
ITSN1:NM_003024:20	|G-spec
JMJD5:NM_024773:7	|Sp-spec
Jmjd5:NM_029842:2	|G-spec
JMJD8:NM_001005920:8	|Sp-spec
KANK1:NM_015158:6	|G-spec
KARS:NM_001130089:2	|G-spec
Kars:NM_001130868:2	|G-spec
Kars:uc009nnf.1:2	|G-spec
KBTBD2:NM_015483:2	|G-spec
KBTBD3:NM_198439:2	|G-spec
KCNC4:NR_036437:4	|G-spec
kcnd3:NM_001102941:6	|Cons-AS
KCND3:NM_004980:6	|Cons-AS
KCND3:NM_204326:5	|Cons-AS
KCNH8:uc010hex.1:5	|G-spec
Kcnma1:NM_010610:19	|G-spec
Kcnma1:uc007smh.1:25	|G-spec
KCNQ2:ENSGALT00000009353:9	|G-spec
Kcnq2:NM_010611:12	|G-spec
KCTD17:NM_024681:7	|G-spec
KDM2A:ENSGALT00000021696:12	|Cons-AS
KDM2A:NM_012308:13	|Cons-AS
KDM3B:NM_016604:7	|Cons-AS
Kdm4b:NM_172132:10	|G-spec
KDM4B:uc010xim.1:10	|G-spec
KDM4C:uc003zkd.2:5	|G-spec
kdm5a:ENSXETT00000007871:25	|Sp-spec
KDM5B:NM_001031029:7	|G-spec
KDSR:NM_002035:9	|Sp-spec
KIAA0100:ENSGALT00000005975:10	|Sp-spec
kiaa0174:NM_001102771:8	|Cons-AS
KIAA0196:ENSGALT00000026325:17	|Sp-spec
KIAA0196:NM_014846:8	|Sp-spec
KIAA0232:NM_014743:2	|G-spec
KIAA0284:ENSGALT00000019018:18	|G-spec
KIAA0368:NM_001080398:7	|G-spec
KIAA0415:NM_014855:3	|G-spec
KIAA0494:NM_014774:7	|Classifiers
KIAA0528:uc010sir.1:6	|G-spec
KIAA0528:uc010sir.1:9	|G-spec
KIAA0528:uc010sit.1:10	|G-spec
KIAA0586:uc010trr.1:6	|G-spec
KIAA0638:uc001ptu.1:11	|Classifiers
KIAA1033:NM_015275:27	|Sp-spec
KIAA1109:ENSGALT00000019352:48	|Cons-AS
KIAA1109:NM_015312:22	|Sp-spec
KIAA1109:NM_015312:48	|Cons-AS
KIAA1211:NM_020722:4	|G-spec
kiaa1217:ENSXETT00000055882:14	|G-spec
KIAA1310:NM_017991:19	|Sp-spec
KIAA1310:uc002swj.3:5	|G-spec
KIAA1370:NM_019600:9	|Sp-spec
KIAA1429:NM_015496:22	|Sp-spec
KIAA1468:uc010xel.1:23	|Sp-spec
KIAA1797:NM_017794:38	|Sp-spec
KIF16B:NM_024704:24	|Sp-spec
KIF19:NM_153209:15	|G-spec
kif1a:ENSXETT00000026500:26	|G-spec
Kif1a:NM_008440:37	|G-spec
KIF1A:uc002vzz.1:39	|G-spec
Kif1a:uc007cde.1:13	|G-spec
Kif1a:uc007cdh.1:37	|G-spec
KIF1B:NM_015074:29	|Sp-spec
KIF21A:ENSGALT00000011493:24	|Cons-AS
KIF21A:NM_001173464:12	|G-spec
KIF21A:NM_001173464:18	|Sp-spec
KIF21A:NM_001173464:29	|Cons-AS
KIF2A:NM_001098511:17	|G-spec
Kif2a:NM_008442:18	|G-spec
Kif5b:NM_008448:2	|Sp-spec
Kifap3:NM_010629:20	|G-spec
Kifc3:NM_001145831:4	|G-spec
Klhdc10:NM_029742:2	|G-spec
Klhdc3:NM_027910:2	|G-spec
KLHDC3:NM_057161:4	|Sp-spec
KLHDC4:NM_001030578:5	|Sp-spec
Klhl17:NM_198305:10	|G-spec
KLHL24:NM_017644:2	|G-spec
Klhl24:NM_029436:2	|G-spec
KLHL24:uc003flw.2:2	|G-spec
KLHL28:NM_017658:4	|Sp-spec
Klhl7:NM_026448:8	|Sp-spec
KLHL8:ENSGALT00000017951:3	|Classifiers
KMO:ENSGALT00000012129:3	|G-spec
KPNA6:NM_001012841:7	|Sp-spec
Krit1:NR_033173:17	|Sp-spec
KRTCAP3:ENSGALT00000026639:3	|G-spec
KTN1:NM_001079521:33	|Cons-AS
KTN1:NM_001079522:2	|G-spec
ktn1:NM_001129912:26	|Cons-AS
Ktn1:NM_008477:31	|Cons-AS
Ktn1:NM_008477:38	|G-spec
KTN1:NM_205376:24	|Cons-AS
KTN1:NM_205376:33	|Cons-AS
KTN1:NM_205376:40	|G-spec
L3MBTL2:NM_001006238:15	|G-spec
Lactb2:NM_145381:6	|Sp-spec
Laptm4a:NM_008640:3	|Sp-spec
LARGE:NM_004737:2	|G-spec
LARP1B:NM_018078:6	|Sp-spec
LARP4:NR_033200:2	|G-spec
LARS2:NM_015340:2	|G-spec
LATS1:uc010kif.1:3	|G-spec
LATS2:NM_014572:7	|Sp-spec
LCLAT1:uc010ymq.1:3	|G-spec
LCMT1:NM_016309:5	|G-spec
LDB2:NM_001130834:8	|G-spec
LEO1:NM_138792:3	|Sp-spec
LEPREL2:NM_014262:8	|G-spec
LGMN:NM_005606:12	|Sp-spec
Lgtn:NM_001136070:10	|Cons-AS
LGTN:NM_006893:10	|Cons-AS
LGTN:NM_006893:6	|G-spec
LIFR:NM_002310:3	|G-spec
Lingo1:NM_181074:2	|G-spec
LINGO1:uc002bcu.1:3	|G-spec
Lmbr1:NM_020295:6	|Sp-spec
LMBR1:NM_022458:16	|Classifiers
LMBR1:NM_204172:3	|Sp-spec
LMBR1:NM_204172:8	|Sp-spec
LMF1:ENSGALT00000008468:5	|G-spec
LMNB1:NM_205286:6	|Sp-spec
LMO7:NM_005358:10	|Cons-AS
LMTK2:NM_014916:13	|Sp-spec
Lnp:NM_001110209:13	|G-spec
LOC100144926:BC158191:14	|Sp-spec
LOC100144962:BC158281:2	|Sp-spec
LOC100145585:BC161318:6	|Sp-spec
LOC419482:ENSGALT00000006827:39	|Cons-AS
LOC421049:ENSGALT00000022540:14	|Cons-AS
LOC421049:ENSGALT00000022540:18	|Sp-spec
LOC424773:ENSGALT00000004113:12	|Cons-AS
LOC429509:ENSGALT00000006070:20	|Sp-spec
LOC441309:uc010zpf.1:4	|Sp-spec
LOC733480:BC157140:3	|Sp-spec
LOC733953:BC166138:11	|Cons-AS
LOC771140:ENSGALT00000023883:7	|Sp-spec
LOC772285:ENSGALT00000002392:22	|Cons-AS
LONP2:NM_031490:3	|Sp-spec
LPHN2:uc001div.2:21	|G-spec
Lphn2:uc008rry.1:2	|G-spec
Lphn2:uc008rrz.1:7	|G-spec
LPP:NM_001031567:3	|G-spec
LRBA:NM_006726:39	|G-spec
Lrch1:NM_001033439:3	|Cons-AS
LRCH2:NM_020871:16	|Cons-AS
Lrig1:NM_008377:3	|Sp-spec
LRP12:NM_013437:2	|G-spec
Lrp12:NM_172814:2	|G-spec
LRP8:NM_001018054:5	|Cons-AS
LRP8:NM_004631:18	|G-spec
lrrc20:NM_001011063:3	|G-spec
LRRC28:NM_144598:9	|Sp-spec
LRRC37BP1:NR_015341:6	|Sp-spec
Lrrc40:NM_024194:3	|Classifiers
LRRC49:uc002asy.2:7	|G-spec
LRRC6:uc003ytl.2:12	|G-spec
LRRCC1:NM_033402:7	|G-spec
LRRFIP1:ENSGALT00000006147:13	|G-spec
LRRFIP1:NM_001137550:18	|G-spec
LRRFIP1:NM_001137550:7	|G-spec
Lrrfip1:NM_008515:8	|G-spec
Lrrfip1:uc007bzt.1:7	|G-spec
LSM14A:NM_001012778:6	|Sp-spec
LSM14A:NM_001114093:10	|G-spec
LSM14A:NM_001114093:5	|Cons-AS
Lsm14a:NM_025948:10	|G-spec
LSM1:NM_014462:3	|Classifiers
LTA4H:NM_000895:17	|Cons-AS
LTBP4:NM_003573:18	|Sp-spec
LUC7L2:uc003vuy.2:2	|G-spec
LUC7L:NM_201412:3	|G-spec
LYRM1:NM_001162376:3	|G-spec
Lyrm5:uc009erg.1:2	|G-spec
MACF1:ENSGALT00000005857:65	|G-spec
macf1:ENSXETT00000016061:75	|Sp-spec
MACF1:NM_033044:60	|G-spec
MACF1:uc001cde.1:5	|G-spec
Macf1:uc008upi.1:5	|G-spec
MAD1L1:NM_001013836:13	|Cons-AS
Mad1l1:NM_010752:9	|Sp-spec
Mad2l2:NM_027985:4	|Sp-spec
MADD:ENSGALT00000013318:31	|Cons-AS
madd:NM_001079249:31	|Cons-AS
MAEA:NM_001017405:5	|Sp-spec
MAGI1:NM_001033057:7	|Cons-AS
Magi1:NM_001083320:14	|G-spec
Magi1:NM_001083320:18	|Cons-AS
MAGI1:NM_015520:15	|G-spec
MAN1A2:ENSGALT00000023197:8	|Sp-spec
MAN1C1:NM_020379:3	|Cons-AS
MAN1C1:uc009vry.1:2	|G-spec
MAN2A1:NM_002372:15	|Sp-spec
MAN2A2:NM_006122:9	|Sp-spec
MAN2B2:ENSGALT00000025045:5	|Sp-spec
MAN2C1:NM_001079715:4	|Sp-spec
man2c1:NM_001097209:5	|G-spec
Man2c1:NM_028636:18	|Sp-spec
Manba:uc008rlt.1:5	|G-spec
MAOA:uc011mkw.1:2	|G-spec
map2k4:ENSXETT00000024139:2	|G-spec
Map2k4:NM_009157:2	|G-spec
Map2k4:NM_009157:3	|Cons-AS
Map2k4:uc007jlc.1:2	|G-spec
Map2k5:NM_011840:3	|Sp-spec
MAP3K3:NM_002401:15	|Sp-spec
Map3k3:NM_011947:13	|Sp-spec
MAP3K7:NM_003188:5	|Sp-spec
MAP3K7:NM_145332:12	|Cons-AS
map4:ENSXETT00000009125:16	|Classifiers
map4:ENSXETT00000009125:17	|G-spec
MAP4:NM_002375:14	|Cons-AS
MAP4:uc003csf.3:3	|G-spec
MAP4:X86819:10	|G-spec
map7d2:NM_001079229:6	|G-spec
MAPK3:NM_002746:6	|Sp-spec
mapk8:NM_001129943:3	|Sp-spec
mapk8:NM_001129943:7	|G-spec
MAPKAP1:NM_001006617:2	|Sp-spec
Mapkap1:NM_177345:7	|Cons-AS
MAPKAP1:NM_204826:8	|Cons-AS
MAPKAPK3:NM_004635:4	|Cons-AS
Mapkapk5:NM_010765:6	|Cons-AS
MAPKAPK5:NM_139078:6	|Cons-AS
MAPKBP1:NM_001128608:9	|G-spec
Mapkbp1:NM_011941:28	|G-spec
Mapt:NM_001038609:4	|G-spec
MAPT:NM_001199193:9	|Cons-AS
Mapt:NM_010838:7	|Cons-AS
Mar-06:ENSGALT00000021258:22	|Sp-spec
MARCH6:NM_005885:4	|Sp-spec
MARCH6:NM_005885:5	|Sp-spec
Mark2:NM_001080388:15	|Sp-spec
MARK2:NM_017490:17	|Classifiers
MARK3:NM_001128919:16	|G-spec
Mark3:NM_022801:2	|Cons-AS
MARK3:uc010awp.2:7	|G-spec
MASP1:NM_001879:11	|G-spec
MAST4:NM_198828:5	|G-spec
MAT2B:NM_182796:4	|Sp-spec
Mbnl1:NM_020007:7	|Cons-AS
MBNL1:NM_207296:6	|G-spec
mbnl2:NM_001079299:6	|Cons-AS
MBP:NM_001025101:3	|G-spec
Mbp:NM_001025251:2	|G-spec
MBTPS1:NM_003791:12	|Sp-spec
MCAM:NM_006500:15	|G-spec
Mcat:NM_001030014:3	|Cons-AS
MCAT:NM_014507:2	|Sp-spec
MCCC1:NM_001006551:15	|Cons-AS
MCCC1:NM_020166:15	|Cons-AS
MCCC1:NM_020166:3	|Sp-spec
MCCC2:NM_022132:7	|Classifiers
Mcf2l:NM_178076:27	|G-spec
MCF2:NM_001171876:14	|G-spec
Mcm3ap:NM_019434:17	|Sp-spec
MCOLN1:ENSGALT00000022056:3	|Sp-spec
Mcoln1:NM_053177:10	|Sp-spec
MCPH1:NM_024596:8	|G-spec
MCRS1:NM_006337:2	|G-spec
MDM1:uc010stc.1:7	|G-spec
MDM2:NM_001199384:3	|Cons-AS
MDM2:NM_002392:4	|Cons-AS
Mdm2:NM_010786:3	|G-spec
mdm4:NM_001142245:5	|G-spec
MDM4:NM_002393:9	|G-spec
MEAF6:NM_001030897:4	|G-spec
MEAF6:NM_022756:6	|G-spec
MED14:NM_004229:12	|Sp-spec
Med15:NM_033609:2	|Sp-spec
med1:NM_001097258:14	|Sp-spec
MED23:NM_015979:26	|Sp-spec
MED24:NM_001031363:14	|Sp-spec
MED24:uc010wes.1:2	|G-spec
Med28:NM_025895:3	|Sp-spec
MED30:NM_080651:3	|Sp-spec
Med8:NM_173719:3	|G-spec
Mef2a:NM_001033713:9	|G-spec
MEF2A:NM_001130927:7	|G-spec
MEF2A:NM_001171894:3	|G-spec
mef2c:NM_001112916:5	|Cons-AS
MEIS1:NM_002398:3	|Cons-AS
MERTK:NM_006343:5	|Sp-spec
Metap1d:NM_025633:7	|G-spec
METTL13:NM_001007239:5	|Sp-spec
METTL14:NM_020961:10	|Sp-spec
MFF:ENSGALT00000004870:5	|G-spec
MFF:NM_020194:7	|G-spec
MFF:NM_020194:8	|G-spec
MFGE8:NM_005928:7	|Sp-spec
MFSD11:NM_024311:7	|Cons-AS
Mfsd11:NM_178620:6	|Cons-AS
MFSD6:NM_017694:2	|G-spec
MFSD7:ENSGALT00000037834:3	|G-spec
MGC72080:NR_002822:3	|Sp-spec
MGEA5:NM_001142434:10	|Cons-AS
MGLL:NM_007283:6	|Cons-AS
Mgmt:NM_008598:2	|G-spec
Mgrn1:uc007yas.1:2	|G-spec
MGST1:NM_020300:2	|G-spec
MGST1:NM_020300:3	|G-spec
Mia3:NM_177389:23	|Sp-spec
Mib1:NM_144860:13	|Sp-spec
MICAL2:NM_014632:22	|G-spec
MINPP1:NM_004897:4	|Sp-spec
MITF:NM_205029:3	|G-spec
mkl1:NM_001079286:9	|G-spec
MKL1:NM_020831:2	|G-spec
MKL1:NM_020831:9	|G-spec
mkl2:NM_001079182:12	|Sp-spec
MKLN1:NM_001030773:2	|Sp-spec
MKLN1:NM_001030773:4	|Classifiers
MKLN1:NM_013255:16	|Sp-spec
MKNK1:NM_001135553:4	|Sp-spec
mknk2:NM_001079304:5	|G-spec
Mlh1:NM_026810:9	|Cons-AS
Mll5:NM_026984:24	|G-spec
Mll5:NM_026984:8	|Sp-spec
MLL5:uc010lja.1:6	|G-spec
mll:BC155710:12	|G-spec
MLLT1:NM_005934:5	|Classifiers
MLLT4:ENSGALT00000018484:19	|G-spec
MLLT4:uc003qwd.2:30	|G-spec
Mllt6:NM_139311:17	|Cons-AS
MLPH:NM_001042467:6	|Cons-AS
MLPH:NM_001115080:6	|Cons-AS
MLXIP:NM_014938:8	|G-spec
MMAA:NM_172250:5	|Sp-spec
MMACHC:NM_015506:2	|Sp-spec
MMS19:NM_022362:12	|Sp-spec
MMS19:NM_022362:7	|Sp-spec
Mnat1:NM_008612:4	|Cons-AS
mnt:ENSXETT00000042105:3	|Cons-AS
MOBKL2C:ENSGALT00000017003:3	|Sp-spec
MOBKL3:NM_015387:2	|Classifiers
MON1B:NM_014940:3	|Sp-spec
MON2:NM_015026:28	|G-spec
MON2:uc010ssl.1:2	|G-spec
MORF4L1:NM_001037173:5	|G-spec
MOSPD1:NM_019556:3	|Sp-spec
Mpp5:NM_019579:12	|Sp-spec
Mpst:NM_001162492:2	|Classifiers
Mpzl1:NM_001083897:5	|G-spec
MPZL1:NM_003953:5	|G-spec
Mrpl10:NM_026154:2	|Sp-spec
mrpl15:NM_001126635:3	|Sp-spec
Mrpl15:NM_001177658:2	|Sp-spec
mrpl19:ENSXETT00000039459:2	|Sp-spec
MRPL22:NM_014180:3	|Sp-spec
MRPL48:NM_016055:3	|G-spec
MRPL48:NM_016055:7	|Sp-spec
MRPL53:NM_053050:2	|G-spec
MRPS17:NM_001198647:2	|Sp-spec
Mta1:uc007pfw.1:4	|G-spec
MTA3:NM_020744:9	|Sp-spec
Mtap4:NM_008633:15	|Classifiers
MTCH2:NM_014342:4	|G-spec
MTF1:NM_001031495:8	|Sp-spec
Mtfr1:NM_026182:2	|G-spec
Mtfr1:uc008ors.1:4	|G-spec
MTHFD1:NM_005956:3	|Sp-spec
MTHFD2:NM_006636:2	|Sp-spec
MTHFD2:NR_027405:2	|G-spec
MTMR10:NM_017762:6	|Sp-spec
MTMR14:NM_001077525:17	|Sp-spec
MTMR14:NM_022485:2	|Cons-AS
Mtmr14:NM_026849:18	|Cons-AS
Mtmr14:NM_026849:2	|Cons-AS
mtmr1:NM_001045765:3	|G-spec
MTMR1:uc011mya.1:3	|G-spec
MTMR2:NR_023356:2	|G-spec
Mtmr2:uc009odx.1:2	|G-spec
MTMR3:ENSGALT00000013063:20	|Cons-AS
MTMR3:NM_153050:19	|G-spec
Mtmr4:NM_133215:3	|Sp-spec
Mtpap:NM_026157:3	|Sp-spec
MTRF1:NM_004294:9	|Sp-spec
Mtrf1:NM_145960:9	|Sp-spec
MTR:NM_000254:20	|Sp-spec
Mtr:NM_001081128:29	|Sp-spec
MTRR:ENSGALT00000021306:9	|G-spec
MTSS1:NM_014751:11	|Cons-AS
MTSS1:NM_014751:3	|Sp-spec
MTUS1:ENSGALT00000022147:8	|Sp-spec
MTUS1:NM_001001924:4	|G-spec
MTUS1:NM_001001931:5	|Sp-spec
MTX2:NM_006554:9	|Sp-spec
MTX3:NM_001167741:7	|Cons-AS
MUTED:NM_201280:3	|Sp-spec
MUTED:NM_201280:4	|Cons-AS
MUT:ENSGALT00000026946:7	|Sp-spec
MVK:NM_000431:8	|G-spec
Mvk:uc008yzq.1:2	|G-spec
MXD4:NM_001006460:4	|Sp-spec
MXI1:NM_130439:3	|G-spec
MYBL1:NM_001080416:15	|G-spec
MYLIP:NM_013262:5	|Sp-spec
MYO18A:NM_078471:11	|Cons-AS
MYO18A:NM_078471:40	|G-spec
MYO18B:ENSGALT00000008884:32	|G-spec
MYO19:NM_025109:22	|G-spec
MYO19:uc010cuu.2:22	|G-spec
Myo6:NM_001039546:31	|G-spec
MYO6:NM_004999:33	|G-spec
MYO9A:ENSGALT00000003234:5	|G-spec
Mysm1:NM_177239:9	|Sp-spec
MYST2:NM_001031341:4	|Sp-spec
MYST2:NM_007067:6	|Classifiers
N6AMT1:NM_013240:4	|Sp-spec
N6amt1:NM_026366:5	|Sp-spec
N6AMT2:NM_174928:3	|Classifiers
Naa35:NM_030153:10	|Sp-spec
NAAA:NM_014435:10	|Sp-spec
NADK:NM_001030870:7	|Cons-AS
NALCN:ENSGALT00000027248:22	|G-spec
nap1l4:NM_001079439:11	|Cons-AS
NAP1L4:NM_005969:15	|Cons-AS
Nap1l4:NM_008672:15	|Cons-AS
NAP1L4:uc010qxm.1:2	|G-spec
NARFL:NM_022493:9	|Sp-spec
NARF:NM_001038618:5	|Sp-spec
NARF:NM_031968:8	|G-spec
nasp:NM_001171517:6	|G-spec
NASP:NM_001195193:4	|Cons-AS
NASP:uc001coh.1:3	|G-spec
Nbeal2:NM_183276:10	|G-spec
Nbr1:NM_008676:17	|Classifiers
NBR1:NM_031858:10	|G-spec
NCALD:NM_001040624:5	|G-spec
Ncald:NM_001170867:2	|G-spec
NCAM1:NM_181351:9	|G-spec
NCAM1:uc001pns.2:5	|G-spec
Ncam1:uc009pjl.1:2	|G-spec
NCAN:NM_004386:8	|G-spec
Ncan:NM_007789:2	|G-spec
NCK2:NM_003581:4	|Cons-AS
NCKAP1:NM_205842:2	|G-spec
Ncoa1:NM_010881:22	|G-spec
NCOA3:ENSGALT00000007275:17	|Sp-spec
ncoa5:NM_203605:2	|Cons-AS
NCOA6:NM_014071:6	|Sp-spec
NCOA7:NM_001122842:3	|G-spec
ncor1:NM_001032342:45	|Classifiers
NCOR1:NM_006311:32	|Sp-spec
NDEL1:NM_001025579:3	|Sp-spec
NDEL1:NM_001025579:7	|Sp-spec
NDFIP2:NM_001030820:4	|Sp-spec
NDOR1:ENSGALT00000014501:3	|Sp-spec
ndrg3:NM_001006703:16	|G-spec
Ndrg4:NM_001195006:14	|G-spec
NDRG4:uc002eno.2:14	|G-spec
NDRG4:uc010vig.1:2	|G-spec
NDUFA11:NR_034166:2	|G-spec
Ndufb3:NM_025597:2	|Sp-spec
NEBL:NM_006393:6	|G-spec
Neb:NM_010889:151	|Cons-AS
NEDD4:NM_198400:11	|Sp-spec
NEDD4:NM_198400:18	|Sp-spec
negr1:NM_001113066:7	|G-spec
Neil1:NM_028347:7	|G-spec
NEK1:NM_012224:26	|G-spec
NEK1:uc003isd.1:20	|G-spec
NEK4:NM_001193533:5	|G-spec
Nek4:NM_011849:8	|G-spec
neo1:NM_001129940:21	|G-spec
NEO1:NM_002499:26	|G-spec
Neo1:NM_008684:21	|Cons-AS
Neo1:NM_008684:26	|G-spec
NFASC:NM_001004709:16	|G-spec
NFASC:NM_001005389:4	|G-spec
Nfasc:NM_001160317:8	|G-spec
NFASC:NM_001160320:7	|G-spec
NFASC:NM_001160323:27	|G-spec
NFASC:NM_001160331:15	|G-spec
NFASC:NM_015090:8	|G-spec
NFAT5:NM_138714:2	|G-spec
nfe2l1:ENSXETT00000047513:3	|G-spec
nfia:ENSXETT00000019479:6	|Cons-AS
Nfia:NM_010905:10	|Cons-AS
NFIA:NM_205273:10	|G-spec
NFIA:NM_205273:7	|Cons-AS
NFIB:uc003zld.2:10	|Cons-AS
NFIC:NM_205843:9	|Classifiers
nfix:ENSXETT00000036473:8	|Cons-AS
NFXL1:NM_152995:19	|G-spec
Nfya:NM_001110832:3	|G-spec
NFYA:NM_002505:3	|G-spec
Nfyb:NM_010914:4	|Cons-AS
NFYC:NM_001142588:9	|G-spec
NID1:NM_002508:10	|Sp-spec
NIPAL3:NM_020448:2	|G-spec
nipsnap1:NM_001016032:5	|Cons-AS
NISCH:NM_007184:19	|Sp-spec
Nkiras1:NM_023526:2	|Cons-AS
Nkiras1:uc007sht.1:3	|G-spec
NKTR:uc003clp.2:8	|G-spec
NME6:NM_005793:4	|Cons-AS
Nmi:NM_019401:7	|G-spec
NMRAL1:NM_020677:5	|G-spec
nol4:ENSXETT00000044394:4	|Cons-AS
NOL6:NM_139235:4	|G-spec
Nom1:NM_001033457:2	|G-spec
NP_001123747.1:ENSXETT00000045598:21	|G-spec
NPC1:NM_000271:6	|Sp-spec
NPL:NM_030769:10	|G-spec
NPLOC4:NM_017921:5	|Sp-spec
NPM3:NM_006993:2	|G-spec
NPNT:ENSGALT00000017193:3	|Cons-AS
NPNT:NM_001184690:3	|Cons-AS
NPNT:NM_001184693:4	|G-spec
Npnt:NM_033525:3	|Cons-AS
NPRL2:NM_006545:3	|Sp-spec
NPRL2:NM_006545:4	|Sp-spec
nprl3:ENSXETT00000002483:3	|G-spec
NPRL3:NM_001077350:5	|Sp-spec
NPTN:NM_001161363:2	|Cons-AS
NR2C1:NM_003297:12	|Sp-spec
NR3C2:NM_000901:5	|G-spec
NRCAM_CHICK:ENSGALT00000015490:9	|Cons-AS
NRCAM:NM_001037132:2	|Cons-AS
Nrcam:NM_176930:28	|Cons-AS
NRCAM:NM_205266:2	|Cons-AS
NRD1:NM_002525:3	|G-spec
Nrf1:NM_001164229:4	|G-spec
NRF1:NM_005011:3	|Sp-spec
NRXN1:NM_001198976:4	|Cons-AS
Nrxn3:NM_172544:8	|Cons-AS
NSDHL:NM_001129765:2	|G-spec
NSMCE1:uc002doj.1:2	|G-spec
NSUN2:NM_001031004:18	|Sp-spec
NSUN4:NM_199044:3	|Sp-spec
Nt5c2:NR_028353:4	|G-spec
NT5C3L:uc002hyb.3:3	|G-spec
NT5DC2:ENSXETT00000029938:7	|Sp-spec
NTAN1:ENSGALT00000004474:8	|Sp-spec
Ntan1:NM_010946:2	|Cons-AS
NTAN1:NM_173474:2	|Classifiers
NTAN1:NM_173474:5	|Classifiers
NTM:NM_204711:8	|G-spec
NTNG2:NM_032536:4	|G-spec
NUB1:NM_016118:12	|Sp-spec
Nub1:NM_016736:10	|Sp-spec
NUBP1:NM_002484:10	|Sp-spec
NUBP1:NM_002484:4	|Sp-spec
Nucb2:uc009ygx.1:3	|G-spec
NUDC:uc001bnh.1:3	|G-spec
Nudt13:NM_026341:2	|G-spec
Nudt13:uc007sjc.1:2	|G-spec
Nudt19:NM_033080:2	|Sp-spec
Nudt1:NM_008637:2	|G-spec
NUDT7:NM_001105663:3	|Cons-AS
NUMA1:NM_006185:2	|G-spec
NUMB:NM_001005743:6	|G-spec
Numb:NM_001136075:3	|G-spec
NUP155:ENSGALT00000005842:32	|Sp-spec
nup188:NM_001113820:33	|Sp-spec
NUP205:ENSGALT00000019063:28	|Sp-spec
nup205:NM_001142124:38	|Sp-spec
NUP214:NM_005085:23	|Sp-spec
NUP88:ENSGALT00000002637:14	|Sp-spec
Nup88:NM_001083331:6	|Sp-spec
NUP88:NM_002532:7	|Sp-spec
NUP98:NM_139131:12	|Cons-AS
NUPL1:NM_014089:14	|G-spec
OBSL1:NM_001173431:12	|G-spec
Ociad1:uc008xss.1:2	|G-spec
OCRL:NM_000276:19	|Cons-AS
ODF2L:NM_001184766:7	|G-spec
Odz4:NM_011858:7	|G-spec
OFD1:NM_003611:20	|G-spec
Ogdh:uc007hyg.1:5	|G-spec
OGG1:NM_016829:7	|G-spec
OGT:NM_181673:7	|Sp-spec
OLFML3:NM_001040018:2	|G-spec
olfml3:NM_001078850:3	|G-spec
OPA1:NM_015560:4	|Sp-spec
OPA1:NM_130835:6	|G-spec
Opa1:uc007ywe.1:6	|G-spec
OPCML:uc010sck.1:7	|G-spec
OPTN:NM_204236:5	|Sp-spec
orc3:NM_001103067:14	|Sp-spec
Osbpl10:NM_148958:2	|Cons-AS
OSBPL1A:NM_018030:7	|Sp-spec
OSBPL1A:NM_018030:8	|Sp-spec
OSBPL6:ENSGALT00000014942:15	|G-spec
OSBPL6:NM_145739:13	|G-spec
Osbpl8:NM_175489:3	|G-spec
OSBPL9:NM_148909:5	|G-spec
OSTC:NM_021227:3	|Sp-spec
OSTF1:NM_001031426:7	|Sp-spec
OSTF1:NM_012383:9	|Sp-spec
OTOF:ENSGALT00000026758:2	|G-spec
OTUD3:NM_015207:3	|Cons-AS
Otud3:NM_028453:3	|Cons-AS
OXNAD1:NM_001199638:4	|G-spec
Oxr1:NM_001130166:12	|G-spec
OXR1:NM_001198533:12	|G-spec
OXSR1:NM_005109:12	|Sp-spec
P2RX4:NM_002560:5	|Cons-AS
P2RX4:NM_204291:5	|Cons-AS
PACRGL:uc003gpu.2:8	|G-spec
PACRGL:uc011bxm.1:6	|G-spec
PACRG:NM_152410:6	|G-spec
Pacs1:NM_153129:4	|Sp-spec
pacsin2:NM_001011050:9	|Cons-AS
Pafah2:NM_133880:4	|Sp-spec
PALLD:NM_001166110:2	|Cons-AS
PALM:NM_002579:8	|G-spec
Palm:NM_023128:8	|G-spec
pam:NM_001197235:15	|Cons-AS
pam:NM_001197235:23	|Cons-AS
PAN3:NM_175854:5	|G-spec
Pan3:uc009aoe.1:4	|G-spec
PANK2:uc010gbd.1:2	|G-spec
PANK4:ENSGALT00000001764:18	|Sp-spec
PANK4:ENSGALT00000001764:6	|Sp-spec
PANK4:ENSGALT00000001764:8	|Cons-AS
PANK4:NM_018216:10	|Sp-spec
PAPOLA:NM_032632:4	|Cons-AS
PAPSS2:NM_001015880:8	|G-spec
PAQR5:NM_017705:3	|G-spec
PARD3:NM_001039280:5	|G-spec
PARD3:NM_001184785:21	|G-spec
pard6b:NM_001128639:2	|Sp-spec
PARG:NM_003631:9	|Sp-spec
PARL:NM_018622:6	|Sp-spec
PARP12:NM_022750:7	|G-spec
PARP6:NM_020214:19	|Cons-AS
Parp6:NM_029922:20	|Cons-AS
parvb:NM_001005624:3	|Sp-spec
patz1:ENSXETT00000009079:3	|G-spec
PATZ1:NM_014323:4	|G-spec
PAX2:NM_003988:9	|G-spec
PAXIP1:uc003wlq.1:5	|G-spec
Pbx1:NM_183355:7	|G-spec
PBX3:uc004bqe.2:4	|G-spec
PCCA:ENSGALT00000027260:11	|Sp-spec
PCCA:ENSGALT00000027260:7	|Sp-spec
PCCA:NM_000282:22	|Classifiers
Pcdh17:NM_001013753:2	|G-spec
PCIF1:NM_022104:12	|Sp-spec
PCLO:NM_014510:4	|G-spec
PCM1_CHICK:ENSGALT00000037576:32	|Classifiers
PCM1:NM_006197:2	|G-spec
PCM1:NM_006197:24	|Classifiers
Pcm1:NM_023662:23	|Cons-AS
PCM1:NM_204531:26	|G-spec
PCM1:NM_204531:35	|Sp-spec
PCM1:uc003wyh.2:7	|G-spec
Pcsk6:NM_011048:15	|G-spec
pcsk7:ENSXETT00000008134:6	|Sp-spec
Pcyox1:NM_025823:5	|Sp-spec
PCYT2:NM_001031106:16	|G-spec
PDCD2:NM_002598:4	|Sp-spec
Pdcl3:NM_026850:2	|Sp-spec
PDE3B:NM_000922:3	|Cons-AS
PDE6D:NM_002601:4	|Cons-AS
PDE8A:uc010bnc.2:8	|G-spec
PDGFC:NR_036641:2	|G-spec
pdlim3:NM_001005814:5	|G-spec
pdrg1:NM_001015688:2	|G-spec
PDS5B:NM_001012827:33	|Cons-AS
PDS5B:NM_015032:33	|Cons-AS
Pds5b:NM_175310:29	|Sp-spec
Pdss2:NM_001168289:6	|Cons-AS
PECI:NM_001166010:4	|Sp-spec
PECI:NM_001166010:8	|Sp-spec
Peli3:NM_172835:4	|Sp-spec
PEX11A:NM_003847:2	|Cons-AS
PEX3:NM_003630:11	|Sp-spec
Pex5:NM_008995:8	|Cons-AS
PFDN1:NM_002622:2	|Classifiers
pfkfb3:NM_001142184:15	|Cons-AS
PFKM:uc001rra.1:4	|G-spec
PGAP3:NM_033419:4	|Sp-spec
PGGT1B:NM_005023:6	|Sp-spec
Pgm3:NM_028352:6	|Sp-spec
PGM5:NM_021965:10	|G-spec
PGS1:NM_001008463:4	|Sp-spec
phactr1:NM_001142167:5	|Cons-AS
Phactr1:NM_198419:7	|Cons-AS
PHACTR1:uc011dir.1:8	|Cons-AS
Phactr2:NM_001195096:5	|G-spec
PHACTR2:NM_014721:3	|G-spec
PHACTR4:uc001bpx.2:3	|G-spec
PHB:NM_001177735:2	|Sp-spec
PHF10:ENSGALT00000018250:7	|Classifiers
phf10:NM_001030472:4	|G-spec
PHF14:NM_001012856:3	|Cons-AS
Phf14:NM_001168382:3	|Cons-AS
Phf17:NM_001130186:10	|Cons-AS
PHF17:NM_199320:10	|Cons-AS
phf20:BC135667:11	|Cons-AS
PHF20:ENSGALT00000002314:16	|Sp-spec
PHF20:NM_016436:8	|G-spec
PHF5A:NM_032758:2	|Sp-spec
PHKA1:ENSGALT00000007663:28	|G-spec
PHKA1:NM_001122670:19	|Cons-AS
PHKA1:NM_002637:28	|G-spec
PHKA2:NM_000292:29	|G-spec
PHKB:NM_001031835:2	|G-spec
Phkg2:NM_026888:5	|Sp-spec
PHLDB1:NM_001144758:22	|G-spec
Phldb1:NM_153537:13	|G-spec
Phldb1:uc009pef.1:5	|Classifiers
PHLDB2:ENSGALT00000024811:5	|Cons-AS
PHPT1:ENSGALT00000005345:4	|G-spec
PHPT1:NM_001135861:3	|G-spec
PHTF2:NM_001127359:3	|G-spec
PHTF2:uc003ugs.3:2	|G-spec
PHYHD1:NM_174933:10	|Sp-spec
PI4KB:uc001exs.2:2	|G-spec
Pias1:NM_019663:8	|Sp-spec
PIAS2:NM_001030626:7	|Sp-spec
PIBF1:uc010aeo.1:12	|G-spec
pigk:NM_001079241:2	|Sp-spec
PIGP:NM_153682:4	|Sp-spec
PIGQ:NM_004204:10	|Sp-spec
Pigq:NM_011822:5	|Sp-spec
PIGQ:NM_148920:6	|Sp-spec
PIGU:ENSGALT00000001850:6	|Sp-spec
PIK3C3:NM_002647:16	|Sp-spec
PIK3C3:NM_002647:22	|G-spec
Pinx1:NM_028228:5	|Sp-spec
PIP5K1B:NM_003558:2	|G-spec
Pitpnm1:NM_008851:9	|Sp-spec
PKD1:NM_000296:38	|Sp-spec
PKD1:NM_000296:39	|Sp-spec
PKD2:NM_000297:10	|Sp-spec
pkp4:NM_001079421:8	|Cons-AS
PKP4:NM_003628:20	|Classifiers
Pkp4:NM_175464:4	|G-spec
PLA2G6:NM_001130738:11	|Sp-spec
PLA2G6:NM_001130738:8	|G-spec
PLA2G6:NM_003560:9	|G-spec
Pla2g6:uc007wtd.1:9	|G-spec
PLAT:NM_000930:4	|Sp-spec
plat:NM_001030403:2	|G-spec
Plcb1:NM_019677:32	|G-spec
PLCB1:NM_182734:32	|G-spec
PLCB4:NM_001172646:20	|G-spec
PLCB4:NM_001199435:35	|G-spec
PLCD1:ENSGALT00000009322:7	|Sp-spec
Plcg1:NM_021280:18	|Sp-spec
PLDN:NM_012388:4	|Sp-spec
PLDN:uc001zvs.2:3	|G-spec
plekha5:ENSXETT00000050052:8	|G-spec
PLEKHA5:uc010sie.1:24	|G-spec
Plekha6:NM_182930:11	|G-spec
PLEKHA6:uc009xaw.1:3	|G-spec
PLEKHJ1:NM_018049:4	|Sp-spec
Plekhj1:NM_023900:2	|G-spec
Plekhm2:NM_001033150:7	|G-spec
PLEKHM2:NM_015164:7	|G-spec
PLLP:NM_015993:2	|Cons-AS
PLOD2:NM_182943:14	|G-spec
PLS3:uc011mtf.1:10	|G-spec
plxna1:NM_001097291:24	|G-spec
PLXND1:NM_015103:32	|Sp-spec
PMM1:NM_002676:4	|Sp-spec
PMPCB:NM_004279:7	|Sp-spec
PNKD:NM_015488:8	|G-spec
pnpt1:NM_001017033:24	|Cons-AS
PNPT1:NM_033109:15	|Cons-AS
PNPT1:NM_033109:26	|Sp-spec
Podn:NM_172874:6	|Sp-spec
POFUT2:NR_004858:9	|G-spec
POLB:NM_002690:11	|Sp-spec
poldip2:NM_001017098:7	|Sp-spec
POLDIP3:NM_032311:8	|Cons-AS
Polg:NM_017462:13	|Sp-spec
polr2d:NM_001016248:3	|Cons-AS
Polr2d:NM_027002:3	|Cons-AS
POLR3F:uc002wqw.2:3	|G-spec
pop4:NM_001017252:5	|Sp-spec
POP5:NM_015918:3	|Cons-AS
POPDC2:uc010hqw.1:4	|G-spec
POSTN:NM_006475:17	|G-spec
Postn:NM_015784:20	|G-spec
Postn:uc008pfi.1:17	|G-spec
ppap2a:BC158260:2	|Cons-AS
Ppap2a:NM_008247:2	|Cons-AS
Ppap2a:NM_008903:2	|Cons-AS
PPARD:NM_001171818:3	|G-spec
Ppfia1:NM_001033319:17	|G-spec
Ppfia1:NM_001195086:10	|G-spec
PPFIA1:NM_003626:27	|G-spec
PPFIA1:uc001opq.1:5	|G-spec
PPFIA2:NM_003625:25	|G-spec
PPFIA2:NM_003625:32	|G-spec
PPFIBP1:NM_003622:10	|G-spec
PPFIBP2:ENSGALT00000008490:13	|Cons-AS
Pphln1:NM_175363:7	|Sp-spec
PPIG:NM_004792:12	|G-spec
Ppil2:NM_144954:5	|Sp-spec
Ppil3:NM_027374:5	|Sp-spec
PPIL3:NM_130906:4	|Cons-AS
PPIL4:NM_139126:10	|Sp-spec
PPIL6:NM_001111298:7	|G-spec
PPM1A:NM_177951:2	|G-spec
Ppm1b:NM_001159498:6	|G-spec
PPME1:NM_016147:4	|Sp-spec
PPP1R12A:NM_001143885:15	|G-spec
Ppp1r12a:NM_027892:13	|G-spec
PPP1R12A:NM_205123:14	|G-spec
PPP1R12B:NM_032103:3	|G-spec
PPP1R12B:NM_032104:12	|G-spec
PPP1R7:NM_002712:2	|G-spec
PPP2R2B:NM_181678:3	|G-spec
Ppp2r2d:NM_026391:4	|Sp-spec
PPP2R3C:NM_017917:2	|Classifiers
PPP2R5C:NM_002719:13	|Cons-AS
PPP2R5C:uc001ykj.3:4	|G-spec
PPP2R5E:NM_006246:3	|Cons-AS
PPP3CA:NM_000944:13	|G-spec
PPP3CB:NM_001142353:13	|Cons-AS
Ppp3cb:NM_008914:3	|Sp-spec
PPP4R1:NM_005134:4	|Sp-spec
PPP4R2:NM_174907:3	|Sp-spec
PPP6R3:NM_001031183:8	|Sp-spec
Pppde2:NM_134095:3	|Sp-spec
PPTC7:NM_139283:3	|Sp-spec
PPTC7:NM_139283:5	|Sp-spec
PPWD1:uc011cqv.1:2	|G-spec
PQLC1:ENSGALT00000020644:3	|Cons-AS
PQLC1:NM_025078:4	|Cons-AS
PQLC3:NM_152391:4	|G-spec
PQLC3:NM_152391:5	|G-spec
Prdm16:NM_027504:16	|Cons-AS
Prg4:NM_001110146:3	|G-spec
PRG4:NM_005807:3	|G-spec
PRKAA1:NM_206907:4	|G-spec
PRKAR2A:NM_004157:10	|Sp-spec
PRKDC:NM_006904:50	|G-spec
PRKDC:NM_006904:67	|G-spec
Prkdc:NM_011159:61	|G-spec
Prlr:uc007vfu.1:10	|G-spec
prmt7:NM_001017321:5	|Sp-spec
PRMT7:NM_019023:4	|Sp-spec
PRODH:NM_016335:3	|G-spec
PROM2:NM_001165977:5	|G-spec
PRPF18:NM_003675:7	|Sp-spec
prpf38a:NM_001017140:2	|Sp-spec
PRPF38B:uc001dvw.3:2	|G-spec
Prpf4b:uc007qbq.1:10	|G-spec
PRPF6:NM_012469:12	|Sp-spec
PRPS2:NM_001006264:3	|G-spec
prpsap1:ENSXETT00000049047:9	|G-spec
PRUNE:NM_021222:7	|G-spec
PSEN2:NM_204302:9	|Sp-spec
PSMA4:NM_002789:4	|G-spec
PSMA4:NM_002789:8	|Sp-spec
PSMD5:NM_001012797:8	|Sp-spec
PSMD5:NM_005047:5	|Sp-spec
PSMD6:uc003dmb.1:2	|G-spec
PSME4:NM_001006393:35	|Sp-spec
PSME4:NM_014614:27	|Sp-spec
PSME4:uc010yoq.1:20	|G-spec
PSMG1:NM_203433:2	|Sp-spec
Pstk:NM_001039534:2	|G-spec
PTBP1:NM_002819:9	|Cons-AS
Ptbp1:NM_008956:9	|Cons-AS
PTBP1:NM_031991:10	|Cons-AS
PTCD3:NM_017952:11	|Cons-AS
Ptch1:uc007qxw.1:3	|G-spec
PTGR2:NM_001146154:5	|Cons-AS
PTGR2:NM_001146154:6	|Sp-spec
Ptgr2:NM_029880:5	|Cons-AS
PTH1R:NM_000316:8	|Cons-AS
Ptk2:NM_001130409:3	|G-spec
PTK2:uc011ljq.1:21	|G-spec
PTP4A3:NM_032611:4	|Sp-spec
Ptpn12:NM_011203:2	|G-spec
Ptpn12:NM_011203:9	|Cons-AS
Ptpn1:uc008oak.1:2	|G-spec
PTPN2:NM_002828:2	|G-spec
Ptpn2:NM_008977:3	|Sp-spec
Ptpn4:NM_019933:3	|Sp-spec
PTPN9:NM_002833:11	|Sp-spec
Ptpn9:NM_019651:6	|Sp-spec
PTPRA:NM_002836:10	|G-spec
PTPRB:NM_001109754:11	|G-spec
PTPRB:NM_001109754:23	|G-spec
PTPRF:NM_002840:14	|G-spec
PTPRF:uc001cjq.3:7	|G-spec
PTPRF:uc001cju.2:14	|G-spec
Ptprk:NM_008983:16	|G-spec
PTPRK:uc003qbl.1:13	|G-spec
PTPRK:uc003qbm.3:2	|G-spec
PTPRO:NM_204122:17	|Cons-AS
Ptprs:NM_011218:3	|Sp-spec
PTPRS:NM_205407:15	|G-spec
PTPRT:ENSGALT00000005473:14	|G-spec
PTPRZ1:NM_002851:16	|G-spec
puf60:ENSXETT00000027265:3	|Cons-AS
Puf60:NM_028364:5	|Cons-AS
PUM1:NM_001012840:2	|Sp-spec
PUM1:NM_001020658:19	|Sp-spec
Pum1:NM_001159603:14	|Cons-AS
pum2:ENSXETT00000019533:13	|Cons-AS
Pum2:NR_027670:7	|Cons-AS
PUS7:NM_019042:9	|Sp-spec
pxdn:NM_001083346:4	|Cons-AS
Pxdn:NM_181395:4	|Cons-AS
PXK:uc003dka.1:18	|G-spec
PXK:uc003dkb.1:3	|G-spec
Q5F3S6_CHICK:ENSGALT00000014398:15	|G-spec
Q5F456_CHICK:ENSGALT00000003042:2	|Classifiers
Q5F461_CHICK:ENSGALT00000005210:34	|Cons-AS
Q5IHK1_CHICK:ENSGALT00000012604:12	|Sp-spec
Q5ZIM8_CHICK:ENSGALT00000040333:13	|Cons-AS
Q5ZMK8_CHICK:ENSGALT00000007036:2	|Classifiers
Q5ZMP5_CHICK:ENSGALT00000016679:5	|Cons-AS
Q6R6I2_CHICK:ENSGALT00000014471:3	|Cons-AS
Q90716_CHICK:ENSGALT00000019661:17	|Cons-AS
Q90717_CHICK:ENSGALT00000004956:23	|G-spec
Q98909_CHICK:ENSGALT00000008733:28	|Cons-AS
Q9DEH4_CHICK:ENSGALT00000020410:124	|Cons-AS
Q9IB43_CHICK:ENSGALT00000033106:9	|Cons-AS
QDPR:NM_000320:2	|G-spec
QKI:NM_206855:4	|Sp-spec
Qrsl1:NM_001081054:10	|Sp-spec
r3hdm1:ENSXETT00000041886:11	|Cons-AS
r3hdm1:ENSXETT00000041886:9	|Classifiers
R3HDM1:NM_015361:15	|Cons-AS
R3HDM1:NM_015361:20	|G-spec
R3hdm1:NM_181750:15	|Cons-AS
R3hdm2:NM_001168292:2	|G-spec
R3hdm2:NM_001168293:11	|Cons-AS
R3HDM2:NM_014925:14	|Sp-spec
R3HDM2:uc001snu.2:3	|Cons-AS
RAB11FIP1:NM_001002814:4	|G-spec
Rab11fip1:NM_001080813:4	|G-spec
RAB30:NM_014488:2	|G-spec
RAB3GAP1:NM_001172435:24	|G-spec
rab3gap2:NM_001127123:2	|G-spec
RAB3GAP2:NM_012414:27	|Sp-spec
RAB4A:NM_004578:7	|Sp-spec
RABEP1:NM_004703:16	|Sp-spec
RABGAP1L:NM_001012923:12	|Sp-spec
Rabggtb:NR_028097:3	|G-spec
RABL3:NM_173825:6	|G-spec
rabl5:NM_001011271:6	|Classifiers
RAD17:NM_002873:2	|G-spec
RAD17:NM_002873:3	|Sp-spec
RAD17:NM_133338:3	|G-spec
RAD18:NM_001030603:3	|G-spec
RAD23B:ENSGALT00000025051:4	|Sp-spec
RAD23B:ENSGALT00000025051:8	|G-spec
rad51c:NM_001016923:4	|Cons-AS
RAD51C:NM_058216:7	|G-spec
RAD52:uc001qit.1:8	|G-spec
RAI14:NM_015577:11	|G-spec
Rai1:NM_009021:2	|G-spec
Ralgapa1:NM_019994:40	|G-spec
RALGAPB:NM_020336:20	|Sp-spec
RALGAPB:NM_020336:25	|Sp-spec
RALGPS1:NM_001190730:3	|Sp-spec
Ralgps1:NM_175211:4	|Sp-spec
Ralgps2:NM_001159965:15	|Cons-AS
RALGPS2:NM_152663:15	|Cons-AS
RALY:NM_016732:5	|G-spec
RANBP3:ENSGALT00000000806:4	|G-spec
RAP1GAP:NM_001145657:20	|G-spec
RAP1GAP:NM_204843:15	|G-spec
Rapgef1:NM_001039086:13	|Cons-AS
RAPGEF2:ENSGALT00000015423:17	|G-spec
RAPGEF2:NM_014247:17	|G-spec
rars2:ENSXETT00000042857:4	|G-spec
raver2:NM_001079382:12	|G-spec
raver2:NM_001079382:13	|G-spec
RBFOX1:NM_018723:13	|Cons-AS
Rbfox2:NM_001110829:10	|G-spec
Rbfox2:NM_001110829:5	|Cons-AS
Rbl2:NM_011250:18	|Cons-AS
RBM16:NM_014892:16	|Sp-spec
RBM18:NR_027125:6	|G-spec
RBM18:NR_027126:3	|G-spec
RBM19:NM_001146698:9	|Sp-spec
RBM27:NM_018989:9	|G-spec
Rbm27:uc008ets.1:5	|G-spec
RBM34:NM_001161533:3	|G-spec
RBM39:NM_004902:5	|Cons-AS
rbm47:ENSXETT00000014488:3	|Cons-AS
Rbm47:NM_139065:5	|Cons-AS
RBM5:NM_001012780:10	|Sp-spec
RBM5:NM_005778:6	|Cons-AS
RBM6:NM_001030588:5	|G-spec
RBM6:NM_005777:3	|G-spec
RBM6:NM_005777:7	|G-spec
Rbm6:NM_011251:3	|G-spec
RBM7:NM_001006318:4	|Sp-spec
Rbpms:NM_019733:5	|Sp-spec
RBX1:NM_014248:4	|Sp-spec
RCJMB04_11i20:AJ720148:11	|Cons-AS
RCJMB04_13i12:AJ720252:2	|Sp-spec
RCJMB04_19e8:AJ720507:9	|Sp-spec
RCJMB04_38g22:AJ721132:2	|Cons-AS
RCJMB04_6a20:AJ851543:4	|Sp-spec
RCJMB04_7o17:AJ719893:16	|Cons-AS
RCL1:NM_005772:3	|Sp-spec
RDX:NM_002906:8	|Sp-spec
REEP3:NM_001001330:2	|G-spec
reep6:NM_001016051:5	|G-spec
Reep6:NM_139292:5	|G-spec
REPS1:NM_031922:10	|Cons-AS
REPS1:NM_031922:19	|Sp-spec
REPS1:NM_031922:2	|G-spec
REV1:NM_001037872:20	|Sp-spec
Rev1:NM_019570:10	|G-spec
RFC1:NM_002913:16	|Sp-spec
RFC2:NM_181471:5	|Sp-spec
RFFL:NM_001030711:3	|G-spec
rfng:ENSXETT00000042567:9	|Sp-spec
Rfng:NM_009053:5	|Sp-spec
RFWD2:NM_022457:6	|Cons-AS
RFX2:ENSGALT00000002724:6	|Cons-AS
RGP1:NM_001080496:8	|Sp-spec
Rgs12:NM_001163512:13	|Cons-AS
RGS17:NM_204841:3	|G-spec
rgs3:ENSXETT00000005330:4	|G-spec
Rgs6:NM_015812:2	|G-spec
RHBDD2:NM_001040457:2	|G-spec
Rhbdf1:NM_010117:15	|G-spec
RHOBTB1:NR_024555:11	|Sp-spec
RHOBTB1:NR_024555:5	|Sp-spec
RHOBTB3:ENSGALT00000023647:10	|Cons-AS
Rhobtb3:NM_028493:11	|Cons-AS
RHOC:NM_175744:2	|Classifiers
Rhoj:NM_023275:2	|Sp-spec
RHOT1:NM_001006208:6	|Sp-spec
RHOT1:NM_001033568:19	|G-spec
RHOT1:NM_001033568:20	|G-spec
rhot2:NM_001006724:2	|G-spec
RHOT2:NM_001080866:12	|Sp-spec
RIC3:uc010rbl.1:2	|G-spec
ric8a:NM_203828:9	|Sp-spec
RIC8B:NM_018157:4	|G-spec
RICTOR:uc003jlo.2:32	|G-spec
RIF1:NM_018151:32	|Cons-AS
rims1:NM_001102710:17	|G-spec
Rims1:NM_053270:21	|G-spec
Rims1:NM_053270:23	|Cons-AS
Rin3:NM_001161365:9	|Sp-spec
RIOK2:NM_001006581:8	|Sp-spec
RMI2_CHICK:ENSGALT00000039875:4	|G-spec
Rmnd1:uc007ehe.1:2	|G-spec
RMND5A:NM_001006463:2	|G-spec
RNASEH2B:NM_024570:4	|G-spec
Rnaseh2b:NM_026001:3	|G-spec
RNASET2:NM_003730:3	|Sp-spec
Rnf111:NM_033604:12	|Classifiers
RNF121:NM_018320:5	|Sp-spec
RNF13:NM_007282:2	|G-spec
RNF157:ENSGALT00000003128:17	|Cons-AS
RNF185:NR_024209:2	|G-spec
RNF214:NM_001077239:13	|G-spec
RNF25:NM_022453:7	|G-spec
RNF34:NM_194271:2	|G-spec
RNF38:ENSGALT00000024714:9	|Sp-spec
rnf8:NM_001142100:6	|Cons-AS
RNFT1:NM_016125:4	|Sp-spec
RNLS:uc009xtj.2:4	|G-spec
RNMTL1:NM_018146:2	|Sp-spec
RNPEP:NM_020216:5	|Sp-spec
Rnps1:NM_001080127:2	|G-spec
Rock2:uc007ncg.1:28	|G-spec
ROD1:NM_005156:2	|G-spec
rogdi:BC118838:3	|Sp-spec
Rpain:NM_027186:4	|Classifiers
Rpap1:NM_001163701:19	|Sp-spec
RPAP1:NM_015540:3	|Sp-spec
RPAP2:NM_024813:12	|G-spec
RPAP2:uc009wdh.2:12	|G-spec
RPAP3:NM_001146076:11	|G-spec
RPP30:NM_006413:8	|Sp-spec
RPRD1A:uc002kze.1:2	|G-spec
RPRD2:NM_015203:10	|Sp-spec
RPRD2:NM_015203:4	|G-spec
RPS6KA1:NM_002953:20	|Sp-spec
Rps6ka4:NM_019924:4	|Sp-spec
RPS6KB1:NM_001030721:12	|G-spec
rps6kb1:NM_001039728:4	|Sp-spec
Rps6kb2:NM_021485:6	|Sp-spec
RPS6KL1:NM_031464:6	|G-spec
Rptor:NM_028898:10	|Sp-spec
RPUSD1:NM_058192:4	|Sp-spec
RRBP1:NM_001042576:2	|G-spec
RRBP1:NM_001199440:20	|G-spec
RREB1:NM_001003699:11	|G-spec
Rrm1:NM_009103:17	|Sp-spec
RRN3:NM_018427:4	|Classifiers
Rsu1:NM_009105:3	|Cons-AS
Rsu1:NM_009105:5	|Sp-spec
RSU1:NM_012425:3	|Cons-AS
rtkn:NM_001102913:6	|Cons-AS
RUFY3:NM_001037442:13	|G-spec
RUFY3:NM_001037442:17	|G-spec
RUFY3:uc011cax.1:2	|G-spec
RUNDC3B:NM_001134405:10	|G-spec
Runx2:NM_009820:6	|Cons-AS
RWDD1:NM_016104:2	|G-spec
SAE2:NM_001030571:11	|Sp-spec
SAMD4A:NM_001161577:7	|G-spec
SAMHD1:NM_015474:14	|Sp-spec
SAMHD1:NM_015474:4	|Sp-spec
SAP130:NM_001145928:15	|Sp-spec
SAP30BP:NM_013260:3	|Cons-AS
SARS:uc001dwv.1:10	|G-spec
SASH1:NM_015278:3	|G-spec
SASH1:NM_015278:8	|Cons-AS
sbf1:NM_001123021:29	|G-spec
Sbf1:uc007xfy.1:6	|G-spec
SBNO2:ENSGALT00000004211:23	|Sp-spec
SCAMP5:NM_001178111:2	|G-spec
SCAPER:NM_020843:22	|G-spec
SCAPER:NM_020843:26	|G-spec
SCAP:NM_012235:4	|Sp-spec
SCARB1:ENSGALT00000004770:2	|Sp-spec
SCARB1:NM_005505:12	|G-spec
Scarb1:NM_016741:12	|G-spec
SCFD1:NM_182835:18	|Sp-spec
scn3b:NM_001011299:2	|Cons-AS
SCPEP1:NM_021626:10	|Sp-spec
Scrib:NM_134089:10	|Sp-spec
Scrib:NM_134089:29	|G-spec
SDCCAG8:ENSGALT00000017430:11	|Sp-spec
SDCCAG8:NM_006642:17	|G-spec
Sdk2:NM_172800:34	|G-spec
sdr16c5:NM_001004963:3	|Cons-AS
Sdsl:uc008zhf.1:2	|G-spec
SEC22C:NM_004206:6	|Sp-spec
SEC23IP:NM_007190:15	|Sp-spec
SEC24A:NM_021982:3	|G-spec
sec24b:ENSXETT00000045589:4	|Classifiers
Sec24c:NM_001168273:7	|G-spec
SEC24C:NM_004922:2	|G-spec
SEC24C:NM_198597:14	|Sp-spec
SEC24C:uc010qko.1:6	|G-spec
SEC31A:NM_001031141:17	|Sp-spec
SEC31A:NM_001077207:14	|Classifiers
Sec31a:NM_026969:23	|G-spec
SEC31A:uc003hnd.2:3	|G-spec
SEC31A:uc003hne.2:13	|G-spec
sec31b:ENSXETT00000031054:19	|G-spec
Sec31b:NM_001033343:14	|G-spec
SEC31B:NM_015490:14	|G-spec
SEL1L:NM_005065:3	|G-spec
Sel1l:NM_011344:18	|Sp-spec
SEMA6A:uc003krx.3:18	|G-spec
SEMA6D:ENSGALT00000007734:16	|Cons-AS
sema6d:NM_001126680:18	|Cons-AS
SENP6:NM_015571:19	|Sp-spec
SENP6:NM_015571:6	|G-spec
SEP15:NM_004261:4	|Sp-spec
SEPHS1:NM_012247:8	|Sp-spec
SEPT2:NM_001008491:2	|G-spec
SERPINB8:NM_002640:5	|Sp-spec
SERPINE2:NM_001083920:4	|G-spec
SERPINH1:uc009yuf.2:2	|G-spec
SETD3:NM_001006486:12	|Sp-spec
SETD5:uc003bru.2:6	|G-spec
Setx:NM_198033:25	|Sp-spec
Setx:uc008izn.1:11	|G-spec
SFRS15:NM_001012822:9	|G-spec
SFRS18:NM_032870:2	|G-spec
SFRS18:uc003ppr.2:3	|G-spec
Sft2d2:NM_145512:3	|G-spec
SFT2D2:NM_199344:5	|G-spec
SFXN5:NM_144579:11	|Sp-spec
SGCE:NM_001099400:10	|Cons-AS
Sgce:NM_001130188:2	|G-spec
SGCE:NM_003919:8	|G-spec
SGIP1:NM_032291:4	|G-spec
SGIP1:uc001dct.2:9	|G-spec
Sgip1:uc008twq.1:12	|Cons-AS
SGPL1:NM_003901:2	|G-spec
Sh2b3:uc008zkh.1:2	|G-spec
SH3D19:NM_001009555:12	|Classifiers
SH3GL1:NM_204529:9	|Sp-spec
sh3glb2:ENSXETT00000028209:11	|G-spec
SH3GLB2:uc004bww.2:11	|G-spec
sh3rf1:NM_001015973:6	|Classifiers
SHANK2:ENSGALT00000012514:9	|G-spec
SHARPIN:NM_030974:7	|G-spec
SHOC2:NM_007373:3	|Sp-spec
SHQ1:NM_018130:10	|Sp-spec
Shroom1:NM_027917:4	|G-spec
SIK3:ENSGALT00000011570:14	|Cons-AS
SIK3:NM_025164:3	|Sp-spec
Sik3:NM_027498:15	|Cons-AS
SIK3:uc001pqa.2:14	|Cons-AS
SIN3A:NM_015477:3	|G-spec
SIN3B:NM_015260:10	|G-spec
SIPA1L2:ENSGALT00000017962:18	|G-spec
Sipa1l2:NM_001081337:18	|G-spec
SIPA1L2:NM_020808:18	|G-spec
SIRT1:uc001jne.2:2	|G-spec
Slain1:FJ456861:3	|Cons-AS
SLC13A3:NM_001193342:4	|G-spec
SLC16A10:uc003put.2:2	|G-spec
SLC17A5:NM_012434:5	|Sp-spec
SLC23A2:NM_005116:3	|G-spec
Slc24a2:NM_001110240:2	|G-spec
SLC24A2:NM_020344:5	|Cons-AS
SLC24A4:uc010auj.2:14	|G-spec
SLC24A6:NM_024959:7	|Sp-spec
SLC25A12:ENSGALT00000015535:11	|Sp-spec
Slc25a25:NM_001164358:4	|G-spec
slc25a26:NM_001004820:7	|Cons-AS
SLC25A30:ENSGALT00000027432:6	|Sp-spec
SLC25A30:NM_001010875:3	|Sp-spec
slc25a30:NM_001172275:4	|Sp-spec
SLC25A32:NM_030780:6	|Sp-spec
Slc25a46:NM_026165:5	|Cons-AS
Slc25a46:NM_026165:6	|Sp-spec
SLC30A5:NM_022902:15	|Sp-spec
Slc30a9:NM_178651:11	|Sp-spec
SLC33A1:NM_001190992:3	|Sp-spec
slc35b1:NM_204087:2	|Sp-spec
SLC35B2:NM_178148:3	|Sp-spec
SLC35B3:NM_001142540:8	|Sp-spec
Slc35b3:NM_001170431:4	|Cons-AS
Slc35b3:NM_001170431:5	|Sp-spec
Slc35c2:NM_144893:8	|Sp-spec
SLC35E3:NM_018656:2	|Sp-spec
Slc37a3:NM_028123:5	|G-spec
SLC37A4:NM_001164277:7	|Sp-spec
SLC38A10:NM_001037984:9	|Sp-spec
Slc38a10:NM_024249:15	|G-spec
SLC38A6:NM_153811:13	|Sp-spec
SLC38A6:uc001xfi.2:4	|G-spec
Slc39a11:uc007mek.1:5	|G-spec
SLC39A12:ENSGALT00000014008:10	|G-spec
Slc39a13:NM_026721:5	|G-spec
SLC39A9:NM_018375:3	|Sp-spec
SLC39A9:NM_018375:4	|Sp-spec
Slc4a10:NM_033552:25	|G-spec
SLC4A3:NM_005070:5	|G-spec
SLC5A10:uc002gur.1:11	|G-spec
SLC6A6:NM_001030600:9	|Cons-AS
SLC6A9:NM_201649:2	|G-spec
SLC7A10:ENSGALT00000007532:8	|Sp-spec
SLC9A7:NM_032591:13	|Cons-AS
SLC9A8:NM_001039275:15	|Sp-spec
Slc9a8:NM_148929:7	|Cons-AS
Slco4a1:uc008ojd.1:4	|G-spec
SLMAP:NM_007159:15	|G-spec
SLMAP:NM_007159:8	|Sp-spec
Slmap:NM_032008:11	|Classifiers
SLMAP:uc003djc.1:11	|Classifiers
Slu7:NM_148673:2	|G-spec
SMAD1:NM_005900:4	|Cons-AS
Smad2:NM_010754:3	|Cons-AS
SMAD3:NM_001145102:3	|Sp-spec
smarcad1:NM_001015697:13	|Sp-spec
SMARCD1:NM_003076:11	|Sp-spec
SMARCD1:NM_003076:5	|Classifiers
smarce1:NM_001005436:6	|Cons-AS
SMC6:NM_001142286:2	|G-spec
SMC6:NM_024624:24	|Sp-spec
SMCR7L:uc010gxz.1:3	|G-spec
SMG5:NM_015327:11	|Sp-spec
SMG7:NM_001174061:17	|G-spec
SMG7:uc010pob.1:2	|G-spec
SMPD2:NM_003080:6	|Sp-spec
Smpx:NM_025357:5	|G-spec
SMYD2:NM_020197:2	|Sp-spec
SMYD5:NM_001012894:9	|G-spec
Snap91:NM_013669:17	|G-spec
Snapc4:NR_033572:21	|G-spec
Snapc4:NR_033572:3	|G-spec
Sncaip:uc008exn.1:11	|G-spec
SNRK:NM_001100594:5	|Sp-spec
SNRPN:uc001yws.1:3	|G-spec
SNW1:NM_012245:12	|Sp-spec
SNX10:uc011jzg.1:3	|G-spec
SNX13:NM_001109755:21	|Cons-AS
SNX13:NM_015132:21	|Cons-AS
SNX14:NM_001039289:26	|Sp-spec
SNX14:NM_153816:16	|Cons-AS
SNX17:uc002rkh.1:4	|G-spec
SNX21:NM_001042633:4	|G-spec
snx5:NM_001016081:8	|Sp-spec
SNX6:uc010tpm.1:6	|G-spec
SNX7:NM_015976:8	|Cons-AS
SNX7:NR_033716:2	|G-spec
SOBP:NM_018013:5	|Cons-AS
Sobp:NM_175407:5	|Cons-AS
Sobp:NM_175407:6	|Cons-AS
SOCS4:NM_199421:2	|G-spec
Socs5:NM_019654:2	|G-spec
SOCS7:NM_014598:4	|Cons-AS
sorbs1:ENSXETT00000019382:16	|Cons-AS
sorbs1:ENSXETT00000019388:20	|G-spec
sorbs1:ENSXETT00000019389:2	|Cons-AS
SORBS1:NM_001034954:13	|G-spec
SORBS1:NM_001034954:18	|Cons-AS
SORBS1:NM_001034954:7	|Cons-AS
Sorbs1:NM_001034962:4	|G-spec
Sorbs1:NM_009166:9	|Cons-AS
SORBS1:NM_024991:5	|G-spec
Sorbs1:NM_178362:7	|Cons-AS
Sorbs1:uc008hkr.1:6	|G-spec
SORBS2:NM_001145674:7	|G-spec
Sorbs2:NM_172752:13	|G-spec
SOS1:NM_005633:15	|Sp-spec
SOX5:NM_001004385:3	|G-spec
SOX5:uc001rfy.2:5	|G-spec
SP2:NM_003110:3	|Sp-spec
SPAST:NM_001031061:5	|Cons-AS
SPAST:NM_014946:4	|Cons-AS
SPATA5:ENSGALT00000019309:4	|G-spec
SPECC1L:NM_015330:2	|G-spec
Spen:NM_019763:9	|Cons-AS
SPG11:NM_001160227:17	|G-spec
SPG11:NM_001160227:20	|G-spec
SPG11:NM_001160227:22	|G-spec
SPG21:NM_001127889:4	|Sp-spec
Spg7:NM_153176:15	|Sp-spec
SPHKAP:NM_001142644:9	|G-spec
SPINZ:NM_204633:2	|Cons-AS
SPIRE1:ENSXETT00000042585:6	|Cons-AS
SPIRE1:NM_001128626:9	|Cons-AS
Spire1:NM_194355:10	|G-spec
SPPL2A:NM_032802:14	|Sp-spec
SPTAN1:NM_001042538:23	|Cons-AS
SPTAN1:NM_001042538:51	|Cons-AS
SPTAN1:NM_001130438:23	|Cons-AS
Sptlc2:NM_011479:2	|Sp-spec
Sqrdl:NM_021507:3	|Sp-spec
SR140:NM_001080415:13	|Cons-AS
SRC8_CHICK:ENSGALT00000032666:8	|Classifiers
src:ENSXETT00000037722:3	|G-spec
srcin1:NM_001128039:18	|G-spec
SRD5A3:NM_024592:3	|Sp-spec
SRD5A3:NM_024592:4	|Sp-spec
Srek1ip1:NM_026075:3	|Sp-spec
SREK1IP1:NM_173829:2	|Cons-AS
SRF:NM_003131:5	|Cons-AS
SRGAP3:NM_014850:21	|Cons-AS
SRM:ENSGALT00000004808:4	|Cons-AS
SRM:NM_003132:6	|Cons-AS
SRPK1:NR_034069:13	|Sp-spec
SRPK2:uc003vcs.1:4	|G-spec
Srrm1:NM_001130477:6	|Sp-spec
Srr:NM_013761:2	|G-spec
SS18:NM_001007559:8	|Cons-AS
SSBP2:NM_012446:5	|G-spec
Ssbp2:NM_024272:5	|G-spec
ssr1:BC136232:8	|G-spec
Ssr1:uc007qdc.1:8	|G-spec
St3gal1:uc007wbb.1:2	|G-spec
ST3GAL6:NM_006100:6	|G-spec
ST5:NM_213618:2	|G-spec
ST5:NM_213618:3	|G-spec
ST6GAL1:NM_173216:2	|G-spec
ST6GALNAC2:NM_205233:6	|Sp-spec
ST7L:NM_017744:12	|Sp-spec
St7l:NM_153091:7	|Sp-spec
ST7L:uc001ecg.2:16	|G-spec
ST7:NM_021908:7	|G-spec
STAB1:ENSGALT00000002333:54	|Sp-spec
STAG1:ENSGALT00000001949:31	|Cons-AS
STARD10:NM_006645:5	|Cons-AS
STARD3NL:uc003tfs.2:2	|G-spec
STARD3:NM_006804:5	|Sp-spec
STARD3:NM_006804:7	|Sp-spec
STAT1:NM_139266:2	|G-spec
STAT2:NM_005419:9	|Sp-spec
STAU1:NM_001012831:15	|G-spec
STAU1:NM_001012831:7	|Sp-spec
STAU1:NM_017453:2	|G-spec
stau2:NM_001011376:5	|G-spec
STAU2:NM_001030941:5	|Sp-spec
STAU2:NM_001164382:12	|G-spec
STAU2:NM_001164384:6	|Sp-spec
stim1:NM_205828:8	|Sp-spec
Stk16:NM_011494:6	|Cons-AS
STK16:NR_026909:6	|Cons-AS
STK24:NM_001030817:3	|G-spec
stk39:NM_001001224:14	|Sp-spec
STK39:NM_013233:13	|G-spec
Stk39:NM_016866:13	|G-spec
STK3:NM_006281:8	|Sp-spec
STK40:NM_032017:2	|G-spec
STK4:NM_001030853:10	|Sp-spec
STMN4:uc011lai.1:7	|G-spec
STOML1:NM_004809:6	|G-spec
Stoml1:NM_026942:6	|G-spec
Stoml1:NR_028146:3	|G-spec
STOX2:uc003iwa.1:2	|G-spec
STRBP:NM_001030680:7	|Cons-AS
STX12:NM_177424:5	|Sp-spec
Stx16:NM_001102423:4	|Classifiers
Stx18:NM_026959:4	|Sp-spec
STX8:NM_004853:7	|G-spec
stxbp1:NM_001079053:19	|G-spec
Stxbp1:NM_001113569:19	|G-spec
STXBP1:NM_003165:19	|G-spec
STXBP3:NM_007269:18	|Sp-spec
STYXL1:NM_016086:4	|G-spec
STYXL1:NM_016086:8	|G-spec
SUFU:NM_204264:11	|G-spec
SULF2:ENSGALT00000007309:19	|Cons-AS
SULF2:NM_018837:20	|Cons-AS
SUN1:NM_001171945:2	|G-spec
Sun1:NM_024451:7	|G-spec
SUPT3H:NM_181356:10	|Sp-spec
SUPT6H:uc010crt.2:2	|G-spec
SUPV3L1:NM_003171:8	|Sp-spec
SURF1:NM_003172:5	|G-spec
Suv420h1:NM_001167884:9	|G-spec
SVIL:ENSGALT00000011863:30	|Sp-spec
svil:ENSXETT00000005713:9	|G-spec
SVIL:NM_021738:9	|G-spec
Svil:NM_153153:10	|G-spec
Svil:NM_153153:6	|G-spec
syne1:NM_001127037:15	|Cons-AS
Syne1:NM_022027:16	|Cons-AS
SYNE1:NM_033071:6	|G-spec
SYNE1:NM_133650:10	|G-spec
SYNE1:NM_182961:23	|G-spec
SYNE1:NM_182961:93	|G-spec
Syne1:uc007egt.1:9	|G-spec
SYNJ1:NM_001160306:4	|Sp-spec
SYNJ1:NM_203446:32	|G-spec
Synj2:NM_011523:22	|Cons-AS
sytl2:NM_001007878:12	|Cons-AS
Sytl2:NM_001040087:3	|Cons-AS
SYTL2:NM_001162953:11	|Cons-AS
TAB3:NM_152787:10	|G-spec
TAB3:NM_152787:9	|Sp-spec
Tacc1:NM_177089:3	|G-spec
tacc2:ENSXETT00000034006:3	|Cons-AS
TACC2:NM_206862:7	|G-spec
Taf1b:NM_020614:4	|G-spec
Taf1d:NR_028401:7	|G-spec
TAF8:NM_001030923:5	|Sp-spec
TAF9B:NM_015975:6	|Sp-spec
TANC1:NM_033394:25	|Sp-spec
TANC1:NM_033394:8	|Sp-spec
Tanc2:NM_181071:25	|Cons-AS
TANC2:uc002jao.3:8	|G-spec
TANK:NM_004180:7	|G-spec
TAOK3:NM_001012523:13	|Sp-spec
Tapt1:NM_173764:11	|Sp-spec
TARBP1:NM_005646:13	|G-spec
TARBP1:NM_005646:19	|Sp-spec
TARBP1:NM_005646:28	|Sp-spec
tardbp:NM_203723:5	|Classifiers
TARS2:NM_025150:9	|Sp-spec
TASP1:NM_017714:6	|Sp-spec
Tatdn1:NM_175151:7	|Sp-spec
TATDN3:NM_001146170:7	|Cons-AS
Tatdn3:NM_001163421:8	|Cons-AS
tax1bp1:NM_203916:2	|Sp-spec
TBC1D13:NM_018201:3	|Cons-AS
Tbc1d13:uc008jbi.1:3	|G-spec
TBC1D14:uc011bwh.1:5	|G-spec
Tbc1d16:NM_172443:8	|Sp-spec
Tbc1d19:NM_144517:8	|Cons-AS
TBC1D1:NM_015173:8	|Sp-spec
TBC1D1:uc011byd.1:12	|G-spec
TBC1D1:uc011byd.1:13	|G-spec
TBC1D22B:NM_017772:11	|Sp-spec
Tbc1d22b:NM_198647:2	|Cons-AS
TBC1D23:uc003dtt.2:15	|G-spec
TBC1D4:NM_014832:12	|G-spec
TBC1D5:NM_001134381:19	|G-spec
TBC1D5:NM_001134381:5	|G-spec
Tbc1d5:NM_028162:9	|Sp-spec
Tbc1d5:uc008cyz.1:18	|G-spec
TBC1D7:NM_001143964:3	|Classifiers
TBC1D7:NM_001143964:5	|Sp-spec
tbc1d9b:NM_001113841:19	|G-spec
Tbc1d9b:NM_029745:19	|G-spec
TBC1D9B:NM_198868:19	|G-spec
TBCCD1:NM_018138:6	|Sp-spec
TBCD:NM_005993:34	|Sp-spec
Tbcel:NM_173038:4	|Cons-AS
TBCE:NM_003193:3	|Cons-AS
Tbce:NM_178337:13	|Sp-spec
Tbce:NM_178337:3	|Cons-AS
tbck:NM_001102743:3	|G-spec
tbk1:NM_001142180:2	|G-spec
TBL1XR1:NM_024665:3	|Cons-AS
Tbp:uc008aon.1:2	|G-spec
Tbp:uc008aop.1:3	|G-spec
TBX15:uc009whj.1:2	|G-spec
TCERG1:NM_001040006:17	|Sp-spec
Tcerg1:uc008ety.1:22	|G-spec
Tcf12:NM_011544:4	|G-spec
TCF25:NM_014972:5	|Sp-spec
Tcf25:NM_025804:3	|Sp-spec
Tcf3:NM_001164147:18	|G-spec
Tcf3:NM_001164150:18	|Sp-spec
TCF3:NM_204486:2	|G-spec
Tcf7l2:NM_001142918:3	|Sp-spec
Tcf7l2:NM_001142920:4	|G-spec
TCF7L2:NM_001198526:12	|G-spec
TCF7L2:NM_001198528:14	|G-spec
TCF7L2:NM_001198531:4	|G-spec
TCOF1:NM_000356:19	|G-spec
TCOF1:NM_001008657:7	|G-spec
Tcof1:uc008fbc.1:17	|G-spec
TCP11L1:uc009yju.2:4	|G-spec
TCTN1:NM_001173976:7	|Sp-spec
TCTN2:NM_024809:10	|G-spec
TCTN3:NM_001143973:9	|G-spec
TDP1:NM_018319:2	|G-spec
TDRKH:NM_001083964:12	|G-spec
TECPR2:NM_014844:8	|G-spec
TELO2:ENSGALT00000015124:15	|Sp-spec
TET2:NM_017628:2	|G-spec
TFAM:NM_003201:5	|Sp-spec
TFDP2:NM_001184713:2	|G-spec
Tfdp2:NM_178667:4	|G-spec
Tgfb2:uc007dzp.1:2	|G-spec
TGFBI:uc003lbg.3:6	|G-spec
TH1L:NM_198976:3	|G-spec
THOC5:uc003afv.1:10	|G-spec
THRAP3:uc001caf.3:2	|G-spec
THUMPD2:NR_028102:9	|G-spec
THYN1:NM_199298:7	|Classifiers
Tia1:NM_011585:5	|G-spec
TIA1:NM_022173:5	|G-spec
TIAL1:uc001lek.1:6	|G-spec
Tial1:uc009jyz.1:2	|G-spec
TIAM1:NM_003253:11	|G-spec
TIAM1:NM_003253:4	|G-spec
Timm22:NM_019818:2	|Sp-spec
TIMP4:ENSGALT00000007969:5	|Sp-spec
Tipin:NM_025372:6	|Cons-AS
TJAP1:NR_027394:7	|G-spec
Tjap1:uc008csi.1:3	|G-spec
tjp1:ENSXETT00000043792:12	|Sp-spec
TJP2:NM_004817:20	|G-spec
TLE4:uc004ald.2:12	|G-spec
TLK1:NM_012290:11	|G-spec
TLK1:uc002ugq.2:13	|G-spec
TLN2:NM_015059:49	|Sp-spec
Tm7sf2:NM_028454:8	|Cons-AS
TM9SF2:ENSGALT00000027267:12	|Sp-spec
TM9SF3:NM_020123:5	|Sp-spec
TMC6:NM_007267:16	|G-spec
TMCO3:NM_017905:11	|Sp-spec
TMEM104:NM_017728:3	|Sp-spec
TMEM106B:NM_018374:2	|G-spec
TMEM120B:NM_001080825:2	|Sp-spec
TMEM129:NM_001127266:3	|Classifiers
TMEM131:NM_015348:33	|Sp-spec
TMEM135:ENSGALT00000027871:2	|Sp-spec
TMEM141:NM_032928:2	|G-spec
Tmem161a:NM_145597:2	|Cons-AS
TMEM161B:NM_153354:11	|Sp-spec
tmem164:NM_001079093:4	|Sp-spec
TMEM168:uc010lju.2:2	|G-spec
TMEM184B:NM_001195071:3	|Sp-spec
TMEM184C:NM_018241:8	|G-spec
TMEM185A:NM_032508:2	|Sp-spec
TMEM188:NM_001198857:2	|Sp-spec
TMEM188:NM_153261:4	|Cons-AS
TMEM206:NM_018252:3	|Sp-spec
TMEM206:uc010pte.1:2	|G-spec
TMEM209:NM_032842:13	|Sp-spec
TMEM214:NM_001083590:13	|Sp-spec
Tmem33:NM_028975:6	|Sp-spec
tmem38b:NM_001016127:3	|Cons-AS
Tmem39b:uc008uyb.1:4	|G-spec
TMEM50A:NM_014313:5	|Sp-spec
TMEM52:NM_178545:3	|G-spec
TMEM5:uc001srr.1:3	|G-spec
TMEM62:NM_024956:12	|Sp-spec
TMEM63B:ENSGALT00000016725:4	|Cons-AS
TMEM63B:NM_018426:4	|Cons-AS
TMEM64:NM_001008495:2	|Sp-spec
Tmem82:NM_145987:2	|G-spec
Tmem8:NM_021793:11	|Sp-spec
Tmf1:NM_001081111:9	|Sp-spec
TMIGD1:ENSGALT00000006778:5	|G-spec
Tmlhe:NM_138758:6	|Sp-spec
tmpo:NM_203608:7	|Cons-AS
TMTC1:ENSGALT00000021134:9	|Cons-AS
TMTC1:NM_001193451:7	|Cons-AS
TMTC1:NM_001193451:8	|Cons-AS
Tmtc1:NM_198967:10	|Cons-AS
Tmtc4:NM_028651:5	|Sp-spec
TMTC4:NM_032813:2	|G-spec
TNIK:ENSGALT00000015126:12	|G-spec
TNIK:NM_015028:14	|G-spec
TNIK:NM_015028:21	|G-spec
Tnip1:NM_021327:2	|G-spec
Tnnt2:NM_001130179:4	|G-spec
TNPO3:NM_012470:5	|Sp-spec
TNRC18:NM_001080495:14	|Classifiers
Tnrc18:NM_178242:13	|Classifiers
TNRC6C:ENSGALT00000002646:10	|Sp-spec
TNRC6C:ENSGALT00000039190:15	|G-spec
TNRC6C:NM_001142640:18	|G-spec
TNS1:NM_022648:21	|G-spec
TNS1:NM_205455:3	|G-spec
TOM1L1:NM_005486:14	|G-spec
TOM1L2:uc010vwy.1:12	|G-spec
TOP1MT:NM_001001300:3	|G-spec
TOP2B:NM_205082:33	|G-spec
TOP3B:NM_003935:16	|Sp-spec
TOP3B:NM_003935:6	|Sp-spec
TP53I11:NM_006034:5	|Sp-spec
TPCN1:ENSGALT00000013608:24	|G-spec
TPCN1:NM_001143819:2	|G-spec
TPCN1:NM_017901:17	|G-spec
Tpcn1:NM_145853:24	|G-spec
Tpk1:NM_013861:5	|G-spec
Tpk1:NM_013861:8	|G-spec
TPK1:NM_022445:7	|Sp-spec
TPMT:NM_000367:7	|G-spec
TPP2:NM_003291:10	|Sp-spec
TPPP3:NM_016140:2	|G-spec
Tprkb:NM_001170488:2	|G-spec
Tprkb:uc009cqo.1:2	|G-spec
TRA2A:uc011jzb.1:2	|G-spec
TRA2B:NM_004593:2	|Cons-AS
TRAF2:NM_021138:10	|Sp-spec
Traf7:NM_153792:4	|Sp-spec
TRAPPC8:NM_014939:28	|Sp-spec
TRAPPC9:ENSGALT00000026098:4	|Cons-AS
TRAPPC9:NM_001160372:9	|Sp-spec
trim32:NM_001102923:2	|G-spec
trim33:NM_001079564:19	|G-spec
TRIM33:NM_015906:19	|G-spec
Trim33:NM_053170:19	|G-spec
Trim37:NM_197987:20	|Cons-AS
Trim55:NM_001081281:9	|G-spec
TRIM55:NM_184085:9	|G-spec
TRIM8:NM_030912:2	|Sp-spec
TRIP10:NM_004240:3	|Cons-AS
TRIP12:ENSGALT00000004623:35	|Sp-spec
TRIP12:ENSGALT00000004623:42	|Sp-spec
TRIP12:ENSGALT00000004623:9	|Sp-spec
TRIP12:NM_004238:3	|Cons-AS
TRIP12:NM_004238:37	|Sp-spec
Trip12:NM_133975:3	|Cons-AS
Trip12:NM_133975:6	|Sp-spec
TRIP4:NM_016213:6	|Sp-spec
Trit1:NM_025873:9	|Sp-spec
TRMT2B:NM_001167970:5	|G-spec
TRMT2B:NM_024917:2	|G-spec
TRMU:NM_018006:3	|Cons-AS
Trmu:NM_028063:3	|Cons-AS
TRPM3:ENSGALT00000024411:15	|G-spec
TRPM3:NM_206945:13	|G-spec
TRPM3:NM_206947:7	|G-spec
TRPM6:uc010mpb.1:37	|G-spec
TRRAP:NM_003496:16	|G-spec
TRRAP:uc003upp.2:32	|G-spec
Trub2:NM_145520:4	|Sp-spec
TSC22D2:NM_014779:2	|G-spec
Tsc2:uc008axb.1:32	|Cons-AS
TSEN54:ENSGALT00000013049:10	|Sp-spec
Tspan3:NM_019793:6	|Sp-spec
TSTA3:NM_003313:5	|Sp-spec
TTC12:NM_017868:16	|G-spec
TTC12:uc001pnx.2:8	|G-spec
Ttc13:uc009nxj.1:5	|G-spec
Ttc19:NM_028360:4	|G-spec
TTC27:NM_001193509:14	|Sp-spec
Ttc33:NM_026213:3	|G-spec
TTC35:NM_001198680:6	|Sp-spec
TTC35:NM_014673:10	|Sp-spec
Ttc38:NM_001033337:10	|Sp-spec
TTC7A:uc002rvn.1:4	|G-spec
TTC7A:uc002rvp.2:2	|G-spec
ttc8:CR855503:8	|Sp-spec
Tubd1:uc007ksr.1:6	|G-spec
tubgcp2:ENSXETT00000001760:8	|Sp-spec
TUBGCP2:NM_006659:16	|G-spec
Tubgcp4:NM_153387:11	|Sp-spec
TUBGCP5:ENSGALT00000027007:18	|Sp-spec
TUBGCP5:NM_052903:9	|Sp-spec
TUSC3:NM_006765:10	|G-spec
Twsg1:NM_023053:3	|Cons-AS
TXNDC11:ENSGALT00000004992:4	|Cons-AS
Txndc11:NM_029582:2	|G-spec
TXNL1:NR_024546:3	|G-spec
TXNL4A:uc002lnr.2:3	|G-spec
Tyk2:NM_018793:14	|Sp-spec
TYW1:ENSGALT00000001666:13	|Sp-spec
U14555:U14555:7	|Cons-AS
U2AF1:AJ291765:3	|G-spec
U2af1:NM_001163769:3	|G-spec
UACA:NM_018003:12	|Cons-AS
UACA:NM_018003:8	|Sp-spec
uap1:NM_001011142:8	|G-spec
Uba2:NM_016682:8	|Sp-spec
UBAP1:NM_001171204:4	|Cons-AS
UBAP2L:NM_001127320:23	|Sp-spec
UBAP2:NM_018449:11	|Sp-spec
Ubap2:NM_026872:12	|Cons-AS
UBE2B:NM_003337:4	|Sp-spec
ube2f:NM_001011221:7	|Cons-AS
UBE2I:NM_194259:2	|G-spec
Ube2j1:NM_019586:7	|G-spec
UBE2J2:uc001ads.2:4	|G-spec
UBE2K:NM_001111113:4	|Sp-spec
UBE2W:NM_018299:3	|Sp-spec
ube3a:NM_001001213:2	|Sp-spec
UBE3A:NM_130839:3	|G-spec
Ube3b:NM_054093:2	|G-spec
UBE3B:uc001too.1:20	|G-spec
UBE3C:NM_014671:18	|Sp-spec
Ube4a:NM_145400:2	|G-spec
UBFD1:NM_019116:6	|Sp-spec
UBN1:NM_001079514:12	|Cons-AS
UBN1:NM_001079514:17	|Cons-AS
UBN1:NM_001079718:11	|Sp-spec
Ubn1:NM_026666:2	|G-spec
UBOX5:NM_014948:4	|Classifiers
Ubr1:NM_009461:45	|Sp-spec
Ubr4:NM_001160319:58	|Cons-AS
Ubr4:NM_001160319:70	|Sp-spec
UBR4:NM_020765:58	|Cons-AS
UBR4:NM_020765:94	|Sp-spec
UBR7:NM_001100417:3	|Sp-spec
UBR7:NM_001100417:7	|Sp-spec
UBXN4:NM_014607:6	|G-spec
UCHL5:uc001gsn.2:11	|G-spec
UCK1:uc004caz.2:6	|G-spec
UGGT2:NM_020121:32	|G-spec
UHRF2:uc003zjz.2:10	|G-spec
UNC13B:uc003zwr.2:37	|Cons-AS
Unc93b1:NM_019449:4	|Sp-spec
unk:NM_001032343:2	|G-spec
UQCC:NM_001006285:6	|Sp-spec
UQCC:NM_199487:3	|G-spec
Urb1:NM_029497:21	|Sp-spec
UROS:NM_000375:7	|G-spec
Uso1:NM_019490:21	|Sp-spec
USO1:uc003hiv.2:12	|G-spec
USP10:NM_005153:3	|G-spec
Usp14:NM_021522:4	|Cons-AS
USP16:NM_001032410:2	|G-spec
Usp16:NM_024258:10	|Sp-spec
Usp16:NM_024258:3	|Sp-spec
USP19:uc003cvz.3:6	|G-spec
USP20:ENSGALT00000006585:19	|Sp-spec
usp25:ENSXETT00000050040:19	|Cons-AS
USP28:NM_020886:13	|G-spec
Usp28:NM_175482:13	|G-spec
Usp28:uc009pit.1:9	|G-spec
USP34:NM_001199416:54	|Sp-spec
USP34:NM_001199416:74	|Sp-spec
USP34:NM_014709:55	|Sp-spec
USP3:uc002amg.2:3	|G-spec
USP48:NM_001079743:6	|Sp-spec
USP48:NM_032236:23	|Sp-spec
Usp48:NM_130879:20	|G-spec
USP4:NM_003363:7	|Classifiers
Usp4:NM_011678:7	|Cons-AS
USP53:NM_019050:2	|G-spec
USP53:uc003icr.3:4	|G-spec
USP53:uc003icu.3:9	|G-spec
USP54:NM_152586:20	|G-spec
Ust:NM_177387:2	|G-spec
UTP6:NM_001006207:6	|Sp-spec
UTP6:NM_018428:12	|Sp-spec
UTP6:NM_018428:18	|Sp-spec
UTRN:ENSGALT00000020016:76	|Cons-AS
UTRN:ENSGALT00000020016:78	|Sp-spec
UTRN:NM_007124:71	|G-spec
UXS1:ENSGALT00000027123:2	|G-spec
uxs1:NM_001006848:7	|Sp-spec
UXS1:NM_025076:14	|Sp-spec
VAV2:NM_001134398:28	|G-spec
Vegfa:NM_001110266:3	|G-spec
VEGFA:NM_001171624:6	|G-spec
VEGFA:NM_205042:6	|G-spec
VEZF1:NM_001037827:5	|G-spec
VIPAR:NM_022067:5	|Sp-spec
VLDLR:NM_003383:16	|G-spec
Vldlr:NM_013703:16	|G-spec
VPS13C:NM_020821:41	|G-spec
VPS13C:NM_020821:68	|Sp-spec
VPS26A:NM_001035260:3	|Cons-AS
VPS36:ENSGALT00000027510:3	|Sp-spec
VPS37A:NM_152415:3	|Sp-spec
VPS39:uc001zpd.2:3	|G-spec
VPS45:uc010pbp.1:12	|G-spec
VPS53:NM_001012806:14	|Sp-spec
VPS53:NM_001128159:5	|Sp-spec
VPS53:uc002frk.2:7	|G-spec
VPS54:NM_016516:9	|G-spec
VRK2:NM_001130483:13	|G-spec
VRK2:uc002rzr.2:13	|G-spec
vrk3:NM_001044457:4	|G-spec
VRK3:NM_016440:4	|G-spec
VRK3:NM_016440:7	|Sp-spec
VTA1:NM_016485:7	|Cons-AS
Wac:NM_153085:7	|Cons-AS
Wapal:NM_001004436:6	|Cons-AS
WARS:uc001yhg.1:2	|G-spec
WASF1:NM_003931:2	|G-spec
WASF1:uc003ptz.1:2	|G-spec
wbscr16:NM_001007509:10	|Sp-spec
wbscr16:NM_001007509:5	|Sp-spec
WBSCR22:NM_001039332:8	|Sp-spec
WBSCR22:NM_017528:10	|Sp-spec
WDFY1:NM_020830:10	|Sp-spec
WDFY3:ENSGALT00000018367:42	|G-spec
WDFY3:NM_014991:45	|G-spec
WDR11:NM_018117:19	|Sp-spec
WDR11:NM_018117:9	|Sp-spec
WDR18:NM_024100:9	|G-spec
WDR24:NM_032259:4	|Sp-spec
Wdr34:NM_001008498:5	|Sp-spec
Wdr35:NM_172470:11	|G-spec
WDR36:NM_139281:21	|Sp-spec
WDR44:NM_001184965:16	|Sp-spec
WDR45L:NM_001007844:2	|Sp-spec
WDR75:NM_032168:12	|Sp-spec
WDR7:NM_015285:17	|Cons-AS
WDR90:ENSGALT00000003994:36	|G-spec
WDR91:NM_014149:13	|Sp-spec
WDSUB1:NM_001031263:7	|G-spec
wdtc1:ENSXETT00000044667:9	|Sp-spec
Wdtc1:NM_199306:7	|Sp-spec
whamm:ENSXETT00000035104:3	|Sp-spec
Whrn:NM_001008791:8	|G-spec
WHSC1L1:ENSXETT00000054751:4	|Sp-spec
WIPF2:NM_133264:3	|Sp-spec
WIZ:uc002nbc.2:3	|G-spec
WNK1:ENSGALT00000021209:12	|G-spec
wnk1:NM_001097234:19	|Cons-AS
WNK1:NM_001184985:12	|G-spec
WNK1:NM_018979:11	|G-spec
Wnk1:NM_198703:12	|G-spec
WSCD2:uc001tmu.2:5	|G-spec
WWP2:NM_199423:2	|G-spec
XPNPEP3:uc003azi.2:3	|G-spec
Xpnpep3:uc007wwn.1:3	|G-spec
XPO6:NM_015171:5	|Sp-spec
XPO7:NM_001012942:22	|Sp-spec
XPR1:NM_004736:11	|Classifiers
Xpr1:NM_011273:12	|Sp-spec
xrcc6:NM_001005700:7	|Sp-spec
XRRA1:NM_182969:3	|G-spec
Yaf2:NR_028315:3	|G-spec
YAF2:NR_034000:3	|G-spec
YARS:NM_003680:2	|Sp-spec
ydjc:NM_001004876:5	|Cons-AS
YEATS2:ENSGALT00000003620:23	|G-spec
YEATS4:NM_001079503:5	|Sp-spec
Yes1:NM_009535:9	|Sp-spec
YIPF1:NR_036639:2	|G-spec
YIPF4:NM_001031058:4	|Cons-AS
YIPF4:NM_032312:4	|Cons-AS
ylpm1:ENSXETT00000029061:20	|Sp-spec
Ylpm1:NM_178363:8	|Cons-AS
YPEL5:NM_001127401:3	|G-spec
Yy1:NM_009537:3	|Sp-spec
ZBTB17:NM_003443:10	|Cons-AS
ZBTB37:ENSGALT00000007316:2	|Cons-AS
ZC3H15:NM_018471:7	|Sp-spec
ZC3H7B:NM_017590:5	|Sp-spec
ZC3H7B:NM_017590:7	|Sp-spec
ZCCHC11:NM_015269:20	|Sp-spec
Zcchc17:NM_153160:3	|Classifiers
ZCCHC2:NM_017742:6	|Sp-spec
Zcchc4:NM_030185:2	|Cons-AS
Zcchc6:NM_153538:27	|G-spec
zcrb1:NM_001114501:4	|Sp-spec
ZDHHC16:ENSGALT00000012277:8	|Sp-spec
zdhhc16:NM_001126778:7	|G-spec
ZDHHC16:NM_198044:6	|G-spec
ZDHHC16:NM_198046:2	|G-spec
Zdhhc16:uc008hmu.1:3	|G-spec
ZDHHC21:NM_178566:3	|G-spec
ZDHHC3:NM_001135179:3	|Cons-AS
ZDHHC4:NM_001134388:2	|G-spec
ZDHHC4:NM_001134389:3	|G-spec
ZDHHC5:NM_015457:10	|Sp-spec
ZDHHC8:NM_001038691:7	|G-spec
zeb1:ENSXETT00000025489:2	|G-spec
ZEB2:NM_014795:4	|Sp-spec
ZER1:NM_006336:13	|Sp-spec
ZFAND1:NR_033193:6	|G-spec
ZFAND3:NM_021943:4	|Cons-AS
Zfand3:NM_148926:2	|G-spec
ZFAND6:NM_019006:2	|G-spec
Zfand6:NM_022985:2	|G-spec
Zfand6:NM_022985:6	|G-spec
ZFP106:NM_022473:18	|Sp-spec
Zfp148:NM_011749:6	|Cons-AS
Zfp236:uc008fua.1:2	|G-spec
Zfp346:NM_012017:4	|Sp-spec
Zfp384:uc009dtb.1:3	|G-spec
Zfp385b:NM_001113400:4	|G-spec
Zfp639:NM_001161818:4	|Sp-spec
Zfpm1:NM_009569:9	|Sp-spec
Zfpm2:NM_011766:2	|G-spec
ZFPM2:NM_012082:2	|G-spec
Zfyve19:NM_028054:10	|Sp-spec
ZFYVE1:NM_001199686:10	|Sp-spec
zfyve21:NM_001113683:6	|Cons-AS
ZFYVE27:NM_001002261:8	|G-spec
Zfyve27:NM_177319:9	|G-spec
ZFYVE9:NM_004799:6	|Cons-AS
Zfyve9:NM_183300:12	|Cons-AS
Zfyve9:NM_183300:3	|Cons-AS
ZHX3:NM_015035:3	|Cons-AS
ZHX3:uc002xjr.1:3	|G-spec
ZHX3:uc010ggg.1:2	|G-spec
ZMAT5:NM_019103:5	|Sp-spec
ZMIZ1:ENSGALT00000007743:18	|Sp-spec
zmynd8:NM_001006790:12	|Sp-spec
ZNF142:uc010fvt.2:5	|G-spec
ZNF148:NM_021964:6	|Cons-AS
ZNF217:NM_006526:4	|G-spec
ZNF326:NM_001006533:4	|Cons-AS
znf326:NM_001016086:3	|Cons-AS
ZNF326:NM_182976:10	|Sp-spec
ZNF326:NM_182976:5	|Cons-AS
ZNF341:NM_001030849:10	|G-spec
ZNF384:NM_001039916:4	|G-spec
ZNF384:NM_001079496:3	|G-spec
ZNF385D:NM_024697:4	|Cons-AS
ZNF410:NM_021188:10	|G-spec
ZNF410:uc010arz.1:4	|G-spec
ZNF438:NM_001143769:4	|G-spec
ZNF438:NM_001143769:6	|G-spec
ZNF438:NM_001143770:7	|G-spec
ZNF462:ENSGALT00000024915:8	|Sp-spec
ZNF462:NM_021224:7	|Cons-AS
ZNF507:NM_001136156:2	|G-spec
ZNF512B:NM_001037830:10	|Sp-spec
ZNF512B:NM_001037830:9	|Classifiers
ZNF618:uc004bid.2:4	|G-spec
ZNF638:NM_001014972:25	|G-spec
ZNF652:NM_014897:5	|Sp-spec
znf821:NM_001011339:2	|Sp-spec
ZNF821:NM_017530:5	|Sp-spec
ZNHIT6:NM_001170670:10	|Sp-spec
zxdc:ENSXETT00000025273:3	|Sp-spec
ACTN1:NM_001130004:19	|Classifiers|Cons-AS
ADSL:NM_000026:12	|Classifiers|Sp-spec
Arhgef11:NM_001003912:8	|Classifiers|Cons-AS
ARHGEF12:NM_001198665:9	|Classifiers|Sp-spec
ATP6V1H:NM_015941:7	|Classifiers|Cons-AS
BRD8:NM_006696:9	|Classifiers|Cons-AS
BX934563:BX934563:4	|Classifiers|Sp-spec
C14orf104:NM_018139:2	|Classifiers|Sp-spec
C19orf42:NM_024104:4	|Classifiers|Cons-AS
C1orf144:NM_001114600:2	|Classifiers|Cons-AS
Cnot4:NM_001164413:11	|Classifiers|Cons-AS
CR385314:CR385314:6	|Classifiers|Sp-spec
CTNS:NM_004937:5	|Classifiers|Sp-spec
DCAF10:NM_024345:5	|Classifiers|Sp-spec
Dda1:NM_025600:3	|Classifiers|Sp-spec
DHDDS:NM_024887:6	|Classifiers|Sp-spec
EIF6:NM_002212:4	|Classifiers|Sp-spec
Fam193b:NM_145382:7	|Classifiers|Sp-spec
Fbrsl1:NM_001142642:14	|Classifiers|Sp-spec
Foxk2:NM_001080932:8	|Classifiers|Sp-spec
FRMD4A:NM_018027:19	|Classifiers|Sp-spec
fubp1:NM_203962:17	|Classifiers|Sp-spec
G3BP2:NM_203505:8	|Classifiers|Cons-AS
Gapvd1:NM_025709:18	|Classifiers|Cons-AS
gpbp1l1:NM_001016512:7	|Classifiers|Sp-spec
Hdac7a:uc007xlf.1:9	|Classifiers|Cons-AS
HERC2:NM_004667:51	|Classifiers|Sp-spec
HERPUD2:ENSGALT00000019843:2	|Classifiers|Cons-AS
Hexdc:NM_001001333:6	|Classifiers|Sp-spec
INTS10:NM_018142:4	|Classifiers|Sp-spec
JOSD2:NM_138334:3	|Classifiers|Sp-spec
KDM6A:NM_021140:15	|Classifiers|Sp-spec
Ktn1:NM_008477:36	|Classifiers|Sp-spec
Ktn1:uc007tio.1:18	|Classifiers|Sp-spec
LOC100144926:BC158191:16	|Classifiers|Sp-spec
med14:ENSXETT00000033837:25	|Classifiers|Sp-spec
Mllt1:NM_022328:5	|Classifiers|Cons-AS
MPST:uc003aqn.2:2	|Classifiers|Sp-spec
mtmr2:ENSXETT00000015416:3	|Classifiers|Sp-spec
myst2:ENSXETT00000047415:2	|Classifiers|Sp-spec
Myst2:NM_001195003:6	|Classifiers|Cons-AS
NGLY1:NM_001145294:9	|Classifiers|Sp-spec
NTAN1:ENSGALT00000004474:5	|Classifiers|Cons-AS
Ogfod2:NM_025671:5	|Classifiers|Sp-spec
PDPR:NM_017990:8	|Classifiers|Sp-spec
PGS1:NM_024419:3	|Classifiers|Sp-spec
PLDN:NM_012388:2	|Classifiers|Sp-spec
PXK:NM_017771:17	|Classifiers|Sp-spec
Q5ZK42_CHICK:ENSGALT00000022443:16	|Classifiers|Sp-spec
RBM33:ENSGALT00000038716:7	|Classifiers|Cons-AS
RFWD2:NM_022457:7	|Classifiers|Sp-spec
SBDSP1:NR_024110:2	|Classifiers|Sp-spec
SCMH1:NM_001172221:4	|Classifiers|Sp-spec
SH3KBP1:NM_001024666:14	|Classifiers|Cons-AS
ST7L:NM_017744:13	|Classifiers|Sp-spec
STOML1:NM_004809:3	|Classifiers|Sp-spec
STX16:NM_001001433:5	|Classifiers|Cons-AS
thrap3:NM_001037250:12	|Classifiers|Sp-spec
TNRC6A:NM_014494:7	|Classifiers|Sp-spec
TSEN2:NM_001145392:6	|Classifiers|Sp-spec
ttc1:ENSXETT00000012599:4	|Classifiers|Sp-spec
Txndc11:NM_029582:6	|Classifiers|Cons-AS
ubac2:NM_001172293:3	|Classifiers|Sp-spec
UNK:ENSGALT00000003571:13	|Classifiers|Sp-spec
YTHDC2:ENSGALT00000000247:21	|Classifiers|Sp-spec
ZADH1:NM_001031195:2	|Classifiers|Sp-spec
zranb2:NM_001142662:8	|Classifiers|Sp-spec
