<?xml version="1.0" encoding="UTF-8" standalone="no"?>
<svg
   xmlns:dc="http://purl.org/dc/elements/1.1/"
   xmlns:cc="http://creativecommons.org/ns#"
   xmlns:rdf="http://www.w3.org/1999/02/22-rdf-syntax-ns#"
   xmlns:svg="http://www.w3.org/2000/svg"
   xmlns="http://www.w3.org/2000/svg"
   viewBox="0 0 744.09998 1052.3625"
   height="1052.3625"
   width="744.09998"
   xml:space="preserve"
   version="1.1"
   id="svg3582"><metadata
     id="metadata3588"><rdf:RDF><cc:Work
         rdf:about=""><dc:format>image/svg+xml</dc:format><dc:type
           rdf:resource="http://purl.org/dc/dcmitype/StillImage" /><dc:title></dc:title></cc:Work></rdf:RDF></metadata><defs
     id="defs3586"><clipPath
       id="clipPath3604"
       clipPathUnits="userSpaceOnUse"><path
         id="path3606"
         d="m 0,841.89 595.28,0 L 595.28,0 0,0 0,841.89 Z" /></clipPath><clipPath
       id="clipPath3612"
       clipPathUnits="userSpaceOnUse"><path
         id="path3614"
         d="m 31.0659,790.89 164.3301,0 0,-39 -164.3301,0 0,39 z" /></clipPath><clipPath
       id="clipPath3616"
       clipPathUnits="userSpaceOnUse"><path
         id="path3618"
         d="m 147.065,751.89 -115.999,0 48.331,39 115.999,0 -48.331,-39 z" /></clipPath><linearGradient
       id="linearGradient3620"
       spreadMethod="pad"
       gradientTransform="matrix(0,-65.115181,-65.115181,0,113.23077,797.39001)"
       gradientUnits="userSpaceOnUse"
       y2="0"
       x2="1"
       y1="0"
       x1="0"><stop
         id="stop3622"
         offset="0"
         style="stop-opacity:1;stop-color:#ffffff" /><stop
         id="stop3624"
         offset="1"
         style="stop-opacity:1;stop-color:#000000" /></linearGradient><clipPath
       id="clipPath3648"
       clipPathUnits="userSpaceOnUse"><path
         id="path3650"
         d="m 0,841.89 595.28,0 L 595.28,0 0,0 0,841.89 Z" /></clipPath><clipPath
       id="clipPath3656"
       clipPathUnits="userSpaceOnUse"><path
         id="path3658"
         d="m 35,549.89 160,0 0,-66 -160,0 0,66 z" /></clipPath><clipPath
       id="clipPath3660"
       clipPathUnits="userSpaceOnUse"><path
         id="path3662"
         d="m 195,483.89 -160,0 0,66 160,0 0,-66 z" /></clipPath><linearGradient
       id="linearGradient3664"
       spreadMethod="pad"
       gradientTransform="matrix(0,-110.19492,-110.19492,0,115,560.89001)"
       gradientUnits="userSpaceOnUse"
       y2="0"
       x2="1"
       y1="0"
       x1="0"><stop
         id="stop3666"
         offset="0"
         style="stop-opacity:1;stop-color:#ffffff" /><stop
         id="stop3668"
         offset="1"
         style="stop-opacity:1;stop-color:#000000" /></linearGradient><clipPath
       id="clipPath3696"
       clipPathUnits="userSpaceOnUse"><path
         id="path3698"
         d="m 0,841.89 595.28,0 L 595.28,0 0,0 0,841.89 Z" /></clipPath><clipPath
       id="clipPath3704"
       clipPathUnits="userSpaceOnUse"><path
         id="path3706"
         d="m 19.6377,443.89 165.9553,0 0,-45 -165.9553,0 0,45 z" /></clipPath><clipPath
       id="clipPath3708"
       clipPathUnits="userSpaceOnUse"><path
         id="path3710"
         d="m 136.784,398.89 -117.146,0 48.809,45 117.146,0 -48.809,-45 z" /></clipPath><linearGradient
       id="linearGradient3712"
       spreadMethod="pad"
       gradientTransform="matrix(0,-75.132896,-75.132896,0,102.61555,451.39001)"
       gradientUnits="userSpaceOnUse"
       y2="0"
       x2="1"
       y1="0"
       x1="0"><stop
         id="stop3714"
         offset="0"
         style="stop-opacity:1;stop-color:#ffffff" /><stop
         id="stop3716"
         offset="1"
         style="stop-opacity:1;stop-color:#000000" /></linearGradient><clipPath
       id="clipPath3748"
       clipPathUnits="userSpaceOnUse"><path
         id="path3750"
         d="m 0,841.89 595.28,0 L 595.28,0 0,0 0,841.89 Z" /></clipPath><clipPath
       id="clipPath3756"
       clipPathUnits="userSpaceOnUse"><path
         id="path3758"
         d="m 37,718.89 149,0 0,-41 -149,0 0,41 z" /></clipPath><clipPath
       id="clipPath3760"
       clipPathUnits="userSpaceOnUse"><path
         id="path3762"
         d="m 186,677.89 -149,0 0,41 149,0 0,-41 z" /></clipPath><linearGradient
       id="linearGradient3764"
       spreadMethod="pad"
       gradientTransform="matrix(0,-68.454422,-68.454422,0,111.5,725.72333)"
       gradientUnits="userSpaceOnUse"
       y2="0"
       x2="1"
       y1="0"
       x1="0"><stop
         id="stop3766"
         offset="0"
         style="stop-opacity:1;stop-color:#ffffff" /><stop
         id="stop3768"
         offset="1"
         style="stop-opacity:1;stop-color:#000000" /></linearGradient><clipPath
       id="clipPath3792"
       clipPathUnits="userSpaceOnUse"><path
         id="path3794"
         d="m 0,841.89 595.28,0 L 595.28,0 0,0 0,841.89 Z" /></clipPath><clipPath
       id="clipPath3800"
       clipPathUnits="userSpaceOnUse"><path
         id="path3802"
         d="m 34,640.89 153,0 0,-52 -153,0 0,52 z" /></clipPath><clipPath
       id="clipPath3804"
       clipPathUnits="userSpaceOnUse"><path
         id="path3806"
         d="m 187,588.89 -153,0 0,52 153,0 0,-52 z" /></clipPath><linearGradient
       id="linearGradient3808"
       spreadMethod="pad"
       gradientTransform="matrix(0,-86.820236,-86.820236,0,110.5,649.5567)"
       gradientUnits="userSpaceOnUse"
       y2="0"
       x2="1"
       y1="0"
       x1="0"><stop
         id="stop3810"
         offset="0"
         style="stop-opacity:1;stop-color:#ffffff" /><stop
         id="stop3812"
         offset="1"
         style="stop-opacity:1;stop-color:#000000" /></linearGradient><clipPath
       id="clipPath3966"
       clipPathUnits="userSpaceOnUse"><path
         id="path3968"
         d="m 0,841.89 595.28,0 L 595.28,0 0,0 0,841.89 Z" /></clipPath><clipPath
       id="clipPath4018"
       clipPathUnits="userSpaceOnUse"><path
         id="path4020"
         d="m 0,841.89 595.28,0 L 595.28,0 0,0 0,841.89 Z" /></clipPath><clipPath
       id="clipPath4040"
       clipPathUnits="userSpaceOnUse"><path
         id="path4042"
         d="m 0,841.89 595.28,0 L 595.28,0 0,0 0,841.89 Z" /></clipPath></defs><g
     transform="matrix(1.25,0,0,-1.25,0,1052.3625)"
     id="g3590"><g
       transform="translate(147.0648,751.89)"
       id="g3592"><path
         id="path3594"
         style="fill:#acd79f;fill-opacity:1;fill-rule:nonzero;stroke:none"
         d="M 0,0 -115.999,0 -67.668,39 48.331,39 0,0 Z" /></g><g
       transform="translate(147.0648,752.39)"
       id="g3596"><path
         id="path3598"
         style="fill:none;stroke:#81a979;stroke-width:1;stroke-linecap:butt;stroke-linejoin:miter;stroke-miterlimit:10;stroke-dasharray:none;stroke-opacity:1"
         d="M 0,0 -115.999,0 -67.668,39 48.331,39 0,0 Z" /></g><g
       id="g3600"><g
         clip-path="url(#clipPath3604)"
         id="g3602"><g
           id="g3608"><g
             id="g3610" /><g
             id="g3626"><g
               style="opacity:0.39999402"
               id="g3628"
               clip-path="url(#clipPath3612)"><g
                 id="g3630"><g
                   id="g3632"
                   clip-path="url(#clipPath3616)"><g
                     id="g3634"><g
                       id="g3636"><path
                         id="path3638"
                         style="fill:url(#linearGradient3620);stroke:none"
                         d="m 147.065,751.89 -115.999,0 48.331,39 115.999,0 -48.331,-39 z" /></g></g></g></g></g></g></g></g></g><path
       id="path3640"
       style="fill:#acd79f;fill-opacity:1;fill-rule:nonzero;stroke:none"
       d="m 195,483.89 -160,0 0,66 160,0 0,-66 z" /><path
       id="path3642"
       style="fill:none;stroke:#81a979;stroke-width:1;stroke-linecap:butt;stroke-linejoin:miter;stroke-miterlimit:10;stroke-dasharray:none;stroke-opacity:1"
       d="m 195.5,483.39 -161,0 0,67 161,0 0,-67 z" /><g
       id="g3644"><g
         clip-path="url(#clipPath3648)"
         id="g3646"><g
           id="g3652"><g
             id="g3654" /><g
             id="g3670"><g
               style="opacity:0.39999402"
               id="g3672"
               clip-path="url(#clipPath3656)"><g
                 id="g3674"><g
                   id="g3676"
                   clip-path="url(#clipPath3660)"><g
                     id="g3678"><g
                       id="g3680"><path
                         id="path3682"
                         style="fill:url(#linearGradient3664);stroke:none"
                         d="m 195,483.89 -160,0 0,66 160,0 0,-66 z" /></g></g></g></g></g></g></g></g></g><g
       transform="translate(136.7843,398.89)"
       id="g3684"><path
         id="path3686"
         style="fill:#acd79f;fill-opacity:1;fill-rule:nonzero;stroke:none"
         d="M 0,0 -117.147,0 -68.338,45 48.809,45 0,0 Z" /></g><g
       transform="translate(136.7843,398.39)"
       id="g3688"><path
         id="path3690"
         style="fill:none;stroke:#81a979;stroke-width:1;stroke-linecap:butt;stroke-linejoin:miter;stroke-miterlimit:10;stroke-dasharray:none;stroke-opacity:1"
         d="M 0,0 -117.147,0 -68.338,46 48.809,46 0,0 Z" /></g><g
       id="g3692"><g
         clip-path="url(#clipPath3696)"
         id="g3694"><g
           id="g3700"><g
             id="g3702" /><g
             id="g3718"><g
               style="opacity:0.39999402"
               id="g3720"
               clip-path="url(#clipPath3704)"><g
                 id="g3722"><g
                   id="g3724"
                   clip-path="url(#clipPath3708)"><g
                     id="g3726"><g
                       id="g3728"><path
                         id="path3730"
                         style="fill:url(#linearGradient3712);stroke:none"
                         d="m 136.784,398.89 -117.146,0 48.809,45 117.146,0 -48.809,-45 z" /></g></g></g></g></g></g></g></g></g><text
       id="text3732"
       style="font-variant:normal;font-weight:normal;font-stretch:normal;font-size:15px;font-family:'Myriad Pro';-inkscape-font-specification:MyriadPro-Regular;writing-mode:lr-tb;fill:#231f20;fill-opacity:1;fill-rule:nonzero;stroke:none"
       transform="matrix(1,0,0,-1,89.3628,777.4609)"><tspan
         id="tspan3734"
         y="0"
         x="0 12.51 20.58 30.450001 39.540001 45.48 52.994999">mRNAseq</tspan></text>
<text
       id="text3736"
       style="font-variant:normal;font-weight:normal;font-stretch:normal;font-size:12px;font-family:'Myriad Pro';-inkscape-font-specification:MyriadPro-Regular;writing-mode:lr-tb;fill:#231f20;fill-opacity:1;fill-rule:nonzero;stroke:none"
       transform="matrix(1,0,0,-1,89.3628,763.061)"><tspan
         id="tspan3738"
         y="0"
         x="0 2.484 8.9879999 16.284">.BAM</tspan></text>
<path
       id="path3740"
       style="fill:#acd79f;fill-opacity:1;fill-rule:nonzero;stroke:none"
       d="m 186,677.89 -149,0 0,41 149,0 0,-41 z" /><path
       id="path3742"
       style="fill:none;stroke:#81a979;stroke-width:1;stroke-linecap:butt;stroke-linejoin:miter;stroke-miterlimit:10;stroke-dasharray:none;stroke-opacity:1"
       d="m 186.5,678.39 -150,0 0,41 150,0 0,-41 z" /><g
       id="g3744"><g
         clip-path="url(#clipPath3748)"
         id="g3746"><g
           id="g3752"><g
             id="g3754" /><g
             id="g3770"><g
               style="opacity:0.39999402"
               id="g3772"
               clip-path="url(#clipPath3756)"><g
                 id="g3774"><g
                   id="g3776"
                   clip-path="url(#clipPath3760)"><g
                     id="g3778"><g
                       id="g3780"><path
                         id="path3782"
                         style="fill:url(#linearGradient3764);stroke:none"
                         d="m 186,677.89 -149,0 0,41 149,0 0,-41 z" /></g></g></g></g></g></g></g></g></g><path
       id="path3784"
       style="fill:#acd79f;fill-opacity:1;fill-rule:nonzero;stroke:none"
       d="m 187,588.89 -153,0 0,52 153,0 0,-52 z" /><path
       id="path3786"
       style="fill:none;stroke:#81a979;stroke-width:1;stroke-linecap:butt;stroke-linejoin:miter;stroke-miterlimit:10;stroke-dasharray:none;stroke-opacity:1"
       d="m 187.5,588.39 -154,0 0,53 154,0 0,-53 z" /><g
       id="g3788"><g
         clip-path="url(#clipPath3792)"
         id="g3790"><g
           id="g3796"><g
             id="g3798" /><g
             id="g3814"><g
               style="opacity:0.39999402"
               id="g3816"
               clip-path="url(#clipPath3800)"><g
                 id="g3818"><g
                   id="g3820"
                   clip-path="url(#clipPath3804)"><g
                     id="g3822"><g
                       id="g3824"><path
                         id="path3826"
                         style="fill:url(#linearGradient3808);stroke:none"
                         d="m 187,588.89 -153,0 0,52 153,0 0,-52 z" /></g></g></g></g></g></g></g></g></g><text
       id="text3828"
       style="font-variant:normal;font-weight:normal;font-stretch:normal;font-size:16.47660065px;font-family:'Myriad Pro';-inkscape-font-specification:MyriadPro-Regular;writing-mode:lr-tb;fill:#231f20;fill-opacity:1;fill-rule:nonzero;stroke:none"
       transform="matrix(1,0,0,-0.84968986,61.6177,627.2305)"><tspan
         id="tspan3830"
         y="0"
         x="0 7.447423 12.752889 20.694609 29.839123 36.363857 43.745373 49.199127 53.054653 62.429836 67.786377 76.832031 90.573517">Transcriptome</tspan><tspan
         id="tspan3832"
         y="19.771919"
         x="8.9467936 17.053282 26.197794 32.722527 40.664249 54.405735 63.780918 67.669395 71.524918 80.669434">Ensambling</tspan></text>
<text
       id="text3834"
       style="font-variant:normal;font-weight:normal;font-stretch:normal;font-size:15px;font-family:'Myriad Pro';-inkscape-font-specification:MyriadPro-Regular;writing-mode:lr-tb;fill:#231f20;fill-opacity:1;fill-rule:nonzero;stroke:none"
       transform="matrix(1,0,0,-1,51.2368,534.9004)"><tspan
         id="tspan3836"
         y="0"
         x="0 12.15 19.665001 24.450001 32.834999 40.349998 43.529999 48.406502 56.641499 63.001499 67.7565 75.2715 79.456497 86.971497 91.726501 99.241501 107.5665 114.1965 121.7115">Merge to reference </tspan><tspan
         id="tspan3838"
         y="18"
         x="35.505001 45.27 52.785 61.110001 69.345001 81.855003">Genome</tspan></text>
<text
       id="text3840"
       style="font-variant:normal;font-weight:normal;font-stretch:normal;font-size:12px;font-family:'Myriad Pro';-inkscape-font-specification:MyriadPro-Regular;writing-mode:lr-tb;fill:#231f20;fill-opacity:1;fill-rule:nonzero;stroke:none"
       transform="matrix(1,0,0,-1,87.0439,404.8896)"><tspan
         id="tspan3842"
         y="0"
         x="0 3.408 5.8920002 13.644 19.608 25.452">(.GTF)</tspan></text>
<g
       transform="translate(102.5,750.89)"
       id="g3844"><path
         id="path3846"
         style="fill:none;stroke:#000000;stroke-width:1;stroke-linecap:butt;stroke-linejoin:miter;stroke-miterlimit:10;stroke-dasharray:none;stroke-opacity:1"
         d="M 0,0 0,-18" /></g><g
       transform="translate(99.304,735.89)"
       id="g3848"><path
         id="path3850"
         style="fill:#000000;fill-opacity:1;fill-rule:nonzero;stroke:none"
         d="M 0,0 3.632,-13.551 7.263,0 0,0 Z" /></g><g
       transform="translate(111.5,669.89)"
       id="g3852"><path
         id="path3854"
         style="fill:none;stroke:#000000;stroke-width:1;stroke-linecap:butt;stroke-linejoin:miter;stroke-miterlimit:10;stroke-dasharray:none;stroke-opacity:1"
         d="M 0,0 0,-18" /></g><g
       transform="translate(108.304,654.89)"
       id="g3856"><path
         id="path3858"
         style="fill:#000000;fill-opacity:1;fill-rule:nonzero;stroke:none"
         d="M 0,0 3.632,-13.551 7.263,0 0,0 Z" /></g><g
       transform="translate(109.5,584.89)"
       id="g3860"><path
         id="path3862"
         style="fill:none;stroke:#000000;stroke-width:1;stroke-linecap:butt;stroke-linejoin:miter;stroke-miterlimit:10;stroke-dasharray:none;stroke-opacity:1"
         d="M 0,0 0,-18" /></g><g
       transform="translate(106.304,569.89)"
       id="g3864"><path
         id="path3866"
         style="fill:#000000;fill-opacity:1;fill-rule:nonzero;stroke:none"
         d="M 0,0 3.632,-13.551 7.263,0 0,0 Z" /></g><g
       transform="translate(109.5,478.89)"
       id="g3868"><path
         id="path3870"
         style="fill:none;stroke:#000000;stroke-width:1;stroke-linecap:butt;stroke-linejoin:miter;stroke-miterlimit:10;stroke-dasharray:none;stroke-opacity:1"
         d="M 0,0 0,-18" /></g><g
       transform="translate(106.304,463.89)"
       id="g3872"><path
         id="path3874"
         style="fill:#000000;fill-opacity:1;fill-rule:nonzero;stroke:none"
         d="M 0,0 3.632,-13.551 7.263,0 0,0 Z" /></g><g
       transform="translate(184,415.39)"
       id="g3876"><path
         id="path3878"
         style="fill:none;stroke:#000000;stroke-width:1;stroke-linecap:butt;stroke-linejoin:miter;stroke-miterlimit:10;stroke-dasharray:none;stroke-opacity:1"
         d="m 0,0 63.5,0 0,359.5" /></g><g
       transform="translate(246,774.39)"
       id="g3880"><path
         id="path3882"
         style="fill:none;stroke:#000000;stroke-width:1;stroke-linecap:butt;stroke-linejoin:miter;stroke-miterlimit:10;stroke-dasharray:none;stroke-opacity:1"
         d="M 0,0 45,0" /></g><g
       transform="translate(289,770.7135)"
       id="g3884"><path
         id="path3886"
         style="fill:#000000;fill-opacity:1;fill-rule:nonzero;stroke:none"
         d="M 0,0 13.551,3.632 0,7.263 0,0 Z" /></g><path
       id="path3888"
       style="fill:#76d0ed;fill-opacity:1;fill-rule:nonzero;stroke:#14444b;stroke-width:1;stroke-linecap:butt;stroke-linejoin:miter;stroke-miterlimit:10;stroke-dasharray:none;stroke-opacity:1"
       d="m 472.5,745.39 -169,0 0,49 169,0 0,-49 z" /><g
       transform="translate(387.6735,636.5521)"
       id="g3890"><path
         id="path3892"
         style="fill:#76d0ed;fill-opacity:1;fill-rule:nonzero;stroke:none"
         d="M 0,0 -80.271,39.184 0,78.37 80.267,39.184 0,0 Z" /></g><g
       transform="translate(387.6735,636.5521)"
       id="g3894"><path
         id="path3896"
         style="fill:none;stroke:#14444b;stroke-width:1;stroke-linecap:butt;stroke-linejoin:miter;stroke-miterlimit:10;stroke-dasharray:none;stroke-opacity:1"
         d="M 0,0 -80.271,39.184 0,78.37 80.267,39.184 0,0 Z" /></g><g
       transform="translate(388.5,329.89)"
       id="g3898"><path
         id="path3900"
         style="fill:none;stroke:#000000;stroke-width:1;stroke-linecap:butt;stroke-linejoin:miter;stroke-miterlimit:10;stroke-dasharray:none;stroke-opacity:1"
         d="M 0,0 0,-18" /></g><g
       transform="translate(385.304,314.89)"
       id="g3902"><path
         id="path3904"
         style="fill:#000000;fill-opacity:1;fill-rule:nonzero;stroke:none"
         d="M 0,0 3.632,-13.551 7.263,0 0,0 Z" /></g><text
       id="text3906"
       style="font-variant:normal;font-weight:normal;font-stretch:normal;font-size:15px;font-family:'Myriad Pro';-inkscape-font-specification:MyriadPro-Regular;writing-mode:lr-tb;fill:#231f20;fill-opacity:1;fill-rule:nonzero;stroke:none"
       transform="matrix(1,0,0,-1,330.0635,679.8892)"><tspan
         id="tspan3908"
         y="0"
         x="0 3.585 9.5249996 12.705 19.934999 23.115 30.719999 38.955002 43.830002 51.345001 59.610001 64.574997 68.084999 75.315002 78.855003 82.035004 89.415001 96.135002 104.37 112.695">Is a Potential Exon </tspan><tspan
         id="tspan3910"
         y="18"
         x="17.264999 24.66 31.950001 35.459999 43.994999 52.529999 56.040001 64.364998 72.75 75.93 85.110001 92.504997">Skipping AS?</tspan></text>
<g
       transform="translate(387.5,634.89)"
       id="g3912"><path
         id="path3914"
         style="fill:none;stroke:#000000;stroke-width:1;stroke-linecap:butt;stroke-linejoin:miter;stroke-miterlimit:10;stroke-dasharray:none;stroke-opacity:1"
         d="M 0,0 0,-18" /></g><g
       transform="translate(384.304,619.89)"
       id="g3916"><path
         id="path3918"
         style="fill:#000000;fill-opacity:1;fill-rule:nonzero;stroke:none"
         d="M 0,0 3.632,-13.551 7.263,0 0,0 Z" /></g><path
       id="path3920"
       style="fill:#f69b92;fill-opacity:1;fill-rule:nonzero;stroke:#f7931d;stroke-width:1;stroke-linecap:butt;stroke-linejoin:miter;stroke-miterlimit:10;stroke-dasharray:none;stroke-opacity:1"
       d="m 472.5,550.39 -167,0 0,50 167,0 0,-50 z" /><text
       id="text3922"
       style="font-variant:normal;font-weight:normal;font-stretch:normal;font-size:17px;font-family:'Myriad Pro';-inkscape-font-specification:MyriadPro-Regular;writing-mode:lr-tb;fill:#231f20;fill-opacity:1;fill-rule:nonzero;stroke:none"
       transform="matrix(1,0,0,-1,342.5049,570.2485)"><tspan
         id="tspan3924"
         y="0"
         x="0 9.2139997 13.226 21.42 28.152 33.778999 37.382999 47.786999 56.167999 59.771999 68.289001 76.295998 84.813004 94.18 99.806999">Blast AS event*</tspan></text>
<text
       id="text3926"
       style="font-variant:normal;font-weight:normal;font-stretch:normal;font-size:12px;font-family:'Myriad Pro';-inkscape-font-specification:MyriadPro-Regular;writing-mode:lr-tb;fill:#231f20;fill-opacity:1;fill-rule:nonzero;stroke:none"
       transform="matrix(1,0,0,-1,13.4839,29.626)"><tspan
         id="tspan3928"
         y="0"
         x="0 4.98 12.288 18.948 21.492001 27.504 33.155998 39.167999 45.778801 49.750801 52.2948 55.102798 59.854801 62.3988 69.166801 75.178802 81.454803 88.114799 94.126801 100.8948 103.4388 109.2228 113.9748 116.5188 120.4908 127.1508 133.1628 135.7068 141.6228 147.4548 150.2628 157.09081 163.1028 169.8708 173.9868 176.976 183.636 189.01199 191.84399 198.45599 205.224 211.23599 218.004 220.548 226.452 231.828 238.416 245.076 247.62 253.40401 260.064 266.832 269.37601 276.20401 282.79199 286.76401 293.42401 295.96799 302.24399 308.02802 313.40399 319.23599 322.04401 328.70401">*An event is defned as the Skiped/Included Exon and both facking</tspan><tspan
         id="tspan3930"
         y="14.4"
         x="0 5.9039998 11.28 17.868 24.528 29.148001 31.632">Exons. </tspan></text>
<g
       transform="translate(390.2204,432.9999)"
       id="g3932"><path
         id="path3934"
         style="fill:#f69b92;fill-opacity:1;fill-rule:nonzero;stroke:none"
         d="M 0,0 -77.72,39.075 0,78.152 77.72,39.075 0,0 Z" /></g><text
       id="text3936"
       style="font-variant:normal;font-weight:normal;font-stretch:normal;font-size:16px;font-family:'Myriad Pro';-inkscape-font-specification:MyriadPro-Regular;writing-mode:lr-tb;fill:#231f20;fill-opacity:1;fill-rule:nonzero;stroke:none"
       transform="matrix(1,0,0,-1,350.8789,479.9556)"><tspan
         id="tspan3938"
         y="0"
         x="0 3.8239999 10.16 13.552 18.848 27.728001 35.743999 40.816002 48.832001 52.223999 59.936001 68.608002 76.143997">Is there any </tspan><tspan
         id="tspan3940"
         y="19.200001"
         x="0 8.9440002 17.728001 26.511999 35.535999 38.928001 46.639999 55.52 62.688 71.568001 80.351997 85.584">good anchor?</tspan></text>
<g
       transform="translate(388.5,427.89)"
       id="g3942"><path
         id="path3944"
         style="fill:none;stroke:#000000;stroke-width:1;stroke-linecap:butt;stroke-linejoin:miter;stroke-miterlimit:10;stroke-dasharray:none;stroke-opacity:1"
         d="M 0,0 0,-18" /></g><g
       transform="translate(385.304,412.89)"
       id="g3946"><path
         id="path3948"
         style="fill:#000000;fill-opacity:1;fill-rule:nonzero;stroke:none"
         d="M 0,0 3.632,-13.551 7.263,0 0,0 Z" /></g><path
       id="path3950"
       style="fill:#f69b92;fill-opacity:1;fill-rule:nonzero;stroke:none"
       d="m 472,337.89 -160,0 0,61 160,0 0,-61 z" /><text
       id="text3952"
       style="font-variant:normal;font-weight:normal;font-stretch:normal;font-size:16px;font-family:'Myriad Pro';-inkscape-font-specification:MyriadPro-Regular;writing-mode:lr-tb;fill:#231f20;fill-opacity:1;fill-rule:nonzero;stroke:none"
       transform="matrix(1,0,0,-1,340.5503,381.2744)"><tspan
         id="tspan3954"
         y="0"
         x="0 12.96 20.672001 29.775999 33.167999 43.582401 51.5984 60.478401 68.4944 73.6464 81.294403 86.590401 90.334396 99.118401">Map Generation</tspan><tspan
         id="tspan3956"
         y="19.200001"
         x="-19.792 -10.048 -1.168 6 14.88 23.664 28.816 33.728001 41.616001 50.720001 54.495998 58.240002 65.407997 69.152 78.031998 86.975998 90.367996 98.127998 105.664 113.68 122.496">Anchor-Splicing Event</tspan></text>
<path
       id="path3958"
       style="fill:#feee3e;fill-opacity:1;fill-rule:nonzero;stroke:none"
       d="m 472,249.89 -158,0 0,40 158,0 0,-40 z" /><path
       id="path3960"
       style="fill:#feee3e;fill-opacity:1;fill-rule:nonzero;stroke:none"
       d="m 579.659,231.574 -62.637,0 0,55.536 62.637,0 0,-55.536 z" /><g
       id="g3962"><g
         clip-path="url(#clipPath3966)"
         id="g3964"><g
           transform="translate(579.6594,231.39)"
           id="g3970"><path
             id="path3972"
             style="fill:#feee3e;fill-opacity:1;fill-rule:nonzero;stroke:none"
             d="m 0,0 c 0,-5.072 -14.022,-9.184 -31.319,-9.184 -17.297,0 -31.318,4.112 -31.318,9.184 0,5.072 14.021,9.184 31.318,9.184 C -14.022,9.184 0,5.072 0,0" /></g><g
           transform="translate(579.6594,287.1098)"
           id="g3974"><path
             id="path3976"
             style="fill:#e1d61e;fill-opacity:1;fill-rule:nonzero;stroke:none"
             d="m 0,0 c 0,-7.436 -14.022,-13.464 -31.319,-13.464 -17.297,0 -31.318,6.028 -31.318,13.464 0,7.436 14.021,13.464 31.318,13.464 C -14.022,13.464 0,7.436 0,0" /></g><g
           transform="translate(388.5,239.89)"
           id="g3978"><path
             id="path3980"
             style="fill:none;stroke:#000000;stroke-width:1;stroke-linecap:butt;stroke-linejoin:miter;stroke-miterlimit:10;stroke-dasharray:none;stroke-opacity:1"
             d="M 0,0 0,-18" /></g><g
           transform="translate(385.304,224.89)"
           id="g3982"><path
             id="path3984"
             style="fill:#000000;fill-opacity:1;fill-rule:nonzero;stroke:none"
             d="M 0,0 3.632,-13.551 7.263,0 0,0 Z" /></g><g
           transform="translate(460.3301,159.0905)"
           id="g3986"><path
             id="path3988"
             style="fill:#feee3e;fill-opacity:1;fill-rule:nonzero;stroke:none"
             d="M 0,0 -170.271,0 -142.094,49.633 20.111,50.162 0,0 Z" /></g></g></g><text
       id="text3990"
       style="font-variant:normal;font-weight:normal;font-stretch:normal;font-size:16px;font-family:'Myriad Pro';-inkscape-font-specification:MyriadPro-Regular;writing-mode:lr-tb;fill:#231f20;fill-opacity:1;fill-rule:nonzero;stroke:none"
       transform="matrix(1,0,0,-1,370.8477,190.208)"><tspan
         id="tspan3992"
         y="0"
         x="0 8.5120001 18.864 26.416 34.304001">PULSE</tspan><tspan
         id="tspan3994"
         y="19.200001"
         x="-9.4879999 -1.6 7.3439999 18.368 26.976 30.799999 41.327999">SCORING</tspan></text>
<text
       id="text3996"
       style="font-variant:normal;font-weight:normal;font-stretch:normal;font-size:14px;font-family:'Myriad Pro';-inkscape-font-specification:MyriadPro-Regular;writing-mode:lr-tb;fill:#231f20;fill-opacity:1;fill-rule:nonzero;stroke:none"
       transform="matrix(1,0,0,-1,82.5728,591.3403)"><tspan
         id="tspan3998"
         y="0"
         x="0 3.9760001 10.248 17.962 29.372 32.647999 40.417999 46.984001 52.528">(cufinks)</tspan></text>
<text
       id="text4000"
       style="font-variant:normal;font-weight:normal;font-stretch:normal;font-size:15px;font-family:'Myriad Pro';-inkscape-font-specification:MyriadPro-Regular;writing-mode:lr-tb;fill:#231f20;fill-opacity:1;fill-rule:nonzero;stroke:none"
       transform="matrix(1,0,0,-1,73.4561,490.0625)"><tspan
         id="tspan4002"
         y="0"
         x="0 4.2600002 10.98 19.245001 27.99 40.5 48.014999 52.799999 61.185001 68.699997">(cufmerge)</tspan><tspan
         id="tspan4004"
         y="60.435001"
         x="-7.4099998 -0.63 4.1999998 11.43 19.754999 25.695 32.415001 37.380001 40.889999 49.424999 54.299999 62.535 75.044998">Transcriptome</tspan></text>
<text
       id="text4006"
       style="font-variant:normal;font-weight:normal;font-stretch:normal;font-size:16px;font-family:'Myriad Pro';-inkscape-font-specification:MyriadPro-Regular;writing-mode:lr-tb;fill:#231f20;fill-opacity:1;fill-rule:nonzero;stroke:none"
       transform="matrix(1,0,0,-1,76.5024,703.4648)"><tspan
         id="tspan4008"
         y="0"
         x="0 9.2799997 13.056 21.072001 28.784 37.664001 41.056 48.430401 52.1744 55.950401 63.9664">Clean Files</tspan></text>
<text
       id="text4010"
       style="font-variant:normal;font-weight:normal;font-stretch:normal;font-size:15px;font-family:'Myriad Pro';-inkscape-font-specification:MyriadPro-Regular;writing-mode:lr-tb;fill:#231f20;fill-opacity:1;fill-rule:nonzero;stroke:none"
       transform="matrix(1,0,0,-1,79.1714,685.4648)"><tspan
         id="tspan4012"
         y="0"
         x="0 4.2600002 10.2 17.43 29.879999 34.755001 42.990002 51.224998 54.764999 60.705002">(samtools)</tspan></text>
<g
       id="g4014"><g
         clip-path="url(#clipPath4018)"
         id="g4016"><g
           transform="translate(386.5,745.89)"
           id="g4022"><path
             id="path4024"
             style="fill:none;stroke:#000000;stroke-width:1;stroke-linecap:butt;stroke-linejoin:miter;stroke-miterlimit:10;stroke-dasharray:none;stroke-opacity:1"
             d="M 0,0 0,-18" /></g><g
           transform="translate(383.304,730.89)"
           id="g4026"><path
             id="path4028"
             style="fill:#000000;fill-opacity:1;fill-rule:nonzero;stroke:none"
             d="M 0,0 3.632,-13.551 7.263,0 0,0 Z" /></g></g></g><text
       id="text4030"
       style="font-variant:normal;font-weight:normal;font-stretch:normal;font-size:15px;font-family:'Myriad Pro';-inkscape-font-specification:MyriadPro-Regular;writing-mode:lr-tb;fill:#231f20;fill-opacity:1;fill-rule:nonzero;stroke:none"
       transform="matrix(1,0,0,-1,314.8159,774.3447)"><tspan
         id="tspan4032"
         y="0"
         x="0 9.6899996 14.445 22.68 30.945 39.48 42.66 51.09 58.154999 61.334999 71.098503 78.613503 86.938499 94.453499 97.633499 104.8635 113.1885 121.6485 124.2135 131.57851 138.9735">Group by Gene and TSS</tspan><tspan
         id="tspan4034"
         y="18"
         x="14.295 24.059999 31.575001 36.540001 39.720001 49.709999 59.580002 68.760002 71.940002 77.879997 85.394997 93.839996 102.105 109.62 117.945 124.575">Get DNA sequence</tspan></text>
<g
       id="g4036"><g
         clip-path="url(#clipPath4040)"
         id="g4038"><g
           transform="translate(387.5,545.89)"
           id="g4044"><path
             id="path4046"
             style="fill:none;stroke:#000000;stroke-width:1;stroke-linecap:butt;stroke-linejoin:miter;stroke-miterlimit:10;stroke-dasharray:none;stroke-opacity:1"
             d="M 0,0 0,-18" /></g><g
           transform="translate(384.304,530.89)"
           id="g4048"><path
             id="path4050"
             style="fill:#000000;fill-opacity:1;fill-rule:nonzero;stroke:none"
             d="M 0,0 3.632,-13.551 7.263,0 0,0 Z" /></g><g
           transform="translate(509,259.39)"
           id="g4052"><path
             id="path4054"
             style="fill:none;stroke:#000000;stroke-width:1;stroke-linecap:butt;stroke-linejoin:miter;stroke-miterlimit:10;stroke-dasharray:none;stroke-opacity:1"
             d="M 0,0 -17,0" /></g><g
           transform="translate(494,262.8801)"
           id="g4056"><path
             id="path4058"
             style="fill:#000000;fill-opacity:1;fill-rule:nonzero;stroke:none"
             d="M 0,0 -13.551,-3.632 0,-7.263 0,0 Z" /></g></g></g><text
       id="text4060"
       style="font-variant:normal;font-weight:normal;font-stretch:normal;font-size:16px;font-family:'Myriad Pro';-inkscape-font-specification:MyriadPro-Regular;writing-mode:lr-tb;fill:#231f20;fill-opacity:1;fill-rule:nonzero;stroke:none"
       transform="matrix(1,0,0,-1,522.7251,254.5732)"><tspan
         id="tspan4062"
         y="0"
         x="0 10.352 19.232 22.976 32.080002 37.153599 45.937599">Uniprot</tspan><tspan
         id="tspan4064"
         y="19.200001"
         x="-2.6240001 4.6719999 12.688 20.336 25.632 34.448002 39.52 47.535999">Features</tspan><tspan
         id="tspan4066"
         y="-12.016"
         x="-195.328 -184.912 -176.896 -168.01601 -160 -154.84641 -147.2 -142 -133.98399 -130.592 -123.2976 -115.2816 -107.632 -102.336 -93.519997 -88.447998 -80.431999">Generate Features</tspan></text>
</g></svg>